{
	"file":"yc1_realtime_023",
	"items":[
		{
			"gid":"",
			"node":"L0HTM16CT004",
			"tag":"L0HTM16CT004",
			"type":0
		},
		{
			"gid":"",
			"node":"L0HTM16CT005",
			"tag":"L0HTM16CT005",
			"type":0
		},
		{
			"gid":"",
			"node":"L0HTM16CT006",
			"tag":"L0HTM16CT006",
			"type":0
		},
		{
			"gid":"",
			"node":"L0HTM16CT007",
			"tag":"L0HTM16CT007",
			"type":0
		},
		{
			"gid":"",
			"node":"L0HTM16CT008",
			"tag":"L0HTM16CT008",
			"type":0
		},
		{
			"gid":"",
			"node":"L0HTM31AP001CE",
			"tag":"L0HTM31AP001CE",
			"type":0
		},
		{
			"gid":"",
			"node":"L0HTM31AP001SD-N",
			"tag":"L0HTM31AP001SD-N",
			"type":0
		},
		{
			"gid":"",
			"node":"L0HTM31AP001SD-T",
			"tag":"L0HTM31AP001SD-T",
			"type":0
		},
		{
			"gid":"",
			"node":"L0HTM31AP001SU-N",
			"tag":"L0HTM31AP001SU-N",
			"type":0
		},
		{
			"gid":"",
			"node":"L0HTM31AP001SU-T",
			"tag":"L0HTM31AP001SU-T",
			"type":0
		},
		{
			"gid":"",
			"node":"L0HTM32AP001CE",
			"tag":"L0HTM32AP001CE",
			"type":0
		},
		{
			"gid":"",
			"node":"L0HTM33AP001CE",
			"tag":"L0HTM33AP001CE",
			"type":0
		},
		{
			"gid":"",
			"node":"L0HTM33AP001SD-N",
			"tag":"L0HTM33AP001SD-N",
			"type":0
		},
		{
			"gid":"",
			"node":"L0HTM33AP001SD-T",
			"tag":"L0HTM33AP001SD-T",
			"type":0
		},
		{
			"gid":"",
			"node":"L0HTM33AP001SU-N",
			"tag":"L0HTM33AP001SU-N",
			"type":0
		},
		{
			"gid":"",
			"node":"L0HTM33AP001SU-T",
			"tag":"L0HTM33AP001SU-T",
			"type":0
		},
		{
			"gid":"",
			"node":"L0HTT20CL001",
			"tag":"L0HTT20CL001",
			"type":0
		},
		{
			"gid":"",
			"node":"10HTM75AA101AT",
			"tag":"10HTM75AA101AT",
			"type":0
		},
		{
			"gid":"",
			"node":"10HTM75AA101PM",
			"tag":"10HTM75AA101PM",
			"type":0
		},
		{
			"gid":"",
			"node":"10HTM75AA101ZC",
			"tag":"10HTM75AA101ZC",
			"type":0
		},
		{
			"gid":"",
			"node":"10HTM75AA101ZO",
			"tag":"10HTM75AA101ZO",
			"type":0
		},
		{
			"gid":"",
			"node":"20HTM75AA101AT",
			"tag":"20HTM75AA101AT",
			"type":0
		},
		{
			"gid":"",
			"node":"20HTM75AA101PM",
			"tag":"20HTM75AA101PM",
			"type":0
		},
		{
			"gid":"",
			"node":"20HTM75AA101ZC",
			"tag":"20HTM75AA101ZC",
			"type":0
		},
		{
			"gid":"",
			"node":"20HTM75AA101ZO",
			"tag":"20HTM75AA101ZO",
			"type":0
		},
		{
			"gid":"",
			"node":"30HTM75AA101AT",
			"tag":"30HTM75AA101AT",
			"type":0
		},
		{
			"gid":"",
			"node":"30HTM75AA101PM",
			"tag":"30HTM75AA101PM",
			"type":0
		},
		{
			"gid":"",
			"node":"30HTM75AA101ZC",
			"tag":"30HTM75AA101ZC",
			"type":0
		},
		{
			"gid":"",
			"node":"30HTM75AA101ZO",
			"tag":"30HTM75AA101ZO",
			"type":0
		},
		{
			"gid":"",
			"node":"40HTM75AA101AT",
			"tag":"40HTM75AA101AT",
			"type":0
		},
		{
			"gid":"",
			"node":"40HTM75AA101PM",
			"tag":"40HTM75AA101PM",
			"type":0
		},
		{
			"gid":"",
			"node":"40HTM75AA101ZC",
			"tag":"40HTM75AA101ZC",
			"type":0
		},
		{
			"gid":"",
			"node":"40HTM75AA101ZO",
			"tag":"40HTM75AA101ZO",
			"type":0
		},
		{
			"gid":"",
			"node":"CNET1-10505-BQ",
			"tag":"CNET1-10505-BQ",
			"type":0
		},
		{
			"gid":"",
			"node":"CNET2-10505-BQ",
			"tag":"CNET2-10505-BQ",
			"type":0
		},
		{
			"gid":"",
			"node":"L0HTL14AA103AT",
			"tag":"L0HTL14AA103AT",
			"type":0
		},
		{
			"gid":"",
			"node":"L0HTL14AA103PM",
			"tag":"L0HTL14AA103PM",
			"type":0
		},
		{
			"gid":"",
			"node":"L0HTL14AA103ZC",
			"tag":"L0HTL14AA103ZC",
			"type":0
		},
		{
			"gid":"",
			"node":"L0HTL14AA103ZO",
			"tag":"L0HTL14AA103ZO",
			"type":0
		},
		{
			"gid":"",
			"node":"L0HTL15AM001AT",
			"tag":"L0HTL15AM001AT",
			"type":0
		},
		{
			"gid":"",
			"node":"L0HTL15AM001RM",
			"tag":"L0HTL15AM001RM",
			"type":0
		},
		{
			"gid":"",
			"node":"L0HTL15AM001ZD",
			"tag":"L0HTL15AM001ZD",
			"type":0
		},
		{
			"gid":"",
			"node":"L0HTL15AM001ZF",
			"tag":"L0HTL15AM001ZF",
			"type":0
		},
		{
			"gid":"",
			"node":"L0HTL15AM001ZS",
			"tag":"L0HTL15AM001ZS",
			"type":0
		},
		{
			"gid":"",
			"node":"L0HTL16AA101_PEM",
			"tag":"L0HTL16AA101_PEM",
			"type":0
		},
		{
			"gid":"",
			"node":"L0HTL16AA101AT",
			"tag":"L0HTL16AA101AT",
			"type":0
		},
		{
			"gid":"",
			"node":"L0HTL16AA101PM",
			"tag":"L0HTL16AA101PM",
			"type":0
		},
		{
			"gid":"",
			"node":"L0HTL16AA101ZC",
			"tag":"L0HTL16AA101ZC",
			"type":0
		},
		{
			"gid":"",
			"node":"L0HTL16AA101ZO",
			"tag":"L0HTL16AA101ZO",
			"type":0
		},
		{
			"gid":"",
			"node":"L0HTL16AA102 AT",
			"tag":"L0HTL16AA102 AT",
			"type":0
		}
	],
	"name":"yc1_realtime_023",
	"table":"rdcs_yc1.yc1_realtime"
}