{
	"file":"yc1_realtime_030",
	"items":[
		{
			"gid":"",
			"node":"M1050508-BQ",
			"tag":"M1050508-BQ",
			"type":0
		},
		{
			"gid":"",
			"node":"M1050509-BQ",
			"tag":"M1050509-BQ",
			"type":0
		},
		{
			"gid":"",
			"node":"M1050510-BQ",
			"tag":"M1050510-BQ",
			"type":0
		},
		{
			"gid":"",
			"node":"M1050511-BQ",
			"tag":"M1050511-BQ",
			"type":0
		},
		{
			"gid":"",
			"node":"M1050512-BQ",
			"tag":"M1050512-BQ",
			"type":0
		},
		{
			"gid":"",
			"node":"M1050513-BQ",
			"tag":"M1050513-BQ",
			"type":0
		},
		{
			"gid":"",
			"node":"M1050514-BQ",
			"tag":"M1050514-BQ",
			"type":0
		},
		{
			"gid":"",
			"node":"M1050515-BQ",
			"tag":"M1050515-BQ",
			"type":0
		},
		{
			"gid":"",
			"node":"M1050516-BQ",
			"tag":"M1050516-BQ",
			"type":0
		},
		{
			"gid":"",
			"node":"M1050517-BQ",
			"tag":"M1050517-BQ",
			"type":0
		},
		{
			"gid":"",
			"node":"M1050518-BQ",
			"tag":"M1050518-BQ",
			"type":0
		},
		{
			"gid":"",
			"node":"M1050519-BQ",
			"tag":"M1050519-BQ",
			"type":0
		},
		{
			"gid":"",
			"node":"M1050520-BQ",
			"tag":"M1050520-BQ",
			"type":0
		},
		{
			"gid":"",
			"node":"M1050521-BQ",
			"tag":"M1050521-BQ",
			"type":0
		},
		{
			"gid":"",
			"node":"M1050522-BQ",
			"tag":"M1050522-BQ",
			"type":0
		},
		{
			"gid":"",
			"node":"M1050523-BQ",
			"tag":"M1050523-BQ",
			"type":0
		},
		{
			"gid":"",
			"node":"M1050524-BQ",
			"tag":"M1050524-BQ",
			"type":0
		},
		{
			"gid":"",
			"node":"M1050525-BQ",
			"tag":"M1050525-BQ",
			"type":0
		},
		{
			"gid":"",
			"node":"M1050526-BQ",
			"tag":"M1050526-BQ",
			"type":0
		},
		{
			"gid":"",
			"node":"M1050527-BQ",
			"tag":"M1050527-BQ",
			"type":0
		},
		{
			"gid":"",
			"node":"M1050528-BQ",
			"tag":"M1050528-BQ",
			"type":0
		},
		{
			"gid":"",
			"node":"M1050529-BQ",
			"tag":"M1050529-BQ",
			"type":0
		},
		{
			"gid":"",
			"node":"M1050530-BQ",
			"tag":"M1050530-BQ",
			"type":0
		},
		{
			"gid":"",
			"node":"M1050531-BQ",
			"tag":"M1050531-BQ",
			"type":0
		},
		{
			"gid":"",
			"node":"M1050532-BQ",
			"tag":"M1050532-BQ",
			"type":0
		},
		{
			"gid":"",
			"node":"PWR-10505-BQ",
			"tag":"PWR-10505-BQ",
			"type":0
		},
		{
			"gid":"",
			"node":"10HTM75AA101",
			"tag":"10HTM75AA101",
			"type":0
		},
		{
			"gid":"",
			"node":"10HTM75AA101CK",
			"tag":"10HTM75AA101CK",
			"type":0
		},
		{
			"gid":"",
			"node":"20HTM75AA101",
			"tag":"20HTM75AA101",
			"type":0
		},
		{
			"gid":"",
			"node":"20HTM75AA101CK",
			"tag":"20HTM75AA101CK",
			"type":0
		},
		{
			"gid":"",
			"node":"30HTM75AA101",
			"tag":"30HTM75AA101",
			"type":0
		},
		{
			"gid":"",
			"node":"30HTM75AA101CK",
			"tag":"30HTM75AA101CK",
			"type":0
		},
		{
			"gid":"",
			"node":"40HTM75AA101",
			"tag":"40HTM75AA101",
			"type":0
		},
		{
			"gid":"",
			"node":"40HTM75AA101CK",
			"tag":"40HTM75AA101CK",
			"type":0
		},
		{
			"gid":"",
			"node":"L0HTL14AA103",
			"tag":"L0HTL14AA103",
			"type":0
		},
		{
			"gid":"",
			"node":"L0HTL14AA103CK",
			"tag":"L0HTL14AA103CK",
			"type":0
		},
		{
			"gid":"",
			"node":"L0HTL15AM001",
			"tag":"L0HTL15AM001",
			"type":0
		},
		{
			"gid":"",
			"node":"L0HTL15AM001CK",
			"tag":"L0HTL15AM001CK",
			"type":0
		},
		{
			"gid":"",
			"node":"L0HTL16AA101",
			"tag":"L0HTL16AA101",
			"type":0
		},
		{
			"gid":"",
			"node":"L0HTL16AA101CK",
			"tag":"L0HTL16AA101CK",
			"type":0
		},
		{
			"gid":"",
			"node":"L0HTL16AA102",
			"tag":"L0HTL16AA102",
			"type":0
		},
		{
			"gid":"",
			"node":"L0HTL16AA102CK",
			"tag":"L0HTL16AA102CK",
			"type":0
		},
		{
			"gid":"",
			"node":"L0HTL16AA103",
			"tag":"L0HTL16AA103",
			"type":0
		},
		{
			"gid":"",
			"node":"L0HTL16AA103CK",
			"tag":"L0HTL16AA103CK",
			"type":0
		},
		{
			"gid":"",
			"node":"L0HTL16AP001",
			"tag":"L0HTL16AP001",
			"type":0
		},
		{
			"gid":"",
			"node":"L0HTL16AP001CK",
			"tag":"L0HTL16AP001CK",
			"type":0
		},
		{
			"gid":"",
			"node":"L0HTL16AP001SD-M",
			"tag":"L0HTL16AP001SD-M",
			"type":0
		},
		{
			"gid":"",
			"node":"L0HTL16AP001SU-M",
			"tag":"L0HTL16AP001SU-M",
			"type":0
		},
		{
			"gid":"",
			"node":"L0HTL17AA101",
			"tag":"L0HTL17AA101",
			"type":0
		},
		{
			"gid":"",
			"node":"L0HTL17AA101CK",
			"tag":"L0HTL17AA101CK",
			"type":0
		}
	],
	"name":"yc1_realtime_030",
	"table":"rdcs_yc1.yc1_realtime"
}