{
	"file":"yc1_realtime_060",
	"items":[
		{
			"gid":"",
			"node":"M2120309-BQ",
			"tag":"M2120309-BQ",
			"type":0
		},
		{
			"gid":"",
			"node":"M2120310-BQ",
			"tag":"M2120310-BQ",
			"type":0
		},
		{
			"gid":"",
			"node":"M2120311-BQ",
			"tag":"M2120311-BQ",
			"type":0
		},
		{
			"gid":"",
			"node":"M2120312-BQ",
			"tag":"M2120312-BQ",
			"type":0
		},
		{
			"gid":"",
			"node":"M2120313-BQ",
			"tag":"M2120313-BQ",
			"type":0
		},
		{
			"gid":"",
			"node":"M2120314-BQ",
			"tag":"M2120314-BQ",
			"type":0
		},
		{
			"gid":"",
			"node":"M2120315-BQ",
			"tag":"M2120315-BQ",
			"type":0
		},
		{
			"gid":"",
			"node":"M2120316-BQ",
			"tag":"M2120316-BQ",
			"type":0
		},
		{
			"gid":"",
			"node":"M2120317-BQ",
			"tag":"M2120317-BQ",
			"type":0
		},
		{
			"gid":"",
			"node":"M2120318-BQ",
			"tag":"M2120318-BQ",
			"type":0
		},
		{
			"gid":"",
			"node":"M2120319-BQ",
			"tag":"M2120319-BQ",
			"type":0
		},
		{
			"gid":"",
			"node":"M2120320-BQ",
			"tag":"M2120320-BQ",
			"type":0
		},
		{
			"gid":"",
			"node":"M2120321-BQ",
			"tag":"M2120321-BQ",
			"type":0
		},
		{
			"gid":"",
			"node":"M2120322-BQ",
			"tag":"M2120322-BQ",
			"type":0
		},
		{
			"gid":"",
			"node":"M2120323-BQ",
			"tag":"M2120323-BQ",
			"type":0
		},
		{
			"gid":"",
			"node":"M2120324-BQ",
			"tag":"M2120324-BQ",
			"type":0
		},
		{
			"gid":"",
			"node":"M2120325-BQ",
			"tag":"M2120325-BQ",
			"type":0
		},
		{
			"gid":"",
			"node":"M2120326-BQ",
			"tag":"M2120326-BQ",
			"type":0
		},
		{
			"gid":"",
			"node":"M2120327-BQ",
			"tag":"M2120327-BQ",
			"type":0
		},
		{
			"gid":"",
			"node":"M2120328-BQ",
			"tag":"M2120328-BQ",
			"type":0
		},
		{
			"gid":"",
			"node":"M2120329-BQ",
			"tag":"M2120329-BQ",
			"type":0
		},
		{
			"gid":"",
			"node":"M2120330-BQ",
			"tag":"M2120330-BQ",
			"type":0
		},
		{
			"gid":"",
			"node":"PWR-212-BQ",
			"tag":"PWR-212-BQ",
			"type":0
		},
		{
			"gid":"",
			"node":"01HTA15CP000-S",
			"tag":"01HTA15CP000-S",
			"type":0
		},
		{
			"gid":"",
			"node":"01HTA15CT000-S",
			"tag":"01HTA15CT000-S",
			"type":0
		},
		{
			"gid":"",
			"node":"10HTA15AA101",
			"tag":"10HTA15AA101",
			"type":0
		},
		{
			"gid":"",
			"node":"10HTA15AA101CK",
			"tag":"10HTA15AA101CK",
			"type":0
		},
		{
			"gid":"",
			"node":"10HTA15AH001",
			"tag":"10HTA15AH001",
			"type":0
		},
		{
			"gid":"",
			"node":"10HTA15AH001CK",
			"tag":"10HTA15AH001CK",
			"type":0
		},
		{
			"gid":"",
			"node":"10HTA15AP001",
			"tag":"10HTA15AP001",
			"type":0
		},
		{
			"gid":"",
			"node":"10HTA15AP001CK",
			"tag":"10HTA15AP001CK",
			"type":0
		},
		{
			"gid":"",
			"node":"10HTA15AP002",
			"tag":"10HTA15AP002",
			"type":0
		},
		{
			"gid":"",
			"node":"10HTA15AP002CK",
			"tag":"10HTA15AP002CK",
			"type":0
		},
		{
			"gid":"",
			"node":"10HTA20AA101",
			"tag":"10HTA20AA101",
			"type":0
		},
		{
			"gid":"",
			"node":"10HTA20AA101CK",
			"tag":"10HTA20AA101CK",
			"type":0
		},
		{
			"gid":"",
			"node":"10HTA35AA101",
			"tag":"10HTA35AA101",
			"type":0
		},
		{
			"gid":"",
			"node":"10HTA35AA101CK",
			"tag":"10HTA35AA101CK",
			"type":0
		},
		{
			"gid":"",
			"node":"10HTA35CT000-S",
			"tag":"10HTA35CT000-S",
			"type":0
		},
		{
			"gid":"",
			"node":"10HTC10AN001-ST",
			"tag":"10HTC10AN001-ST",
			"type":0
		},
		{
			"gid":"",
			"node":"10HTC10AN001CK",
			"tag":"10HTC10AN001CK",
			"type":0
		},
		{
			"gid":"",
			"node":"10HTC20AN001",
			"tag":"10HTC20AN001",
			"type":0
		},
		{
			"gid":"",
			"node":"10HTC20AN001CK",
			"tag":"10HTC20AN001CK",
			"type":0
		},
		{
			"gid":"",
			"node":"10HTC20AN002",
			"tag":"10HTC20AN002",
			"type":0
		},
		{
			"gid":"",
			"node":"10HTC20AN002CK",
			"tag":"10HTC20AN002CK",
			"type":0
		},
		{
			"gid":"",
			"node":"10HTF40AA101",
			"tag":"10HTF40AA101",
			"type":0
		},
		{
			"gid":"",
			"node":"10HTF40AA102",
			"tag":"10HTF40AA102",
			"type":0
		},
		{
			"gid":"",
			"node":"10HTF40AA101CK",
			"tag":"10HTF40AA101CK",
			"type":0
		},
		{
			"gid":"",
			"node":"10HTF40AA102CK",
			"tag":"10HTF40AA102CK",
			"type":0
		},
		{
			"gid":"",
			"node":"10HTF40AP001",
			"tag":"10HTF40AP001",
			"type":0
		},
		{
			"gid":"",
			"node":"10HTF40AP001CK",
			"tag":"10HTF40AP001CK",
			"type":0
		}
	],
	"name":"yc1_realtime_060",
	"table":"rdcs_yc1.yc1_realtime"
}