{
	"file":"yc1_realtime_063",
	"items":[
		{
			"gid":"",
			"node":"10HTF50AP001SU-P",
			"tag":"10HTF50AP001SU-P",
			"type":0
		},
		{
			"gid":"",
			"node":"10SCS01DO007",
			"tag":"10SCS01DO007",
			"type":0
		},
		{
			"gid":"",
			"node":"10SCS01DO008",
			"tag":"10SCS01DO008",
			"type":0
		},
		{
			"gid":"",
			"node":"10SCS01DOMFT",
			"tag":"10SCS01DOMFT",
			"type":0
		},
		{
			"gid":"",
			"node":"10SCS01DORB",
			"tag":"10SCS01DORB",
			"type":0
		},
		{
			"gid":"",
			"node":"10HTC10AN001SD-M",
			"tag":"10HTC10AN001SD-M",
			"type":0
		},
		{
			"gid":"",
			"node":"10HTC10AN001SU-M",
			"tag":"10HTC10AN001SU-M",
			"type":0
		},
		{
			"gid":"",
			"node":"10HTF40AP001SD-M",
			"tag":"10HTF40AP001SD-M",
			"type":0
		},
		{
			"gid":"",
			"node":"10HTF40AP001SU-M",
			"tag":"10HTF40AP001SU-M",
			"type":0
		},
		{
			"gid":"",
			"node":"10HTF50AP001SD-M",
			"tag":"10HTF50AP001SD-M",
			"type":0
		},
		{
			"gid":"",
			"node":"10HTF50AP001SU-M",
			"tag":"10HTF50AP001SU-M",
			"type":0
		},
		{
			"gid":"",
			"node":"10HTA15AH001LK",
			"tag":"10HTA15AH001LK",
			"type":0
		},
		{
			"gid":"",
			"node":"10HTA15AP001&2SEL",
			"tag":"10HTA15AP001&2SEL",
			"type":0
		},
		{
			"gid":"",
			"node":"10HTC10AN001SD-J",
			"tag":"10HTC10AN001SD-J",
			"type":0
		},
		{
			"gid":"",
			"node":"10HTC10AN001SD-O",
			"tag":"10HTC10AN001SD-O",
			"type":0
		},
		{
			"gid":"",
			"node":"10HTC10AN001SU-J",
			"tag":"10HTC10AN001SU-J",
			"type":0
		},
		{
			"gid":"",
			"node":"10HTC10AN001SU-O",
			"tag":"10HTC10AN001SU-O",
			"type":0
		},
		{
			"gid":"",
			"node":"10HTF40AP001SD-J",
			"tag":"10HTF40AP001SD-J",
			"type":0
		},
		{
			"gid":"",
			"node":"10HTF40AP001SD-O",
			"tag":"10HTF40AP001SD-O",
			"type":0
		},
		{
			"gid":"",
			"node":"10HTF40AP001SU-J",
			"tag":"10HTF40AP001SU-J",
			"type":0
		},
		{
			"gid":"",
			"node":"10HTF40AP001SU-O",
			"tag":"10HTF40AP001SU-O",
			"type":0
		},
		{
			"gid":"",
			"node":"10HTF50AP001SD-J",
			"tag":"10HTF50AP001SD-J",
			"type":0
		},
		{
			"gid":"",
			"node":"10HTF50AP001SD-O",
			"tag":"10HTF50AP001SD-O",
			"type":0
		},
		{
			"gid":"",
			"node":"10HTF50AP001SU-J",
			"tag":"10HTF50AP001SU-J",
			"type":0
		},
		{
			"gid":"",
			"node":"10HTF50AP001SU-O",
			"tag":"10HTF50AP001SU-O",
			"type":0
		},
		{
			"gid":"",
			"node":"10HTF15AP001-F003",
			"tag":"10HTF15AP001-F003",
			"type":0
		},
		{
			"gid":"",
			"node":"10HTF20CT010",
			"tag":"10HTF20CT010",
			"type":0
		},
		{
			"gid":"",
			"node":"10HTF10CT010",
			"tag":"10HTF10CT010",
			"type":0
		},
		{
			"gid":"",
			"node":"10HTD10AM001CE",
			"tag":"10HTD10AM001CE",
			"type":0
		},
		{
			"gid":"",
			"node":"10HTD10AM002CE",
			"tag":"10HTD10AM002CE",
			"type":0
		},
		{
			"gid":"",
			"node":"10HTD10AM003CE",
			"tag":"10HTD10AM003CE",
			"type":0
		},
		{
			"gid":"",
			"node":"10HTD10AM004CE",
			"tag":"10HTD10AM004CE",
			"type":0
		},
		{
			"gid":"",
			"node":"10HTD10CL001",
			"tag":"10HTD10CL001",
			"type":0
		},
		{
			"gid":"",
			"node":"10HTD10CL001_L",
			"tag":"10HTD10CL001_L",
			"type":0
		},
		{
			"gid":"",
			"node":"10HTD10CL002",
			"tag":"10HTD10CL002",
			"type":0
		},
		{
			"gid":"",
			"node":"10HTD10CL002_L",
			"tag":"10HTD10CL002_L",
			"type":0
		},
		{
			"gid":"",
			"node":"10HTD10CL003",
			"tag":"10HTD10CL003",
			"type":0
		},
		{
			"gid":"",
			"node":"10HTD10CL003_L",
			"tag":"10HTD10CL003_L",
			"type":0
		},
		{
			"gid":"",
			"node":"10HTD10DP011",
			"tag":"10HTD10DP011",
			"type":0
		},
		{
			"gid":"",
			"node":"10HTD10DP012",
			"tag":"10HTD10DP012",
			"type":0
		},
		{
			"gid":"",
			"node":"10HTF10AP001CE",
			"tag":"10HTF10AP001CE",
			"type":0
		},
		{
			"gid":"",
			"node":"10HTF10CP001",
			"tag":"10HTF10CP001",
			"type":0
		},
		{
			"gid":"",
			"node":"10HTF10CT001",
			"tag":"10HTF10CT001",
			"type":0
		},
		{
			"gid":"",
			"node":"10HTF10CT002",
			"tag":"10HTF10CT002",
			"type":0
		},
		{
			"gid":"",
			"node":"10HTF10CT003",
			"tag":"10HTF10CT003",
			"type":0
		},
		{
			"gid":"",
			"node":"10HTF10CT005",
			"tag":"10HTF10CT005",
			"type":0
		},
		{
			"gid":"",
			"node":"10HTF10CT007",
			"tag":"10HTF10CT007",
			"type":0
		},
		{
			"gid":"",
			"node":"10HTF10CT009",
			"tag":"10HTF10CT009",
			"type":0
		},
		{
			"gid":"",
			"node":"10HTF20AP001CE",
			"tag":"10HTF20AP001CE",
			"type":0
		},
		{
			"gid":"",
			"node":"10HTF20CP001",
			"tag":"10HTF20CP001",
			"type":0
		}
	],
	"name":"yc1_realtime_063",
	"table":"rdcs_yc1.yc1_realtime"
}