{
	"file":"yc1_realtime_003",
	"items":[
		{
			"gid":"",
			"node":"1BHT01AA000TW",
			"tag":"1BHT01AA000TW",
			"type":0
		},
		{
			"gid":"",
			"node":"1GBQ01GH001BC",
			"tag":"1GBQ01GH001BC",
			"type":0
		},
		{
			"gid":"",
			"node":"1GBQ01GH001F",
			"tag":"1GBQ01GH001F",
			"type":0
		},
		{
			"gid":"",
			"node":"1GBQ01GH001JS",
			"tag":"1GBQ01GH001JS",
			"type":0
		},
		{
			"gid":"",
			"node":"1GBQ01GH001LC",
			"tag":"1GBQ01GH001LC",
			"type":0
		},
		{
			"gid":"",
			"node":"1GBQ01GH001PF",
			"tag":"1GBQ01GH001PF",
			"type":0
		},
		{
			"gid":"",
			"node":"1GBQ01GH001QC",
			"tag":"1GBQ01GH001QC",
			"type":0
		},
		{
			"gid":"",
			"node":"1GBQ01GH001QF",
			"tag":"1GBQ01GH001QF",
			"type":0
		},
		{
			"gid":"",
			"node":"1GBQ01GH001QL",
			"tag":"1GBQ01GH001QL",
			"type":0
		},
		{
			"gid":"",
			"node":"1GBQ01GH001QO",
			"tag":"1GBQ01GH001QO",
			"type":0
		},
		{
			"gid":"",
			"node":"1GBQ01GH001QS",
			"tag":"1GBQ01GH001QS",
			"type":0
		},
		{
			"gid":"",
			"node":"1GBQ01GH001QT",
			"tag":"1GBQ01GH001QT",
			"type":0
		},
		{
			"gid":"",
			"node":"1GBQ01GH001QY",
			"tag":"1GBQ01GH001QY",
			"type":0
		},
		{
			"gid":"",
			"node":"1GBQ01GH001RC",
			"tag":"1GBQ01GH001RC",
			"type":0
		},
		{
			"gid":"",
			"node":"1GBQ01GH001RE",
			"tag":"1GBQ01GH001RE",
			"type":0
		},
		{
			"gid":"",
			"node":"1GBQ01GH001RL",
			"tag":"1GBQ01GH001RL",
			"type":0
		},
		{
			"gid":"",
			"node":"1GBQ01GH001SC",
			"tag":"1GBQ01GH001SC",
			"type":0
		},
		{
			"gid":"",
			"node":"2BBR01AA001",
			"tag":"2BBR01AA001",
			"type":0
		},
		{
			"gid":"",
			"node":"2BBR01AA001A",
			"tag":"2BBR01AA001A",
			"type":0
		},
		{
			"gid":"",
			"node":"2BBR01AA001AT",
			"tag":"2BBR01AA001AT",
			"type":0
		},
		{
			"gid":"",
			"node":"2BBR01AA001CK",
			"tag":"2BBR01AA001CK",
			"type":0
		},
		{
			"gid":"",
			"node":"2BBR01AA001CS",
			"tag":"2BBR01AA001CS",
			"type":0
		},
		{
			"gid":"",
			"node":"2BBR01AA001F",
			"tag":"2BBR01AA001F",
			"type":0
		},
		{
			"gid":"",
			"node":"2BBR01AA001HF",
			"tag":"2BBR01AA001HF",
			"type":0
		},
		{
			"gid":"",
			"node":"2BBR01AA001JL",
			"tag":"2BBR01AA001JL",
			"type":0
		},
		{
			"gid":"",
			"node":"2BBR01AA001KW",
			"tag":"2BBR01AA001KW",
			"type":0
		},
		{
			"gid":"",
			"node":"2BBR01AA001LK",
			"tag":"2BBR01AA001LK",
			"type":0
		},
		{
			"gid":"",
			"node":"2BBR01AA001OS",
			"tag":"2BBR01AA001OS",
			"type":0
		},
		{
			"gid":"",
			"node":"2BBR01AA001RL",
			"tag":"2BBR01AA001RL",
			"type":0
		},
		{
			"gid":"",
			"node":"2BBR03AA001F",
			"tag":"2BBR03AA001F",
			"type":0
		},
		{
			"gid":"",
			"node":"2BBR03AA001FH",
			"tag":"2BBR03AA001FH",
			"type":0
		},
		{
			"gid":"",
			"node":"2BBR03AA001FL",
			"tag":"2BBR03AA001FL",
			"type":0
		},
		{
			"gid":"",
			"node":"2BBR03AA001FO",
			"tag":"2BBR03AA001FO",
			"type":0
		},
		{
			"gid":"",
			"node":"2BBR03AA001IF",
			"tag":"2BBR03AA001IF",
			"type":0
		},
		{
			"gid":"",
			"node":"2BBR03AA001V",
			"tag":"2BBR03AA001V",
			"type":0
		},
		{
			"gid":"",
			"node":"2BBR04AA001",
			"tag":"2BBR04AA001",
			"type":0
		},
		{
			"gid":"",
			"node":"2BBR04AA001A",
			"tag":"2BBR04AA001A",
			"type":0
		},
		{
			"gid":"",
			"node":"2BBR04AA001AT",
			"tag":"2BBR04AA001AT",
			"type":0
		},
		{
			"gid":"",
			"node":"2BBR04AA001CK",
			"tag":"2BBR04AA001CK",
			"type":0
		},
		{
			"gid":"",
			"node":"2BBR04AA001CS",
			"tag":"2BBR04AA001CS",
			"type":0
		},
		{
			"gid":"",
			"node":"2BBR04AA001KW",
			"tag":"2BBR04AA001KW",
			"type":0
		},
		{
			"gid":"",
			"node":"2BBR04AA001LK",
			"tag":"2BBR04AA001LK",
			"type":0
		},
		{
			"gid":"",
			"node":"2BBR04AA001OS",
			"tag":"2BBR04AA001OS",
			"type":0
		},
		{
			"gid":"",
			"node":"2BBR04AA001RL",
			"tag":"2BBR04AA001RL",
			"type":0
		},
		{
			"gid":"",
			"node":"2BBR04AA001TP",
			"tag":"2BBR04AA001TP",
			"type":0
		},
		{
			"gid":"",
			"node":"2BBR05AA001",
			"tag":"2BBR05AA001",
			"type":0
		},
		{
			"gid":"",
			"node":"2BBR05AA001A",
			"tag":"2BBR05AA001A",
			"type":0
		},
		{
			"gid":"",
			"node":"2BBR05AA001AT",
			"tag":"2BBR05AA001AT",
			"type":0
		},
		{
			"gid":"",
			"node":"2BBR05AA001CK",
			"tag":"2BBR05AA001CK",
			"type":0
		},
		{
			"gid":"",
			"node":"2BBR05AA001CS",
			"tag":"2BBR05AA001CS",
			"type":0
		}
	],
	"name":"yc1_realtime_003",
	"table":"rdcs_yc1.yc1_realtime"
}