{
	"file":"yc1_realtime_072",
	"items":[
		{
			"gid":"",
			"node":"10HTT10AA101PM",
			"tag":"10HTT10AA101PM",
			"type":0
		},
		{
			"gid":"",
			"node":"10HTT10AA101ZC",
			"tag":"10HTT10AA101ZC",
			"type":0
		},
		{
			"gid":"",
			"node":"10HTT10AA101ZO",
			"tag":"10HTT10AA101ZO",
			"type":0
		},
		{
			"gid":"",
			"node":"10HTT10AA102AT",
			"tag":"10HTT10AA102AT",
			"type":0
		},
		{
			"gid":"",
			"node":"10HTT10AA102PM",
			"tag":"10HTT10AA102PM",
			"type":0
		},
		{
			"gid":"",
			"node":"10HTT10AA102ZC",
			"tag":"10HTT10AA102ZC",
			"type":0
		},
		{
			"gid":"",
			"node":"10HTT10AA102ZO",
			"tag":"10HTT10AA102ZO",
			"type":0
		},
		{
			"gid":"",
			"node":"10HTT10AA502ZC",
			"tag":"10HTT10AA502ZC",
			"type":0
		},
		{
			"gid":"",
			"node":"10HTT10AA502ZO",
			"tag":"10HTT10AA502ZO",
			"type":0
		},
		{
			"gid":"",
			"node":"10HTT10AM001AT",
			"tag":"10HTT10AM001AT",
			"type":0
		},
		{
			"gid":"",
			"node":"10HTT10AM001RM",
			"tag":"10HTT10AM001RM",
			"type":0
		},
		{
			"gid":"",
			"node":"10HTT10AM001ZD",
			"tag":"10HTT10AM001ZD",
			"type":0
		},
		{
			"gid":"",
			"node":"10HTT10AM001ZF",
			"tag":"10HTT10AM001ZF",
			"type":0
		},
		{
			"gid":"",
			"node":"10HTT10AM001ZS",
			"tag":"10HTT10AM001ZS",
			"type":0
		},
		{
			"gid":"",
			"node":"10HTT10AP001AT",
			"tag":"10HTT10AP001AT",
			"type":0
		},
		{
			"gid":"",
			"node":"10HTT10AP001RM",
			"tag":"10HTT10AP001RM",
			"type":0
		},
		{
			"gid":"",
			"node":"10HTT10AP001ZD",
			"tag":"10HTT10AP001ZD",
			"type":0
		},
		{
			"gid":"",
			"node":"10HTT10AP001ZF",
			"tag":"10HTT10AP001ZF",
			"type":0
		},
		{
			"gid":"",
			"node":"10HTT10AP001ZS",
			"tag":"10HTT10AP001ZS",
			"type":0
		},
		{
			"gid":"",
			"node":"10HTT10AP002AT",
			"tag":"10HTT10AP002AT",
			"type":0
		},
		{
			"gid":"",
			"node":"10HTT10AP002RM",
			"tag":"10HTT10AP002RM",
			"type":0
		},
		{
			"gid":"",
			"node":"10HTT10AP002ZD",
			"tag":"10HTT10AP002ZD",
			"type":0
		},
		{
			"gid":"",
			"node":"10HTT10AP002ZF",
			"tag":"10HTT10AP002ZF",
			"type":0
		},
		{
			"gid":"",
			"node":"10HTT10AP002ZS",
			"tag":"10HTT10AP002ZS",
			"type":0
		},
		{
			"gid":"",
			"node":"10HTT25AA503ZC",
			"tag":"10HTT25AA503ZC",
			"type":0
		},
		{
			"gid":"",
			"node":"10HTT25AA503ZO",
			"tag":"10HTT25AA503ZO",
			"type":0
		},
		{
			"gid":"",
			"node":"1BBR14AA002PM",
			"tag":"1BBR14AA002PM",
			"type":0
		},
		{
			"gid":"",
			"node":"1BBR14AA002RM",
			"tag":"1BBR14AA002RM",
			"type":0
		},
		{
			"gid":"",
			"node":"1BBR14AA002ZD",
			"tag":"1BBR14AA002ZD",
			"type":0
		},
		{
			"gid":"",
			"node":"1BBR14AA002ZS",
			"tag":"1BBR14AA002ZS",
			"type":0
		},
		{
			"gid":"",
			"node":"1BBR15AA001PM",
			"tag":"1BBR15AA001PM",
			"type":0
		},
		{
			"gid":"",
			"node":"1BBR15AA001RM",
			"tag":"1BBR15AA001RM",
			"type":0
		},
		{
			"gid":"",
			"node":"1BBR15AA001ZD",
			"tag":"1BBR15AA001ZD",
			"type":0
		},
		{
			"gid":"",
			"node":"1BBR15AA001ZS",
			"tag":"1BBR15AA001ZS",
			"type":0
		},
		{
			"gid":"",
			"node":"2120507DI03",
			"tag":"2120507DI03",
			"type":0
		},
		{
			"gid":"",
			"node":"2120507DI04",
			"tag":"2120507DI04",
			"type":0
		},
		{
			"gid":"",
			"node":"10HTF20CT007>125",
			"tag":"10HTF20CT007>125",
			"type":0
		},
		{
			"gid":"",
			"node":"10HTF10CT003>125",
			"tag":"10HTF10CT003>125",
			"type":0
		},
		{
			"gid":"",
			"node":"10HTF30CT003>125",
			"tag":"10HTF30CT003>125",
			"type":0
		},
		{
			"gid":"",
			"node":"10HTF30CT005>125",
			"tag":"10HTF30CT005>125",
			"type":0
		},
		{
			"gid":"",
			"node":"10HTF30CT007>125",
			"tag":"10HTF30CT007>125",
			"type":0
		},
		{
			"gid":"",
			"node":"2120509D16",
			"tag":"2120509D16",
			"type":0
		},
		{
			"gid":"",
			"node":"2120509DI12",
			"tag":"2120509DI12",
			"type":0
		},
		{
			"gid":"",
			"node":"2120509DI13",
			"tag":"2120509DI13",
			"type":0
		},
		{
			"gid":"",
			"node":"2120509DI14",
			"tag":"2120509DI14",
			"type":0
		},
		{
			"gid":"",
			"node":"2120509DI15",
			"tag":"2120509DI15",
			"type":0
		},
		{
			"gid":"",
			"node":"2120510DI01",
			"tag":"2120510DI01",
			"type":0
		},
		{
			"gid":"",
			"node":"2120510DI02",
			"tag":"2120510DI02",
			"type":0
		},
		{
			"gid":"",
			"node":"2120510DI03",
			"tag":"2120510DI03",
			"type":0
		},
		{
			"gid":"",
			"node":"2120510DI16",
			"tag":"2120510DI16",
			"type":0
		}
	],
	"name":"yc1_realtime_072",
	"table":"rdcs_yc1.yc1_realtime"
}