{
	"file":"yc1_realtime_018",
	"items":[
		{
			"gid":"",
			"node":"20HTK10AA102",
			"tag":"20HTK10AA102",
			"type":0
		},
		{
			"gid":"",
			"node":"20HTK10AA102CK",
			"tag":"20HTK10AA102CK",
			"type":0
		},
		{
			"gid":"",
			"node":"20HTK10AA103",
			"tag":"20HTK10AA103",
			"type":0
		},
		{
			"gid":"",
			"node":"20HTK10AA103CK",
			"tag":"20HTK10AA103CK",
			"type":0
		},
		{
			"gid":"",
			"node":"20HTK10AP001",
			"tag":"20HTK10AP001",
			"type":0
		},
		{
			"gid":"",
			"node":"20HTK10AP001CK",
			"tag":"20HTK10AP001CK",
			"type":0
		},
		{
			"gid":"",
			"node":"20HTK10AP001SD-M",
			"tag":"20HTK10AP001SD-M",
			"type":0
		},
		{
			"gid":"",
			"node":"20HTK10AP001SU-M",
			"tag":"20HTK10AP001SU-M",
			"type":0
		},
		{
			"gid":"",
			"node":"20HTK20AA101",
			"tag":"20HTK20AA101",
			"type":0
		},
		{
			"gid":"",
			"node":"20HTK20AA101CK",
			"tag":"20HTK20AA101CK",
			"type":0
		},
		{
			"gid":"",
			"node":"20HTK20AA102",
			"tag":"20HTK20AA102",
			"type":0
		},
		{
			"gid":"",
			"node":"20HTK20AA102CK",
			"tag":"20HTK20AA102CK",
			"type":0
		},
		{
			"gid":"",
			"node":"20HTK20AA103",
			"tag":"20HTK20AA103",
			"type":0
		},
		{
			"gid":"",
			"node":"20HTK20AA103CK",
			"tag":"20HTK20AA103CK",
			"type":0
		},
		{
			"gid":"",
			"node":"20HTK20AP001",
			"tag":"20HTK20AP001",
			"type":0
		},
		{
			"gid":"",
			"node":"20HTK20AP001CK",
			"tag":"20HTK20AP001CK",
			"type":0
		},
		{
			"gid":"",
			"node":"20HTK20AP001SD-M",
			"tag":"20HTK20AP001SD-M",
			"type":0
		},
		{
			"gid":"",
			"node":"20HTK20AP001SU-M",
			"tag":"20HTK20AP001SU-M",
			"type":0
		},
		{
			"gid":"",
			"node":"20HTK31AA101",
			"tag":"20HTK31AA101",
			"type":0
		},
		{
			"gid":"",
			"node":"20HTK31AA101CK",
			"tag":"20HTK31AA101CK",
			"type":0
		},
		{
			"gid":"",
			"node":"20HTQ15AA101",
			"tag":"20HTQ15AA101",
			"type":0
		},
		{
			"gid":"",
			"node":"20HTQ15AA101CK",
			"tag":"20HTQ15AA101CK",
			"type":0
		},
		{
			"gid":"",
			"node":"20HTQ15AA101SU-M",
			"tag":"20HTQ15AA101SU-M",
			"type":0
		},
		{
			"gid":"",
			"node":"20HTQ16AA101",
			"tag":"20HTQ16AA101",
			"type":0
		},
		{
			"gid":"",
			"node":"20HTQ16AA101CK",
			"tag":"20HTQ16AA101CK",
			"type":0
		},
		{
			"gid":"",
			"node":"20HTQ16AA101SU-M",
			"tag":"20HTQ16AA101SU-M",
			"type":0
		},
		{
			"gid":"",
			"node":"20HTQ17AA104",
			"tag":"20HTQ17AA104",
			"type":0
		},
		{
			"gid":"",
			"node":"20HTQ17AA104CK",
			"tag":"20HTQ17AA104CK",
			"type":0
		},
		{
			"gid":"",
			"node":"A0HTK40AM001",
			"tag":"A0HTK40AM001",
			"type":0
		},
		{
			"gid":"",
			"node":"A0HTK40AM001CK",
			"tag":"A0HTK40AM001CK",
			"type":0
		},
		{
			"gid":"",
			"node":"A0HTQ21AP001",
			"tag":"A0HTQ21AP001",
			"type":0
		},
		{
			"gid":"",
			"node":"A0HTQ21AP001CK",
			"tag":"A0HTQ21AP001CK",
			"type":0
		},
		{
			"gid":"",
			"node":"A0HTQ22AP001",
			"tag":"A0HTQ22AP001",
			"type":0
		},
		{
			"gid":"",
			"node":"A0HTQ22AP001CK",
			"tag":"A0HTQ22AP001CK",
			"type":0
		},
		{
			"gid":"",
			"node":"A0HTQ31AP001",
			"tag":"A0HTQ31AP001",
			"type":0
		},
		{
			"gid":"",
			"node":"A0HTQ31AP001CK",
			"tag":"A0HTQ31AP001CK",
			"type":0
		},
		{
			"gid":"",
			"node":"A0HTQ32AP001",
			"tag":"A0HTQ32AP001",
			"type":0
		},
		{
			"gid":"",
			"node":"A0HTQ32AP001CK",
			"tag":"A0HTQ32AP001CK",
			"type":0
		},
		{
			"gid":"",
			"node":"A0HTQ33AA101",
			"tag":"A0HTQ33AA101",
			"type":0
		},
		{
			"gid":"",
			"node":"A0HTQ33AA101CK",
			"tag":"A0HTQ33AA101CK",
			"type":0
		},
		{
			"gid":"",
			"node":"A0HTQ33AA102",
			"tag":"A0HTQ33AA102",
			"type":0
		},
		{
			"gid":"",
			"node":"A0HTQ33AA102CK",
			"tag":"A0HTQ33AA102CK",
			"type":0
		},
		{
			"gid":"",
			"node":"A0HTQ33AP001",
			"tag":"A0HTQ33AP001",
			"type":0
		},
		{
			"gid":"",
			"node":"A0HTQ33AP001CK",
			"tag":"A0HTQ33AP001CK",
			"type":0
		},
		{
			"gid":"",
			"node":"A0HTQ80AA101",
			"tag":"A0HTQ80AA101",
			"type":0
		},
		{
			"gid":"",
			"node":"A0HTQ80AA101CK",
			"tag":"A0HTQ80AA101CK",
			"type":0
		},
		{
			"gid":"",
			"node":"A0HTQ81AA101",
			"tag":"A0HTQ81AA101",
			"type":0
		},
		{
			"gid":"",
			"node":"A0HTQ81AA101CK",
			"tag":"A0HTQ81AA101CK",
			"type":0
		},
		{
			"gid":"",
			"node":"L SELECTE",
			"tag":"L SELECTE",
			"type":0
		},
		{
			"gid":"",
			"node":"L0HTL10AM001",
			"tag":"L0HTL10AM001",
			"type":0
		}
	],
	"name":"yc1_realtime_018",
	"table":"rdcs_yc1.yc1_realtime"
}