{
	"file":"yc1_realtime_058",
	"items":[
		{
			"gid":"",
			"node":"10HTQ18AA105AT",
			"tag":"10HTQ18AA105AT",
			"type":0
		},
		{
			"gid":"",
			"node":"10HTQ18AA105PM",
			"tag":"10HTQ18AA105PM",
			"type":0
		},
		{
			"gid":"",
			"node":"10HTQ18AA105ZC",
			"tag":"10HTQ18AA105ZC",
			"type":0
		},
		{
			"gid":"",
			"node":"10HTQ18AA105ZO",
			"tag":"10HTQ18AA105ZO",
			"type":0
		},
		{
			"gid":"",
			"node":"10HTQ20AA101AT",
			"tag":"10HTQ20AA101AT",
			"type":0
		},
		{
			"gid":"",
			"node":"10HTQ20AA101PM",
			"tag":"10HTQ20AA101PM",
			"type":0
		},
		{
			"gid":"",
			"node":"10HTQ20AA101ZC",
			"tag":"10HTQ20AA101ZC",
			"type":0
		},
		{
			"gid":"",
			"node":"10HTQ20AA101ZO",
			"tag":"10HTQ20AA101ZO",
			"type":0
		},
		{
			"gid":"",
			"node":"10HTQ54AA111AT",
			"tag":"10HTQ54AA111AT",
			"type":0
		},
		{
			"gid":"",
			"node":"10HTQ54AA111ZC",
			"tag":"10HTQ54AA111ZC",
			"type":0
		},
		{
			"gid":"",
			"node":"10HTQ54AA111ZO",
			"tag":"10HTQ54AA111ZO",
			"type":0
		},
		{
			"gid":"",
			"node":"10HTQ54AA112AT",
			"tag":"10HTQ54AA112AT",
			"type":0
		},
		{
			"gid":"",
			"node":"10HTQ54AA112ZC",
			"tag":"10HTQ54AA112ZC",
			"type":0
		},
		{
			"gid":"",
			"node":"10HTQ54AA112ZO",
			"tag":"10HTQ54AA112ZO",
			"type":0
		},
		{
			"gid":"",
			"node":"10HTW10AN001AT",
			"tag":"10HTW10AN001AT",
			"type":0
		},
		{
			"gid":"",
			"node":"10HTW10AN001PM",
			"tag":"10HTW10AN001PM",
			"type":0
		},
		{
			"gid":"",
			"node":"10HTW10AN001ZD",
			"tag":"10HTW10AN001ZD",
			"type":0
		},
		{
			"gid":"",
			"node":"10HTW10AN001ZS",
			"tag":"10HTW10AN001ZS",
			"type":0
		},
		{
			"gid":"",
			"node":"10HTW20AN001AT",
			"tag":"10HTW20AN001AT",
			"type":0
		},
		{
			"gid":"",
			"node":"10HTW20AN001PM",
			"tag":"10HTW20AN001PM",
			"type":0
		},
		{
			"gid":"",
			"node":"10HTW20AN001ZD",
			"tag":"10HTW20AN001ZD",
			"type":0
		},
		{
			"gid":"",
			"node":"10HTW20AN001ZS",
			"tag":"10HTW20AN001ZS",
			"type":0
		},
		{
			"gid":"",
			"node":"10HTW30AH001AT",
			"tag":"10HTW30AH001AT",
			"type":0
		},
		{
			"gid":"",
			"node":"10HTW30AH001TH",
			"tag":"10HTW30AH001TH",
			"type":0
		},
		{
			"gid":"",
			"node":"10HTW30AH001TL",
			"tag":"10HTW30AH001TL",
			"type":0
		},
		{
			"gid":"",
			"node":"10HTW30AH001YS",
			"tag":"10HTW30AH001YS",
			"type":0
		},
		{
			"gid":"",
			"node":"10HTW30AH001ZD",
			"tag":"10HTW30AH001ZD",
			"type":0
		},
		{
			"gid":"",
			"node":"10HTW30AH001ZS",
			"tag":"10HTW30AH001ZS",
			"type":0
		},
		{
			"gid":"",
			"node":"10MCS00FA103-A",
			"tag":"10MCS00FA103-A",
			"type":0
		},
		{
			"gid":"",
			"node":"10MCS00FA103-H",
			"tag":"10MCS00FA103-H",
			"type":0
		},
		{
			"gid":"",
			"node":"10MFT01FA191",
			"tag":"10MFT01FA191",
			"type":0
		},
		{
			"gid":"",
			"node":"10MFT02FA191",
			"tag":"10MFT02FA191",
			"type":0
		},
		{
			"gid":"",
			"node":"10MFT03FA191",
			"tag":"10MFT03FA191",
			"type":0
		},
		{
			"gid":"",
			"node":"10SCS01FA002",
			"tag":"10SCS01FA002",
			"type":0
		},
		{
			"gid":"",
			"node":"10SCS01FA003",
			"tag":"10SCS01FA003",
			"type":0
		},
		{
			"gid":"",
			"node":"10SCS02FA002",
			"tag":"10SCS02FA002",
			"type":0
		},
		{
			"gid":"",
			"node":"10SCS03FA002",
			"tag":"10SCS03FA002",
			"type":0
		},
		{
			"gid":"",
			"node":"1BBR14AA001TZ",
			"tag":"1BBR14AA001TZ",
			"type":0
		},
		{
			"gid":"",
			"node":"1BBR15AA001TZ",
			"tag":"1BBR15AA001TZ",
			"type":0
		},
		{
			"gid":"",
			"node":"10HTC10CV001>7",
			"tag":"10HTC10CV001>7",
			"type":0
		},
		{
			"gid":"",
			"node":"10HTC10CT061>125",
			"tag":"10HTC10CT061>125",
			"type":0
		},
		{
			"gid":"",
			"node":"10HTC10CT062>125",
			"tag":"10HTC10CT062>125",
			"type":0
		},
		{
			"gid":"",
			"node":"10HTC10CT063>125",
			"tag":"10HTC10CT063>125",
			"type":0
		},
		{
			"gid":"",
			"node":"10HTF40CT003>125",
			"tag":"10HTF40CT003>125",
			"type":0
		},
		{
			"gid":"",
			"node":"10HTF40CT005>125",
			"tag":"10HTF40CT005>125",
			"type":0
		},
		{
			"gid":"",
			"node":"10HTF40CT007>125",
			"tag":"10HTF40CT007>125",
			"type":0
		},
		{
			"gid":"",
			"node":"CX",
			"tag":"CX",
			"type":0
		},
		{
			"gid":"",
			"node":"10HTF50CT003>125",
			"tag":"10HTF50CT003>125",
			"type":0
		},
		{
			"gid":"",
			"node":"10HTF50CT005>125",
			"tag":"10HTF50CT005>125",
			"type":0
		},
		{
			"gid":"",
			"node":"10HTF50CT007>125",
			"tag":"10HTF50CT007>125",
			"type":0
		}
	],
	"name":"yc1_realtime_058",
	"table":"rdcs_yc1.yc1_realtime"
}