{
	"file":"yc1_realtime_096",
	"items":[
		{
			"gid":"",
			"node":"20HTA15AA101C2",
			"tag":"20HTA15AA101C2",
			"type":0
		},
		{
			"gid":"",
			"node":"20HTA12CP001PL2",
			"tag":"20HTA12CP001PL2",
			"type":0
		},
		{
			"gid":"",
			"node":"20HTA15AA101",
			"tag":"20HTA15AA101",
			"type":0
		},
		{
			"gid":"",
			"node":"20HTA12CQ001PL1",
			"tag":"20HTA12CQ001PL1",
			"type":0
		},
		{
			"gid":"",
			"node":"20HTA15AA101C3",
			"tag":"20HTA15AA101C3",
			"type":0
		},
		{
			"gid":"",
			"node":"20HTA15AA101CK",
			"tag":"20HTA15AA101CK",
			"type":0
		},
		{
			"gid":"",
			"node":"20HTA15AA101O1",
			"tag":"20HTA15AA101O1",
			"type":0
		},
		{
			"gid":"",
			"node":"20HTA12CQ001PL2",
			"tag":"20HTA12CQ001PL2",
			"type":0
		},
		{
			"gid":"",
			"node":"20HTC20AN002BK",
			"tag":"20HTC20AN002BK",
			"type":0
		},
		{
			"gid":"",
			"node":"20HTA15AA101O2",
			"tag":"20HTA15AA101O2",
			"type":0
		},
		{
			"gid":"",
			"node":"20HTA15AA101O3",
			"tag":"20HTA15AA101O3",
			"type":0
		},
		{
			"gid":"",
			"node":"20HTA15AA101PM",
			"tag":"20HTA15AA101PM",
			"type":0
		},
		{
			"gid":"",
			"node":"20HTA12CQ002X",
			"tag":"20HTA12CQ002X",
			"type":0
		},
		{
			"gid":"",
			"node":"20HTA12CQ003X",
			"tag":"20HTA12CQ003X",
			"type":0
		},
		{
			"gid":"",
			"node":"20HTA15AA101ZC",
			"tag":"20HTA15AA101ZC",
			"type":0
		},
		{
			"gid":"",
			"node":"20HTA15AA101ZO",
			"tag":"20HTA15AA101ZO",
			"type":0
		},
		{
			"gid":"",
			"node":"20HTA15AH001AT",
			"tag":"20HTA15AH001AT",
			"type":0
		},
		{
			"gid":"",
			"node":"20HTA15AH001-ST",
			"tag":"20HTA15AH001-ST",
			"type":0
		},
		{
			"gid":"",
			"node":"20HTA15CP000",
			"tag":"20HTA15CP000",
			"type":0
		},
		{
			"gid":"",
			"node":"20HTA15AH001RM",
			"tag":"20HTA15AH001RM",
			"type":0
		},
		{
			"gid":"",
			"node":"20HTA15AH001CK",
			"tag":"20HTA15AH001CK",
			"type":0
		},
		{
			"gid":"",
			"node":"20HTA15AH001ZF",
			"tag":"20HTA15AH001ZF",
			"type":0
		},
		{
			"gid":"",
			"node":"20HTD10AA101LK",
			"tag":"20HTD10AA101LK",
			"type":0
		},
		{
			"gid":"",
			"node":"20HTA15AH001ZS",
			"tag":"20HTA15AH001ZS",
			"type":0
		},
		{
			"gid":"",
			"node":"20HTA15AP001AT",
			"tag":"20HTA15AP001AT",
			"type":0
		},
		{
			"gid":"",
			"node":"20HTA15AP001RM",
			"tag":"20HTA15AP001RM",
			"type":0
		},
		{
			"gid":"",
			"node":"20HTA15AP001ZD",
			"tag":"20HTA15AP001ZD",
			"type":0
		},
		{
			"gid":"",
			"node":"20HTA15CP901",
			"tag":"20HTA15CP901",
			"type":0
		},
		{
			"gid":"",
			"node":"20HTA15AP001-ST",
			"tag":"20HTA15AP001-ST",
			"type":0
		},
		{
			"gid":"",
			"node":"20HTA15CT000",
			"tag":"20HTA15CT000",
			"type":0
		},
		{
			"gid":"",
			"node":"20HTA15AP001ZF",
			"tag":"20HTA15AP001ZF",
			"type":0
		},
		{
			"gid":"",
			"node":"20HTA15AP001CK",
			"tag":"20HTA15AP001CK",
			"type":0
		},
		{
			"gid":"",
			"node":"20HTA15AP001ZS",
			"tag":"20HTA15AP001ZS",
			"type":0
		},
		{
			"gid":"",
			"node":"20HTA15AP002AT",
			"tag":"20HTA15AP002AT",
			"type":0
		},
		{
			"gid":"",
			"node":"20HTW10AN000-S",
			"tag":"20HTW10AN000-S",
			"type":0
		},
		{
			"gid":"",
			"node":"20HTA15AP002RM",
			"tag":"20HTA15AP002RM",
			"type":0
		},
		{
			"gid":"",
			"node":"20HTA15AP002ZD",
			"tag":"20HTA15AP002ZD",
			"type":0
		},
		{
			"gid":"",
			"node":"20HTA35CF001",
			"tag":"20HTA35CF001",
			"type":0
		},
		{
			"gid":"",
			"node":"20HTA15AP002-ST",
			"tag":"20HTA15AP002-ST",
			"type":0
		},
		{
			"gid":"",
			"node":"20HTA15AP002ZF",
			"tag":"20HTA15AP002ZF",
			"type":0
		},
		{
			"gid":"",
			"node":"20HTA15AP002CK",
			"tag":"20HTA15AP002CK",
			"type":0
		},
		{
			"gid":"",
			"node":"20HTA15AP002ZS",
			"tag":"20HTA15AP002ZS",
			"type":0
		},
		{
			"gid":"",
			"node":"20HTA15AS001MC",
			"tag":"20HTA15AS001MC",
			"type":0
		},
		{
			"gid":"",
			"node":"20HTW10AN002BK",
			"tag":"20HTW10AN002BK",
			"type":0
		},
		{
			"gid":"",
			"node":"20HTA15AS001OC",
			"tag":"20HTA15AS001OC",
			"type":0
		},
		{
			"gid":"",
			"node":"20HTA15AS001PM",
			"tag":"20HTA15AS001PM",
			"type":0
		},
		{
			"gid":"",
			"node":"20HTA15CT000-S",
			"tag":"20HTA15CT000-S",
			"type":0
		},
		{
			"gid":"",
			"node":"20HTA35CQ007",
			"tag":"20HTA35CQ007",
			"type":0
		},
		{
			"gid":"",
			"node":"20HTA15AS001TU",
			"tag":"20HTA15AS001TU",
			"type":0
		},
		{
			"gid":"",
			"node":"20HTA20AA101",
			"tag":"20HTA20AA101",
			"type":0
		}
	],
	"name":"yc1_realtime_096",
	"table":"rdcs_yc1.yc1_realtime"
}