{
	"file":"yc1_realtime_037",
	"items":[
		{
			"gid":"",
			"node":"A0HTK11CP003",
			"tag":"A0HTK11CP003",
			"type":0
		},
		{
			"gid":"",
			"node":"A0HTK11CP004",
			"tag":"A0HTK11CP004",
			"type":0
		},
		{
			"gid":"",
			"node":"A0HTK11CT001",
			"tag":"A0HTK11CT001",
			"type":0
		},
		{
			"gid":"",
			"node":"A0HTK11CT002",
			"tag":"A0HTK11CT002",
			"type":0
		},
		{
			"gid":"",
			"node":"A0HTK11DP101PD",
			"tag":"A0HTK11DP101PD",
			"type":0
		},
		{
			"gid":"",
			"node":"A0HTK12AH001AT",
			"tag":"A0HTK12AH001AT",
			"type":0
		},
		{
			"gid":"",
			"node":"A0HTK12AH001CK",
			"tag":"A0HTK12AH001CK",
			"type":0
		},
		{
			"gid":"",
			"node":"A0HTK12AH001LK",
			"tag":"A0HTK12AH001LK",
			"type":0
		},
		{
			"gid":"",
			"node":"A0HTK12AN001ZS",
			"tag":"A0HTK12AN001ZS",
			"type":0
		},
		{
			"gid":"",
			"node":"A0HTK22AA101",
			"tag":"A0HTK22AA101",
			"type":0
		},
		{
			"gid":"",
			"node":"A0HTK22AA101AT",
			"tag":"A0HTK22AA101AT",
			"type":0
		},
		{
			"gid":"",
			"node":"A0HTK22AA101CK",
			"tag":"A0HTK22AA101CK",
			"type":0
		},
		{
			"gid":"",
			"node":"A0HTK22AA101LK",
			"tag":"A0HTK22AA101LK",
			"type":0
		},
		{
			"gid":"",
			"node":"A0HTK22AA101PM",
			"tag":"A0HTK22AA101PM",
			"type":0
		},
		{
			"gid":"",
			"node":"A0HTK22AA101ZC",
			"tag":"A0HTK22AA101ZC",
			"type":0
		},
		{
			"gid":"",
			"node":"A0HTK22AA101ZO",
			"tag":"A0HTK22AA101ZO",
			"type":0
		},
		{
			"gid":"",
			"node":"A0HTK23AA101",
			"tag":"A0HTK23AA101",
			"type":0
		},
		{
			"gid":"",
			"node":"A0HTK23AA101AT",
			"tag":"A0HTK23AA101AT",
			"type":0
		},
		{
			"gid":"",
			"node":"A0HTK23AA101CK",
			"tag":"A0HTK23AA101CK",
			"type":0
		},
		{
			"gid":"",
			"node":"A0HTK23AA101LK",
			"tag":"A0HTK23AA101LK",
			"type":0
		},
		{
			"gid":"",
			"node":"A0HTK23AA101PM",
			"tag":"A0HTK23AA101PM",
			"type":0
		},
		{
			"gid":"",
			"node":"A0HTK23AA101ZC",
			"tag":"A0HTK23AA101ZC",
			"type":0
		},
		{
			"gid":"",
			"node":"A0HTK23AA101ZO",
			"tag":"A0HTK23AA101ZO",
			"type":0
		},
		{
			"gid":"",
			"node":"A0HTK31AA101",
			"tag":"A0HTK31AA101",
			"type":0
		},
		{
			"gid":"",
			"node":"A0HTK31AA101AT",
			"tag":"A0HTK31AA101AT",
			"type":0
		},
		{
			"gid":"",
			"node":"A0HTK31AA101CK",
			"tag":"A0HTK31AA101CK",
			"type":0
		},
		{
			"gid":"",
			"node":"A0HTK31AA101LK",
			"tag":"A0HTK31AA101LK",
			"type":0
		},
		{
			"gid":"",
			"node":"A0HTK31AA101PM",
			"tag":"A0HTK31AA101PM",
			"type":0
		},
		{
			"gid":"",
			"node":"A0HTK31AA101ZC",
			"tag":"A0HTK31AA101ZC",
			"type":0
		},
		{
			"gid":"",
			"node":"A0HTK31AA101ZO",
			"tag":"A0HTK31AA101ZO",
			"type":0
		},
		{
			"gid":"",
			"node":"A0HTK31AA102",
			"tag":"A0HTK31AA102",
			"type":0
		},
		{
			"gid":"",
			"node":"A0HTK31AA102AT",
			"tag":"A0HTK31AA102AT",
			"type":0
		},
		{
			"gid":"",
			"node":"A0HTK31AA102CK",
			"tag":"A0HTK31AA102CK",
			"type":0
		},
		{
			"gid":"",
			"node":"A0HTK31AA102LK",
			"tag":"A0HTK31AA102LK",
			"type":0
		},
		{
			"gid":"",
			"node":"A0HTK31AA102PM",
			"tag":"A0HTK31AA102PM",
			"type":0
		},
		{
			"gid":"",
			"node":"A0HTK31AA102ZC",
			"tag":"A0HTK31AA102ZC",
			"type":0
		},
		{
			"gid":"",
			"node":"A0HTK31AA102ZO",
			"tag":"A0HTK31AA102ZO",
			"type":0
		},
		{
			"gid":"",
			"node":"A0HTK31AP001",
			"tag":"A0HTK31AP001",
			"type":0
		},
		{
			"gid":"",
			"node":"A0HTK31AP001-I",
			"tag":"A0HTK31AP001-I",
			"type":0
		},
		{
			"gid":"",
			"node":"A0HTK31AP001AT",
			"tag":"A0HTK31AP001AT",
			"type":0
		},
		{
			"gid":"",
			"node":"A0HTK31AP001BK",
			"tag":"A0HTK31AP001BK",
			"type":0
		},
		{
			"gid":"",
			"node":"A0HTK31AP001CK",
			"tag":"A0HTK31AP001CK",
			"type":0
		},
		{
			"gid":"",
			"node":"A0HTK31AP001LK",
			"tag":"A0HTK31AP001LK",
			"type":0
		},
		{
			"gid":"",
			"node":"A0HTK31AP001PF",
			"tag":"A0HTK31AP001PF",
			"type":0
		},
		{
			"gid":"",
			"node":"A0HTK31AP001PM",
			"tag":"A0HTK31AP001PM",
			"type":0
		},
		{
			"gid":"",
			"node":"A0HTK31AP001PV",
			"tag":"A0HTK31AP001PV",
			"type":0
		},
		{
			"gid":"",
			"node":"A0HTK31AP001PX",
			"tag":"A0HTK31AP001PX",
			"type":0
		},
		{
			"gid":"",
			"node":"A0HTK31AP001RM",
			"tag":"A0HTK31AP001RM",
			"type":0
		},
		{
			"gid":"",
			"node":"A0HTK31AP001XV",
			"tag":"A0HTK31AP001XV",
			"type":0
		},
		{
			"gid":"",
			"node":"A0HTK31AP001XV-A",
			"tag":"A0HTK31AP001XV-A",
			"type":0
		}
	],
	"name":"yc1_realtime_037",
	"table":"rdcs_yc1.yc1_realtime"
}