{
	"file":"yc1_realtime_027",
	"items":[
		{
			"gid":"",
			"node":"L0HTM13AP001ZDT9",
			"tag":"L0HTM13AP001ZDT9",
			"type":0
		},
		{
			"gid":"",
			"node":"L0HTM13AP001ZS",
			"tag":"L0HTM13AP001ZS",
			"type":0
		},
		{
			"gid":"",
			"node":"L0HTM15CL101",
			"tag":"L0HTM15CL101",
			"type":0
		},
		{
			"gid":"",
			"node":"L0HTM15CL101T1",
			"tag":"L0HTM15CL101T1",
			"type":0
		},
		{
			"gid":"",
			"node":"L0HTM15CP101",
			"tag":"L0HTM15CP101",
			"type":0
		},
		{
			"gid":"",
			"node":"L0HTM15CP101T6",
			"tag":"L0HTM15CP101T6",
			"type":0
		},
		{
			"gid":"",
			"node":"L0HTM15CP102",
			"tag":"L0HTM15CP102",
			"type":0
		},
		{
			"gid":"",
			"node":"L0HTM16AP001AT",
			"tag":"L0HTM16AP001AT",
			"type":0
		},
		{
			"gid":"",
			"node":"L0HTM16AP001PM",
			"tag":"L0HTM16AP001PM",
			"type":0
		},
		{
			"gid":"",
			"node":"L0HTM16AP001RM",
			"tag":"L0HTM16AP001RM",
			"type":0
		},
		{
			"gid":"",
			"node":"L0HTM16AP001ZD",
			"tag":"L0HTM16AP001ZD",
			"type":0
		},
		{
			"gid":"",
			"node":"L0HTM16AP001ZDT9",
			"tag":"L0HTM16AP001ZDT9",
			"type":0
		},
		{
			"gid":"",
			"node":"L0HTM16AP001ZS",
			"tag":"L0HTM16AP001ZS",
			"type":0
		},
		{
			"gid":"",
			"node":"L0HTM17CL101",
			"tag":"L0HTM17CL101",
			"type":0
		},
		{
			"gid":"",
			"node":"L0HTM17CL101T1",
			"tag":"L0HTM17CL101T1",
			"type":0
		},
		{
			"gid":"",
			"node":"L0HTM17CP101",
			"tag":"L0HTM17CP101",
			"type":0
		},
		{
			"gid":"",
			"node":"L0HTM17CP101T6",
			"tag":"L0HTM17CP101T6",
			"type":0
		},
		{
			"gid":"",
			"node":"L0HTM17CP102",
			"tag":"L0HTM17CP102",
			"type":0
		},
		{
			"gid":"",
			"node":"L0HTM20CL101",
			"tag":"L0HTM20CL101",
			"type":0
		},
		{
			"gid":"",
			"node":"L0HTM21AP0014T8",
			"tag":"L0HTM21AP0014T8",
			"type":0
		},
		{
			"gid":"",
			"node":"L0HTM21AP001T8",
			"tag":"L0HTM21AP001T8",
			"type":0
		},
		{
			"gid":"",
			"node":"L0HTM26CF101",
			"tag":"L0HTM26CF101",
			"type":0
		},
		{
			"gid":"",
			"node":"L0HTM26CF102",
			"tag":"L0HTM26CF102",
			"type":0
		},
		{
			"gid":"",
			"node":"L0HTM27CF101",
			"tag":"L0HTM27CF101",
			"type":0
		},
		{
			"gid":"",
			"node":"L0HTM27CF102",
			"tag":"L0HTM27CF102",
			"type":0
		},
		{
			"gid":"",
			"node":"L0HTM30AA101AT",
			"tag":"L0HTM30AA101AT",
			"type":0
		},
		{
			"gid":"",
			"node":"L0HTM30AA102AT",
			"tag":"L0HTM30AA102AT",
			"type":0
		},
		{
			"gid":"",
			"node":"L0HTM30AA103AT",
			"tag":"L0HTM30AA103AT",
			"type":0
		},
		{
			"gid":"",
			"node":"L0HTM30AM001AT",
			"tag":"L0HTM30AM001AT",
			"type":0
		},
		{
			"gid":"",
			"node":"L0HTM30AM001RM",
			"tag":"L0HTM30AM001RM",
			"type":0
		},
		{
			"gid":"",
			"node":"L0HTM30AM001ZD",
			"tag":"L0HTM30AM001ZD",
			"type":0
		},
		{
			"gid":"",
			"node":"L0HTM30AM001ZF",
			"tag":"L0HTM30AM001ZF",
			"type":0
		},
		{
			"gid":"",
			"node":"L0HTM30AM001ZS",
			"tag":"L0HTM30AM001ZS",
			"type":0
		},
		{
			"gid":"",
			"node":"L0HTM30AM002AT",
			"tag":"L0HTM30AM002AT",
			"type":0
		},
		{
			"gid":"",
			"node":"L0HTM30AM002RM",
			"tag":"L0HTM30AM002RM",
			"type":0
		},
		{
			"gid":"",
			"node":"L0HTM30AM002ZD",
			"tag":"L0HTM30AM002ZD",
			"type":0
		},
		{
			"gid":"",
			"node":"L0HTM30AM002ZF",
			"tag":"L0HTM30AM002ZF",
			"type":0
		},
		{
			"gid":"",
			"node":"L0HTM30AM002ZS",
			"tag":"L0HTM30AM002ZS",
			"type":0
		},
		{
			"gid":"",
			"node":"L0HTM31AA101AT",
			"tag":"L0HTM31AA101AT",
			"type":0
		},
		{
			"gid":"",
			"node":"L0HTM31AA101PM",
			"tag":"L0HTM31AA101PM",
			"type":0
		},
		{
			"gid":"",
			"node":"L0HTM31AA101ZC",
			"tag":"L0HTM31AA101ZC",
			"type":0
		},
		{
			"gid":"",
			"node":"L0HTM31AA101ZO",
			"tag":"L0HTM31AA101ZO",
			"type":0
		},
		{
			"gid":"",
			"node":"L0HTM31AP001AT",
			"tag":"L0HTM31AP001AT",
			"type":0
		},
		{
			"gid":"",
			"node":"L0HTM31AP001RM",
			"tag":"L0HTM31AP001RM",
			"type":0
		},
		{
			"gid":"",
			"node":"L0HTM31AP001SD-P",
			"tag":"L0HTM31AP001SD-P",
			"type":0
		},
		{
			"gid":"",
			"node":"L0HTM31AP001SU-P",
			"tag":"L0HTM31AP001SU-P",
			"type":0
		},
		{
			"gid":"",
			"node":"L0HTM31AP001ZD",
			"tag":"L0HTM31AP001ZD",
			"type":0
		},
		{
			"gid":"",
			"node":"L0HTM31AP001ZF",
			"tag":"L0HTM31AP001ZF",
			"type":0
		},
		{
			"gid":"",
			"node":"L0HTM31AP001ZS",
			"tag":"L0HTM31AP001ZS",
			"type":0
		},
		{
			"gid":"",
			"node":"L0HTM32AA101AT",
			"tag":"L0HTM32AA101AT",
			"type":0
		}
	],
	"name":"yc1_realtime_027",
	"table":"rdcs_yc1.yc1_realtime"
}