{
	"file":"yc1_realtime_097",
	"items":[
		{
			"gid":"",
			"node":"20HTA20AA101AT",
			"tag":"20HTA20AA101AT",
			"type":0
		},
		{
			"gid":"",
			"node":"20HTA20AA101C2",
			"tag":"20HTA20AA101C2",
			"type":0
		},
		{
			"gid":"",
			"node":"20HTW20AN002BK",
			"tag":"20HTW20AN002BK",
			"type":0
		},
		{
			"gid":"",
			"node":"20HTA20AA101C3",
			"tag":"20HTA20AA101C3",
			"type":0
		},
		{
			"gid":"",
			"node":"20HTA20AA101O1",
			"tag":"20HTA20AA101O1",
			"type":0
		},
		{
			"gid":"",
			"node":"20HTA20AA101CK",
			"tag":"20HTA20AA101CK",
			"type":0
		},
		{
			"gid":"",
			"node":"20HTC10DF001",
			"tag":"20HTC10DF001",
			"type":0
		},
		{
			"gid":"",
			"node":"20HTA20AA101O2",
			"tag":"20HTA20AA101O2",
			"type":0
		},
		{
			"gid":"",
			"node":"20HTA35AA101",
			"tag":"20HTA35AA101",
			"type":0
		},
		{
			"gid":"",
			"node":"20HTA20AA101O3",
			"tag":"20HTA20AA101O3",
			"type":0
		},
		{
			"gid":"",
			"node":"20HTA20AA101PM",
			"tag":"20HTA20AA101PM",
			"type":0
		},
		{
			"gid":"",
			"node":"20HTA15AA101LK",
			"tag":"20HTA15AA101LK",
			"type":0
		},
		{
			"gid":"",
			"node":"20HTA20AA101ZC",
			"tag":"20HTA20AA101ZC",
			"type":0
		},
		{
			"gid":"",
			"node":"20HTA20AA101ZO",
			"tag":"20HTA20AA101ZO",
			"type":0
		},
		{
			"gid":"",
			"node":"20HNC10AA101GT",
			"tag":"20HNC10AA101GT",
			"type":0
		},
		{
			"gid":"",
			"node":"20HTA35AA101AT",
			"tag":"20HTA35AA101AT",
			"type":0
		},
		{
			"gid":"",
			"node":"20HTA35AA101C1",
			"tag":"20HTA35AA101C1",
			"type":0
		},
		{
			"gid":"",
			"node":"20HTA35AA101C2",
			"tag":"20HTA35AA101C2",
			"type":0
		},
		{
			"gid":"",
			"node":"20HTA35AA101C3",
			"tag":"20HTA35AA101C3",
			"type":0
		},
		{
			"gid":"",
			"node":"20HTA35AA101O1",
			"tag":"20HTA35AA101O1",
			"type":0
		},
		{
			"gid":"",
			"node":"20HTA15AH001LK",
			"tag":"20HTA15AH001LK",
			"type":0
		},
		{
			"gid":"",
			"node":"20HTA35AA101O2",
			"tag":"20HTA35AA101O2",
			"type":0
		},
		{
			"gid":"",
			"node":"20HTA15AP001-LK",
			"tag":"20HTA15AP001-LK",
			"type":0
		},
		{
			"gid":"",
			"node":"20HTA35AA101O3",
			"tag":"20HTA35AA101O3",
			"type":0
		},
		{
			"gid":"",
			"node":"20HTA35AA101OPEN",
			"tag":"20HTA35AA101OPEN",
			"type":0
		},
		{
			"gid":"",
			"node":"20HTA35AA101PM",
			"tag":"20HTA35AA101PM",
			"type":0
		},
		{
			"gid":"",
			"node":"20HTA35AA101ZC",
			"tag":"20HTA35AA101ZC",
			"type":0
		},
		{
			"gid":"",
			"node":"20HTA35AA101ZO",
			"tag":"20HTA35AA101ZO",
			"type":0
		},
		{
			"gid":"",
			"node":"20HTA35AA102AT",
			"tag":"20HTA35AA102AT",
			"type":0
		},
		{
			"gid":"",
			"node":"20HTA15AP001LK",
			"tag":"20HTA15AP001LK",
			"type":0
		},
		{
			"gid":"",
			"node":"20HTA15AP002LK",
			"tag":"20HTA15AP002LK",
			"type":0
		},
		{
			"gid":"",
			"node":"20HTA35AA102C1",
			"tag":"20HTA35AA102C1",
			"type":0
		},
		{
			"gid":"",
			"node":"20HTA20AA101LK",
			"tag":"20HTA20AA101LK",
			"type":0
		},
		{
			"gid":"",
			"node":"20HTA35AA101CK",
			"tag":"20HTA35AA101CK",
			"type":0
		},
		{
			"gid":"",
			"node":"20HNC20AA101GT",
			"tag":"20HNC20AA101GT",
			"type":0
		},
		{
			"gid":"",
			"node":"20HTA35AA102C2",
			"tag":"20HTA35AA102C2",
			"type":0
		},
		{
			"gid":"",
			"node":"20HTA35AA102",
			"tag":"20HTA35AA102",
			"type":0
		},
		{
			"gid":"",
			"node":"20HTA35AA102C3",
			"tag":"20HTA35AA102C3",
			"type":0
		},
		{
			"gid":"",
			"node":"20HTA35AA102O1",
			"tag":"20HTA35AA102O1",
			"type":0
		},
		{
			"gid":"",
			"node":"20HTA35AA102O2",
			"tag":"20HTA35AA102O2",
			"type":0
		},
		{
			"gid":"",
			"node":"20HTA35AA102O3",
			"tag":"20HTA35AA102O3",
			"type":0
		},
		{
			"gid":"",
			"node":"20HTA15CF001",
			"tag":"20HTA15CF001",
			"type":0
		},
		{
			"gid":"",
			"node":"20HTA35AA101LK",
			"tag":"20HTA35AA101LK",
			"type":0
		},
		{
			"gid":"",
			"node":"20HTA35AA102PM",
			"tag":"20HTA35AA102PM",
			"type":0
		},
		{
			"gid":"",
			"node":"20HTA35AA102ZC",
			"tag":"20HTA35AA102ZC",
			"type":0
		},
		{
			"gid":"",
			"node":"20HTA35AA102ZO",
			"tag":"20HTA35AA102ZO",
			"type":0
		},
		{
			"gid":"",
			"node":"20HTA35AACLOSE",
			"tag":"20HTA35AACLOSE",
			"type":0
		},
		{
			"gid":"",
			"node":"20HTA35AS001MC",
			"tag":"20HTA35AS001MC",
			"type":0
		},
		{
			"gid":"",
			"node":"20HTA35AS001PM",
			"tag":"20HTA35AS001PM",
			"type":0
		},
		{
			"gid":"",
			"node":"20HTA35AS001TU",
			"tag":"20HTA35AS001TU",
			"type":0
		}
	],
	"name":"yc1_realtime_097",
	"table":"rdcs_yc1.yc1_realtime"
}