{
	"file":"jgs_realtime_012",
	"items":[
		{
			"gid":"A000550",
			"node":"D3P134B1P3",
			"tag":"AI3:150",
			"type":0
		},
		{
			"gid":"A000551",
			"node":"D3P142B1P",
			"tag":"AI3:153",
			"type":0
		},
		{
			"gid":"A000552",
			"node":"D3P142B3P",
			"tag":"AI3:156",
			"type":0
		},
		{
			"gid":"A000553",
			"node":"D3P142B3P1",
			"tag":"AI3:159",
			"type":0
		},
		{
			"gid":"A000554",
			"node":"D3P143B1P1",
			"tag":"AI3:162",
			"type":0
		},
		{
			"gid":"A000555",
			"node":"D3P143B1P2",
			"tag":"AI3:165",
			"type":0
		},
		{
			"gid":"A000556",
			"node":"D3P143B1P3",
			"tag":"AI3:168",
			"type":0
		},
		{
			"gid":"A000557",
			"node":"D3P143B1P4",
			"tag":"AI3:171",
			"type":0
		},
		{
			"gid":"A000558",
			"node":"D3P143B1P5",
			"tag":"AI3:174",
			"type":0
		},
		{
			"gid":"A000559",
			"node":"D3P143B1P6",
			"tag":"AI3:177",
			"type":0
		},
		{
			"gid":"A000560",
			"node":"D3P144B1P1",
			"tag":"AI3:180",
			"type":0
		},
		{
			"gid":"A000561",
			"node":"D3P144B1P2",
			"tag":"AI3:183",
			"type":0
		},
		{
			"gid":"A000562",
			"node":"D3P144B1P3",
			"tag":"AI3:186",
			"type":0
		},
		{
			"gid":"A000563",
			"node":"D3P144B1P4",
			"tag":"AI3:189",
			"type":0
		},
		{
			"gid":"A000564",
			"node":"D3P144B1P5",
			"tag":"AI3:192",
			"type":0
		},
		{
			"gid":"A000565",
			"node":"D3P144B1P6",
			"tag":"AI3:195",
			"type":0
		},
		{
			"gid":"A000566",
			"node":"D3P156B1P1",
			"tag":"AI3:198",
			"type":0
		},
		{
			"gid":"A000567",
			"node":"D3P156B1P2",
			"tag":"AI3:201",
			"type":0
		},
		{
			"gid":"A000568",
			"node":"D3P156B1P3",
			"tag":"AI3:204",
			"type":0
		},
		{
			"gid":"A000569",
			"node":"D3P156B1P4",
			"tag":"AI3:207",
			"type":0
		},
		{
			"gid":"A000570",
			"node":"D3P156B1P5",
			"tag":"AI3:210",
			"type":0
		},
		{
			"gid":"A000571",
			"node":"D3P156B1P6",
			"tag":"AI3:213",
			"type":0
		},
		{
			"gid":"A000572",
			"node":"D3P157B1P1",
			"tag":"AI3:216",
			"type":0
		},
		{
			"gid":"A000573",
			"node":"D3P157B1P2",
			"tag":"AI3:219",
			"type":0
		},
		{
			"gid":"A000574",
			"node":"D3P157B1P3",
			"tag":"AI3:222",
			"type":0
		},
		{
			"gid":"A000575",
			"node":"D3P157B1P4",
			"tag":"AI3:225",
			"type":0
		},
		{
			"gid":"A000576",
			"node":"D3P157B1P5",
			"tag":"AI3:228",
			"type":0
		},
		{
			"gid":"A000577",
			"node":"D3P157B1P6",
			"tag":"AI3:231",
			"type":0
		},
		{
			"gid":"A000578",
			"node":"D3P158B1P1",
			"tag":"AI3:234",
			"type":0
		},
		{
			"gid":"A000579",
			"node":"D3P158B1P2",
			"tag":"AI3:237",
			"type":0
		},
		{
			"gid":"A000580",
			"node":"D3P158B1P3",
			"tag":"AI3:240",
			"type":0
		},
		{
			"gid":"A000581",
			"node":"D3P158B1P4",
			"tag":"AI3:243",
			"type":0
		},
		{
			"gid":"A000582",
			"node":"D3P158B1P5",
			"tag":"AI3:246",
			"type":0
		},
		{
			"gid":"A000583",
			"node":"D3P158B1P6",
			"tag":"AI3:249",
			"type":0
		},
		{
			"gid":"A000584",
			"node":"D3P114B3P",
			"tag":"AI3:252",
			"type":0
		},
		{
			"gid":"A000585",
			"node":"D3P114B16P",
			"tag":"AI3:255",
			"type":0
		},
		{
			"gid":"A000586",
			"node":"D3P109B1P",
			"tag":"AI3:258",
			"type":0
		},
		{
			"gid":"A000587",
			"node":"D3P110B1",
			"tag":"AI3:261",
			"type":0
		},
		{
			"gid":"A000588",
			"node":"D3P111B1",
			"tag":"AI3:264",
			"type":0
		},
		{
			"gid":"A000589",
			"node":"D3P112B1",
			"tag":"AI3:267",
			"type":0
		},
		{
			"gid":"A000590",
			"node":"D3P115B1",
			"tag":"AI3:270",
			"type":0
		},
		{
			"gid":"A000591",
			"node":"D3P116B1",
			"tag":"AI3:273",
			"type":0
		},
		{
			"gid":"A000592",
			"node":"D3P117B1",
			"tag":"AI3:276",
			"type":0
		},
		{
			"gid":"A000593",
			"node":"D3P118B1",
			"tag":"AI3:279",
			"type":0
		},
		{
			"gid":"A000594",
			"node":"D3P120B1",
			"tag":"AI3:282",
			"type":0
		},
		{
			"gid":"A000595",
			"node":"D3P125B1",
			"tag":"AI3:285",
			"type":0
		},
		{
			"gid":"A000596",
			"node":"D3P126B1",
			"tag":"AI3:288",
			"type":0
		},
		{
			"gid":"A000597",
			"node":"D3P130B1",
			"tag":"AI3:291",
			"type":0
		},
		{
			"gid":"A000598",
			"node":"D3P131B1",
			"tag":"AI3:294",
			"type":0
		},
		{
			"gid":"A000599",
			"node":"D3P135B1",
			"tag":"AI3:297",
			"type":0
		}
	],
	"name":"jgs_realtime_012",
	"table":"rdcs_jgs.jgs_realtime"
}