{
	"file":"jgs_realtime_084",
	"items":[
		{
			"gid":"D000891",
			"node":"2HQ13A205PL",
			"tag":"DI1:891",
			"type":1
		},
		{
			"gid":"D000892",
			"node":"2HQ13A206ZO",
			"tag":"DI1:892",
			"type":1
		},
		{
			"gid":"D000893",
			"node":"2HQ13A206ZC",
			"tag":"DI1:893",
			"type":1
		},
		{
			"gid":"D000894",
			"node":"2HQ13A206PL",
			"tag":"DI1:894",
			"type":1
		},
		{
			"gid":"D000895",
			"node":"2HQ11A201VO",
			"tag":"DI1:895",
			"type":1
		},
		{
			"gid":"D000896",
			"node":"2HQ11A201VC",
			"tag":"DI1:896",
			"type":1
		},
		{
			"gid":"D000897",
			"node":"2HQ11A202VO",
			"tag":"DI1:897",
			"type":1
		},
		{
			"gid":"D000898",
			"node":"2HQ11A202VC",
			"tag":"DI1:898",
			"type":1
		},
		{
			"gid":"D000899",
			"node":"2HQ11A203VO",
			"tag":"DI1:899",
			"type":1
		},
		{
			"gid":"D000900",
			"node":"2HQ11A203VC",
			"tag":"DI1:900",
			"type":1
		},
		{
			"gid":"D000901",
			"node":"2HQ11A204VO",
			"tag":"DI1:901",
			"type":1
		},
		{
			"gid":"D000902",
			"node":"2HQ11A204VC",
			"tag":"DI1:902",
			"type":1
		},
		{
			"gid":"D000903",
			"node":"2HQ11A205VO",
			"tag":"DI1:903",
			"type":1
		},
		{
			"gid":"D000904",
			"node":"2HQ11A205VC",
			"tag":"DI1:904",
			"type":1
		},
		{
			"gid":"D000905",
			"node":"2HQ11A206VC",
			"tag":"DI1:905",
			"type":1
		},
		{
			"gid":"D000906",
			"node":"2HQ11A206VO",
			"tag":"DI1:906",
			"type":1
		},
		{
			"gid":"D000907",
			"node":"2HQ12A201VO",
			"tag":"DI1:907",
			"type":1
		},
		{
			"gid":"D000908",
			"node":"2HQ12A201VC",
			"tag":"DI1:908",
			"type":1
		},
		{
			"gid":"D000909",
			"node":"2HQ12A202VO",
			"tag":"DI1:909",
			"type":1
		},
		{
			"gid":"D000910",
			"node":"2HQ12A202VC",
			"tag":"DI1:910",
			"type":1
		},
		{
			"gid":"D000911",
			"node":"2HQ12A203VO",
			"tag":"DI1:911",
			"type":1
		},
		{
			"gid":"D000912",
			"node":"2HQ12A203VC",
			"tag":"DI1:912",
			"type":1
		},
		{
			"gid":"D000913",
			"node":"2HQ12A204VO",
			"tag":"DI1:913",
			"type":1
		},
		{
			"gid":"D000914",
			"node":"2HQ12A204VC",
			"tag":"DI1:914",
			"type":1
		},
		{
			"gid":"D000915",
			"node":"2HQ12A205VO",
			"tag":"DI1:915",
			"type":1
		},
		{
			"gid":"D000916",
			"node":"2HQ12A205VC",
			"tag":"DI1:916",
			"type":1
		},
		{
			"gid":"D000917",
			"node":"2HQ12A206VO",
			"tag":"DI1:917",
			"type":1
		},
		{
			"gid":"D000918",
			"node":"2HQ12A206VC",
			"tag":"DI1:918",
			"type":1
		},
		{
			"gid":"D000919",
			"node":"2HC10N001MS",
			"tag":"DI1:919",
			"type":1
		},
		{
			"gid":"D000920",
			"node":"2HC10N001MD",
			"tag":"DI1:920",
			"type":1
		},
		{
			"gid":"D000921",
			"node":"2HG11N001MS",
			"tag":"DI1:921",
			"type":1
		},
		{
			"gid":"D000922",
			"node":"2HG11N001MD",
			"tag":"DI1:922",
			"type":1
		},
		{
			"gid":"D000923",
			"node":"2HG12N001MS",
			"tag":"DI1:923",
			"type":1
		},
		{
			"gid":"D000924",
			"node":"2HG12N001MD",
			"tag":"DI1:924",
			"type":1
		},
		{
			"gid":"D000925",
			"node":"2HG13N001MS",
			"tag":"DI1:925",
			"type":1
		},
		{
			"gid":"D000926",
			"node":"2HG13N001MD",
			"tag":"DI1:926",
			"type":1
		},
		{
			"gid":"D000927",
			"node":"2HQ13A201VO",
			"tag":"DI1:927",
			"type":1
		},
		{
			"gid":"D000928",
			"node":"2HQ13A201VC",
			"tag":"DI1:928",
			"type":1
		},
		{
			"gid":"D000929",
			"node":"2HQ13A202VO",
			"tag":"DI1:929",
			"type":1
		},
		{
			"gid":"D000930",
			"node":"2HQ13A202VC",
			"tag":"DI1:930",
			"type":1
		},
		{
			"gid":"D000931",
			"node":"2HQ13A203VO",
			"tag":"DI1:931",
			"type":1
		},
		{
			"gid":"D000932",
			"node":"2HQ13A203VC",
			"tag":"DI1:932",
			"type":1
		},
		{
			"gid":"D000933",
			"node":"2HQ13A204VO",
			"tag":"DI1:933",
			"type":1
		},
		{
			"gid":"D000934",
			"node":"2HQ13A204VC",
			"tag":"DI1:934",
			"type":1
		},
		{
			"gid":"D000935",
			"node":"2HQ13A205VO",
			"tag":"DI1:935",
			"type":1
		},
		{
			"gid":"D000936",
			"node":"2HQ13A205VC",
			"tag":"DI1:936",
			"type":1
		},
		{
			"gid":"D000937",
			"node":"2HQ13A206VO",
			"tag":"DI1:937",
			"type":1
		},
		{
			"gid":"D000938",
			"node":"2HQ13A026VC",
			"tag":"DI1:938",
			"type":1
		},
		{
			"gid":"D000939",
			"node":"D03AMST",
			"tag":"DI1:939",
			"type":1
		},
		{
			"gid":"D000940",
			"node":"D03NAF",
			"tag":"DI1:940",
			"type":1
		}
	],
	"name":"jgs_realtime_084",
	"table":"rdcs_jgs.jgs_realtime"
}