{
	"file":"jgs_realtime_121",
	"items":[
		{
			"gid":"D002741",
			"node":"JHT10M001PE",
			"tag":"DI3:741",
			"type":1
		},
		{
			"gid":"D002742",
			"node":"JHT10M001PG",
			"tag":"DI3:742",
			"type":1
		},
		{
			"gid":"D002743",
			"node":"JHT10P001ZS",
			"tag":"DI3:743",
			"type":1
		},
		{
			"gid":"D002744",
			"node":"JHT10P001ZD",
			"tag":"DI3:744",
			"type":1
		},
		{
			"gid":"D002745",
			"node":"JHT10P001ZF",
			"tag":"DI3:745",
			"type":1
		},
		{
			"gid":"D002746",
			"node":"JHT10P001PE",
			"tag":"DI3:746",
			"type":1
		},
		{
			"gid":"D002747",
			"node":"JHT10P001PG",
			"tag":"DI3:747",
			"type":1
		},
		{
			"gid":"D002748",
			"node":"AHQ11P001MS",
			"tag":"DI3:748",
			"type":1
		},
		{
			"gid":"D002749",
			"node":"AHQ11P001MD",
			"tag":"DI3:749",
			"type":1
		},
		{
			"gid":"D002750",
			"node":"AHQ10A201VO",
			"tag":"DI3:750",
			"type":1
		},
		{
			"gid":"D002751",
			"node":"AHQ10A201VC",
			"tag":"DI3:751",
			"type":1
		},
		{
			"gid":"D002752",
			"node":"JHQ21P001MS",
			"tag":"DI3:752",
			"type":1
		},
		{
			"gid":"D002753",
			"node":"JHQ21P001MD",
			"tag":"DI3:753",
			"type":1
		},
		{
			"gid":"D002754",
			"node":"JHQ01A201VO",
			"tag":"DI3:754",
			"type":1
		},
		{
			"gid":"D002755",
			"node":"JHQ01A201VC",
			"tag":"DI3:755",
			"type":1
		},
		{
			"gid":"D002756",
			"node":"AHM81A202VO",
			"tag":"DI3:756",
			"type":1
		},
		{
			"gid":"D002757",
			"node":"AHM81A202VC",
			"tag":"DI3:757",
			"type":1
		},
		{
			"gid":"D002758",
			"node":"AHM81A201VO",
			"tag":"DI3:758",
			"type":1
		},
		{
			"gid":"D002759",
			"node":"AHM81A201VC",
			"tag":"DI3:759",
			"type":1
		},
		{
			"gid":"D002760",
			"node":"AHM81P001MS",
			"tag":"DI3:760",
			"type":1
		},
		{
			"gid":"D002761",
			"node":"AHM81P001MD",
			"tag":"DI3:761",
			"type":1
		},
		{
			"gid":"D002762",
			"node":"AHQ12P001MS",
			"tag":"DI3:762",
			"type":1
		},
		{
			"gid":"D002763",
			"node":"AHQ12P001MD",
			"tag":"DI3:763",
			"type":1
		},
		{
			"gid":"D002764",
			"node":"JHQ22P001MS",
			"tag":"DI3:764",
			"type":1
		},
		{
			"gid":"D002765",
			"node":"JHQ22P001MD",
			"tag":"DI3:765",
			"type":1
		},
		{
			"gid":"D002766",
			"node":"JHQ23A201VO",
			"tag":"DI3:766",
			"type":1
		},
		{
			"gid":"D002767",
			"node":"JHQ23A201VC",
			"tag":"DI3:767",
			"type":1
		},
		{
			"gid":"D002768",
			"node":"JHQ21A201VO",
			"tag":"DI3:768",
			"type":1
		},
		{
			"gid":"D002769",
			"node":"JHQ21A201VC",
			"tag":"DI3:769",
			"type":1
		},
		{
			"gid":"D002770",
			"node":"AHM82A202VO",
			"tag":"DI3:770",
			"type":1
		},
		{
			"gid":"D002771",
			"node":"AHM82A202VC",
			"tag":"DI3:771",
			"type":1
		},
		{
			"gid":"D002772",
			"node":"AHM82A201VO",
			"tag":"DI3:772",
			"type":1
		},
		{
			"gid":"D002773",
			"node":"AHM82A201VC",
			"tag":"DI3:773",
			"type":1
		},
		{
			"gid":"D002774",
			"node":"AHM82P001MS",
			"tag":"DI3:774",
			"type":1
		},
		{
			"gid":"D002775",
			"node":"AHM82P001MD",
			"tag":"DI3:775",
			"type":1
		},
		{
			"gid":"D002776",
			"node":"AHQ13P001MS",
			"tag":"DI3:776",
			"type":1
		},
		{
			"gid":"D002777",
			"node":"AHQ13P001MD",
			"tag":"DI3:777",
			"type":1
		},
		{
			"gid":"D002778",
			"node":"AHQ10A202VO",
			"tag":"DI3:778",
			"type":1
		},
		{
			"gid":"D002779",
			"node":"AHQ10A202VC",
			"tag":"DI3:779",
			"type":1
		},
		{
			"gid":"D002780",
			"node":"JHQ23P001MS",
			"tag":"DI3:780",
			"type":1
		},
		{
			"gid":"D002781",
			"node":"JHQ23P001MD",
			"tag":"DI3:781",
			"type":1
		},
		{
			"gid":"D002782",
			"node":"JHM61P001MS",
			"tag":"DI3:782",
			"type":1
		},
		{
			"gid":"D002783",
			"node":"JHM61P001MD",
			"tag":"DI3:783",
			"type":1
		},
		{
			"gid":"D002784",
			"node":"JHM91P001MS",
			"tag":"DI3:784",
			"type":1
		},
		{
			"gid":"D002785",
			"node":"JHM91P001MD",
			"tag":"DI3:785",
			"type":1
		},
		{
			"gid":"D002786",
			"node":"JHM80M001MS",
			"tag":"DI3:786",
			"type":1
		},
		{
			"gid":"D002787",
			"node":"JHM80M001MD",
			"tag":"DI3:787",
			"type":1
		},
		{
			"gid":"D002788",
			"node":"JHM62P001MS",
			"tag":"DI3:788",
			"type":1
		},
		{
			"gid":"D002789",
			"node":"JHM62P001MD",
			"tag":"DI3:789",
			"type":1
		},
		{
			"gid":"D002790",
			"node":"JHM92P001MS",
			"tag":"DI3:790",
			"type":1
		}
	],
	"name":"jgs_realtime_121",
	"table":"rdcs_jgs.jgs_realtime"
}