{
	"file":"jgs_realtime_032",
	"items":[
		{
			"gid":"A001550",
			"node":"D08ABAK050",
			"tag":"AI7:150",
			"type":0
		},
		{
			"gid":"A001551",
			"node":"D08ABAK051",
			"tag":"AI7:153",
			"type":0
		},
		{
			"gid":"A001552",
			"node":"D08ABAK052",
			"tag":"AI7:156",
			"type":0
		},
		{
			"gid":"A001553",
			"node":"D08ABAK053",
			"tag":"AI7:159",
			"type":0
		},
		{
			"gid":"A001554",
			"node":"D08ABAK054",
			"tag":"AI7:162",
			"type":0
		},
		{
			"gid":"A001555",
			"node":"D08ABAK055",
			"tag":"AI7:165",
			"type":0
		},
		{
			"gid":"A001556",
			"node":"D08ABAK056",
			"tag":"AI7:168",
			"type":0
		},
		{
			"gid":"A001557",
			"node":"D08ABAK057",
			"tag":"AI7:171",
			"type":0
		},
		{
			"gid":"A001558",
			"node":"D08ABAK058",
			"tag":"AI7:174",
			"type":0
		},
		{
			"gid":"A001559",
			"node":"D08ABAK059",
			"tag":"AI7:177",
			"type":0
		},
		{
			"gid":"A001560",
			"node":"D08ABAK060",
			"tag":"AI7:180",
			"type":0
		},
		{
			"gid":"A001561",
			"node":"D08ABAK061",
			"tag":"AI7:183",
			"type":0
		},
		{
			"gid":"A001562",
			"node":"D08ABAK062",
			"tag":"AI7:186",
			"type":0
		},
		{
			"gid":"A001563",
			"node":"D08ABAK063",
			"tag":"AI7:189",
			"type":0
		},
		{
			"gid":"A001564",
			"node":"D08ABAK064",
			"tag":"AI7:192",
			"type":0
		},
		{
			"gid":"A001565",
			"node":"D08ABAK065",
			"tag":"AI7:195",
			"type":0
		},
		{
			"gid":"A001566",
			"node":"D08ABAK066",
			"tag":"AI7:198",
			"type":0
		},
		{
			"gid":"A001567",
			"node":"D08ABAK067",
			"tag":"AI7:201",
			"type":0
		},
		{
			"gid":"A001568",
			"node":"D08ABAK068",
			"tag":"AI7:204",
			"type":0
		},
		{
			"gid":"A001569",
			"node":"D08ABAK069",
			"tag":"AI7:207",
			"type":0
		},
		{
			"gid":"A001570",
			"node":"D08ABAK070",
			"tag":"AI7:210",
			"type":0
		},
		{
			"gid":"A001571",
			"node":"D08ABAK071",
			"tag":"AI7:213",
			"type":0
		},
		{
			"gid":"A001572",
			"node":"D08ABAK072",
			"tag":"AI7:216",
			"type":0
		},
		{
			"gid":"A001573",
			"node":"D08ABAK073",
			"tag":"AI7:219",
			"type":0
		},
		{
			"gid":"A001574",
			"node":"D08ABAK074",
			"tag":"AI7:222",
			"type":0
		},
		{
			"gid":"A001575",
			"node":"D08ABAK075",
			"tag":"AI7:225",
			"type":0
		},
		{
			"gid":"A001576",
			"node":"JHK11F001AO",
			"tag":"AI7:228",
			"type":0
		},
		{
			"gid":"A001577",
			"node":"JHK12F001AO",
			"tag":"AI7:231",
			"type":0
		},
		{
			"gid":"A001578",
			"node":"JHK21F001AO",
			"tag":"AI7:234",
			"type":0
		},
		{
			"gid":"A001579",
			"node":"JHK22F001AO",
			"tag":"AI7:237",
			"type":0
		},
		{
			"gid":"A001580",
			"node":"JHK23F001AO",
			"tag":"AI7:240",
			"type":0
		},
		{
			"gid":"A001581",
			"node":"JHK31CT001",
			"tag":"AI7:243",
			"type":0
		},
		{
			"gid":"A001582",
			"node":"JHK31CT002",
			"tag":"AI7:246",
			"type":0
		},
		{
			"gid":"A001583",
			"node":"JHK31CT011",
			"tag":"AI7:249",
			"type":0
		},
		{
			"gid":"A001584",
			"node":"JHK31CT003",
			"tag":"AI7:252",
			"type":0
		},
		{
			"gid":"A001585",
			"node":"JHK31CT004",
			"tag":"AI7:255",
			"type":0
		},
		{
			"gid":"A001586",
			"node":"JHK31CT005",
			"tag":"AI7:258",
			"type":0
		},
		{
			"gid":"A001587",
			"node":"JHK31CT006",
			"tag":"AI7:261",
			"type":0
		},
		{
			"gid":"A001588",
			"node":"JHK31CT007",
			"tag":"AI7:264",
			"type":0
		},
		{
			"gid":"A001589",
			"node":"JHK31CT008",
			"tag":"AI7:267",
			"type":0
		},
		{
			"gid":"A001590",
			"node":"JHK31CT009",
			"tag":"AI7:270",
			"type":0
		},
		{
			"gid":"A001591",
			"node":"JHK31CT010",
			"tag":"AI7:273",
			"type":0
		},
		{
			"gid":"A001592",
			"node":"JHK32CT001",
			"tag":"AI7:276",
			"type":0
		},
		{
			"gid":"A001593",
			"node":"JHK32CT002",
			"tag":"AI7:279",
			"type":0
		},
		{
			"gid":"A001594",
			"node":"JHK32CT011",
			"tag":"AI7:282",
			"type":0
		},
		{
			"gid":"A001595",
			"node":"JHK32CT003",
			"tag":"AI7:285",
			"type":0
		},
		{
			"gid":"A001596",
			"node":"JHK32CT004",
			"tag":"AI7:288",
			"type":0
		},
		{
			"gid":"A001597",
			"node":"JHK32CT005",
			"tag":"AI7:291",
			"type":0
		},
		{
			"gid":"A001598",
			"node":"JHK32CT006",
			"tag":"AI7:294",
			"type":0
		},
		{
			"gid":"A001599",
			"node":"JHK32CT007",
			"tag":"AI7:297",
			"type":0
		}
	],
	"name":"jgs_realtime_032",
	"table":"rdcs_jgs.jgs_realtime"
}