{
	"file":"jgs_realtime_065",
	"items":[
		{
			"gid":"A003200",
			"node":"ID05ABAK111",
			"tag":"AI14:600",
			"type":0
		},
		{
			"gid":"A003201",
			"node":"ID05ABAK112",
			"tag":"AI14:603",
			"type":0
		},
		{
			"gid":"A003202",
			"node":"ID05ABAK113",
			"tag":"AI14:606",
			"type":0
		},
		{
			"gid":"A003203",
			"node":"ID05ABAK114",
			"tag":"AI14:609",
			"type":0
		},
		{
			"gid":"A003204",
			"node":"ID05ABAK115",
			"tag":"AI14:612",
			"type":0
		},
		{
			"gid":"A003205",
			"node":"ID05ABAK116",
			"tag":"AI14:615",
			"type":0
		},
		{
			"gid":"A003206",
			"node":"ID05ABAK117",
			"tag":"AI14:618",
			"type":0
		},
		{
			"gid":"A003207",
			"node":"ID05ABAK118",
			"tag":"AI14:621",
			"type":0
		},
		{
			"gid":"A003208",
			"node":"ID05ABAK119",
			"tag":"AI14:624",
			"type":0
		},
		{
			"gid":"A003209",
			"node":"ID05ABAK120",
			"tag":"AI14:627",
			"type":0
		},
		{
			"gid":"A003210",
			"node":"ID05ABAK121",
			"tag":"AI14:630",
			"type":0
		},
		{
			"gid":"A003211",
			"node":"ID05ABAK122",
			"tag":"AI14:633",
			"type":0
		},
		{
			"gid":"A003212",
			"node":"ID05ABAK123",
			"tag":"AI14:636",
			"type":0
		},
		{
			"gid":"A003213",
			"node":"ID05ABAK124",
			"tag":"AI14:639",
			"type":0
		},
		{
			"gid":"A003214",
			"node":"ID05ABAK125",
			"tag":"AI14:642",
			"type":0
		},
		{
			"gid":"A003215",
			"node":"ID05ABAK126",
			"tag":"AI14:645",
			"type":0
		},
		{
			"gid":"A003216",
			"node":"ID05ABAK127",
			"tag":"AI14:648",
			"type":0
		},
		{
			"gid":"A003217",
			"node":"ID05ABAK128",
			"tag":"AI14:651",
			"type":0
		},
		{
			"gid":"A003218",
			"node":"ID05ABAK129",
			"tag":"AI14:654",
			"type":0
		},
		{
			"gid":"A003219",
			"node":"ID05ABAK130",
			"tag":"AI14:657",
			"type":0
		},
		{
			"gid":"A003220",
			"node":"ID05ABAK131",
			"tag":"AI14:660",
			"type":0
		},
		{
			"gid":"A003221",
			"node":"ID05ABAK132",
			"tag":"AI14:663",
			"type":0
		},
		{
			"gid":"A003222",
			"node":"ID05ABAK133",
			"tag":"AI14:666",
			"type":0
		},
		{
			"gid":"A003223",
			"node":"ID05ABAK134",
			"tag":"AI14:669",
			"type":0
		},
		{
			"gid":"A003224",
			"node":"ID05ABAK135",
			"tag":"AI14:672",
			"type":0
		},
		{
			"gid":"A003225",
			"node":"ID05ABAK136",
			"tag":"AI14:675",
			"type":0
		},
		{
			"gid":"A003226",
			"node":"ID05ABAK137",
			"tag":"AI14:678",
			"type":0
		},
		{
			"gid":"A003227",
			"node":"ID05ABAK138",
			"tag":"AI14:681",
			"type":0
		},
		{
			"gid":"A003228",
			"node":"ID05ABAK139",
			"tag":"AI14:684",
			"type":0
		},
		{
			"gid":"A003229",
			"node":"ID05ABAK140",
			"tag":"AI14:687",
			"type":0
		},
		{
			"gid":"A003230",
			"node":"ID05ABAK141",
			"tag":"AI14:690",
			"type":0
		},
		{
			"gid":"A003231",
			"node":"ID05ABAK142",
			"tag":"AI14:693",
			"type":0
		},
		{
			"gid":"A003232",
			"node":"ID05ABAK143",
			"tag":"AI14:696",
			"type":0
		},
		{
			"gid":"A003233",
			"node":"ID05ABAK144",
			"tag":"AI14:699",
			"type":0
		},
		{
			"gid":"A003234",
			"node":"ID05ABAK145",
			"tag":"AI14:702",
			"type":0
		},
		{
			"gid":"A003235",
			"node":"ID05ABAK146",
			"tag":"AI14:705",
			"type":0
		},
		{
			"gid":"A003236",
			"node":"ID05ABAK147",
			"tag":"AI14:708",
			"type":0
		},
		{
			"gid":"A003237",
			"node":"ID05ABAK148",
			"tag":"AI14:711",
			"type":0
		},
		{
			"gid":"A003238",
			"node":"ID05ABAK149",
			"tag":"AI14:714",
			"type":0
		},
		{
			"gid":"A003239",
			"node":"ID05ABAK150",
			"tag":"AI14:717",
			"type":0
		},
		{
			"gid":"A003240",
			"node":"ID05ABAK201",
			"tag":"AI14:720",
			"type":0
		},
		{
			"gid":"A003241",
			"node":"ID05ABAK202",
			"tag":"AI14:723",
			"type":0
		},
		{
			"gid":"A003242",
			"node":"ID05ABAK203",
			"tag":"AI14:726",
			"type":0
		},
		{
			"gid":"A003243",
			"node":"ID05ABAK204",
			"tag":"AI14:729",
			"type":0
		},
		{
			"gid":"A003244",
			"node":"ID05ABAK205",
			"tag":"AI14:732",
			"type":0
		},
		{
			"gid":"A003245",
			"node":"ID05ABAK206",
			"tag":"AI14:735",
			"type":0
		},
		{
			"gid":"A003246",
			"node":"ID05ABAK207",
			"tag":"AI14:738",
			"type":0
		},
		{
			"gid":"A003247",
			"node":"ID05ABAK208",
			"tag":"AI14:741",
			"type":0
		},
		{
			"gid":"A003248",
			"node":"ID05ABAK209",
			"tag":"AI14:744",
			"type":0
		},
		{
			"gid":"A003249",
			"node":"ID05ABAK210",
			"tag":"AI14:747",
			"type":0
		}
	],
	"name":"jgs_realtime_065",
	"table":"rdcs_jgs.jgs_realtime"
}