{
	"file":"jgs_realtime_147",
	"items":[
		{
			"gid":"D004041",
			"node":"3L10AA222ZO",
			"tag":"DI5:41",
			"type":1
		},
		{
			"gid":"D004042",
			"node":"3L10AA222ZC",
			"tag":"DI5:42",
			"type":1
		},
		{
			"gid":"D004043",
			"node":"3L10AA222PL",
			"tag":"DI5:43",
			"type":1
		},
		{
			"gid":"D004044",
			"node":"3F11AA201ZO",
			"tag":"DI5:44",
			"type":1
		},
		{
			"gid":"D004045",
			"node":"3F11AA201ZC",
			"tag":"DI5:45",
			"type":1
		},
		{
			"gid":"D004046",
			"node":"3F11AA201PL",
			"tag":"DI5:46",
			"type":1
		},
		{
			"gid":"D004047",
			"node":"3F11AA211ZO",
			"tag":"DI5:47",
			"type":1
		},
		{
			"gid":"D004048",
			"node":"3F11AA211ZC",
			"tag":"DI5:48",
			"type":1
		},
		{
			"gid":"D004049",
			"node":"3F11AA211PL",
			"tag":"DI5:49",
			"type":1
		},
		{
			"gid":"D004050",
			"node":"3F11AP001PD",
			"tag":"DI5:50",
			"type":1
		},
		{
			"gid":"D004051",
			"node":"3F11AP001PF",
			"tag":"DI5:51",
			"type":1
		},
		{
			"gid":"D004052",
			"node":"3F11AP001PG",
			"tag":"DI5:52",
			"type":1
		},
		{
			"gid":"D004053",
			"node":"3F11AP001PE",
			"tag":"DI5:53",
			"type":1
		},
		{
			"gid":"D004054",
			"node":"3F11AP001ZF",
			"tag":"DI5:54",
			"type":1
		},
		{
			"gid":"D004055",
			"node":"3F11AP001PT",
			"tag":"DI5:55",
			"type":1
		},
		{
			"gid":"D004056",
			"node":"3Q25AA201ZO",
			"tag":"DI5:56",
			"type":1
		},
		{
			"gid":"D004057",
			"node":"3Q25AA201ZC",
			"tag":"DI5:57",
			"type":1
		},
		{
			"gid":"D004058",
			"node":"3Q25AA201PL",
			"tag":"DI5:58",
			"type":1
		},
		{
			"gid":"D004059",
			"node":"3F12AA201ZO",
			"tag":"DI5:59",
			"type":1
		},
		{
			"gid":"D004060",
			"node":"3F12AA201ZC",
			"tag":"DI5:60",
			"type":1
		},
		{
			"gid":"D004061",
			"node":"3F12AA201PL",
			"tag":"DI5:61",
			"type":1
		},
		{
			"gid":"D004062",
			"node":"3F12AA211ZO",
			"tag":"DI5:62",
			"type":1
		},
		{
			"gid":"D004063",
			"node":"3F12AA211ZC",
			"tag":"DI5:63",
			"type":1
		},
		{
			"gid":"D004064",
			"node":"3F12AA211PL",
			"tag":"DI5:64",
			"type":1
		},
		{
			"gid":"D004065",
			"node":"3F12AP001PD",
			"tag":"DI5:65",
			"type":1
		},
		{
			"gid":"D004066",
			"node":"3F12AP001PF",
			"tag":"DI5:66",
			"type":1
		},
		{
			"gid":"D004067",
			"node":"3F12AP001PG",
			"tag":"DI5:67",
			"type":1
		},
		{
			"gid":"D004068",
			"node":"3F12AP001PE",
			"tag":"DI5:68",
			"type":1
		},
		{
			"gid":"D004069",
			"node":"3F12AP001ZF",
			"tag":"DI5:69",
			"type":1
		},
		{
			"gid":"D004070",
			"node":"3F12AP001PT",
			"tag":"DI5:70",
			"type":1
		},
		{
			"gid":"D004071",
			"node":"3Q25AA202ZO",
			"tag":"DI5:71",
			"type":1
		},
		{
			"gid":"D004072",
			"node":"3Q25AA202ZC",
			"tag":"DI5:72",
			"type":1
		},
		{
			"gid":"D004073",
			"node":"3Q25AA202PL",
			"tag":"DI5:73",
			"type":1
		},
		{
			"gid":"D004074",
			"node":"3F13AA201ZO",
			"tag":"DI5:74",
			"type":1
		},
		{
			"gid":"D004075",
			"node":"3F13AA201ZC",
			"tag":"DI5:75",
			"type":1
		},
		{
			"gid":"D004076",
			"node":"3F13AA201PL",
			"tag":"DI5:76",
			"type":1
		},
		{
			"gid":"D004077",
			"node":"3F13AA211ZO",
			"tag":"DI5:77",
			"type":1
		},
		{
			"gid":"D004078",
			"node":"3F13AA211ZC",
			"tag":"DI5:78",
			"type":1
		},
		{
			"gid":"D004079",
			"node":"3F13AA211PL",
			"tag":"DI5:79",
			"type":1
		},
		{
			"gid":"D004080",
			"node":"3F13AP001PD",
			"tag":"DI5:80",
			"type":1
		},
		{
			"gid":"D004081",
			"node":"3F13AP001PF",
			"tag":"DI5:81",
			"type":1
		},
		{
			"gid":"D004082",
			"node":"3F13AP001PG",
			"tag":"DI5:82",
			"type":1
		},
		{
			"gid":"D004083",
			"node":"3F13AP001PE",
			"tag":"DI5:83",
			"type":1
		},
		{
			"gid":"D004084",
			"node":"3F13AP001ZF",
			"tag":"DI5:84",
			"type":1
		},
		{
			"gid":"D004085",
			"node":"3F13AP001PT",
			"tag":"DI5:85",
			"type":1
		},
		{
			"gid":"D004086",
			"node":"3Q25AA203ZO",
			"tag":"DI5:86",
			"type":1
		},
		{
			"gid":"D004087",
			"node":"3Q25AA203ZC",
			"tag":"DI5:87",
			"type":1
		},
		{
			"gid":"D004088",
			"node":"3Q25AA203PL",
			"tag":"DI5:88",
			"type":1
		},
		{
			"gid":"D004089",
			"node":"3F14AA201ZO",
			"tag":"DI5:89",
			"type":1
		},
		{
			"gid":"D004090",
			"node":"3F14AA201ZC",
			"tag":"DI5:90",
			"type":1
		}
	],
	"name":"jgs_realtime_147",
	"table":"rdcs_jgs.jgs_realtime"
}