{
	"file":"jgs_realtime_076",
	"items":[
		{
			"gid":"D000491",
			"node":"1HD10M002PG",
			"tag":"DI1:491",
			"type":1
		},
		{
			"gid":"D000492",
			"node":"1HD10M002ZD",
			"tag":"DI1:492",
			"type":1
		},
		{
			"gid":"D000493",
			"node":"1HD10M002ZF",
			"tag":"DI1:493",
			"type":1
		},
		{
			"gid":"D000494",
			"node":"1HD10M002ZS",
			"tag":"DI1:494",
			"type":1
		},
		{
			"gid":"D000495",
			"node":"1HL10A221PL",
			"tag":"DI1:495",
			"type":1
		},
		{
			"gid":"D000496",
			"node":"1HL10A221ZC",
			"tag":"DI1:496",
			"type":1
		},
		{
			"gid":"D000497",
			"node":"1HL10A221ZO",
			"tag":"DI1:497",
			"type":1
		},
		{
			"gid":"D000498",
			"node":"1HQ51A201PL",
			"tag":"DI1:498",
			"type":1
		},
		{
			"gid":"D000499",
			"node":"1HQ51A201ZC",
			"tag":"DI1:499",
			"type":1
		},
		{
			"gid":"D000500",
			"node":"1HQ51A201ZO",
			"tag":"DI1:500",
			"type":1
		},
		{
			"gid":"D000501",
			"node":"1HL30A011PL",
			"tag":"DI1:501",
			"type":1
		},
		{
			"gid":"D000502",
			"node":"1HL30A011ZC",
			"tag":"DI1:502",
			"type":1
		},
		{
			"gid":"D000503",
			"node":"1HL30A011ZO",
			"tag":"DI1:503",
			"type":1
		},
		{
			"gid":"D000504",
			"node":"1HF14A201PL",
			"tag":"DI1:504",
			"type":1
		},
		{
			"gid":"D000505",
			"node":"1HF14A201ZC",
			"tag":"DI1:505",
			"type":1
		},
		{
			"gid":"D000506",
			"node":"1HF14A201ZO",
			"tag":"DI1:506",
			"type":1
		},
		{
			"gid":"D000507",
			"node":"1HF14A211PL",
			"tag":"DI1:507",
			"type":1
		},
		{
			"gid":"D000508",
			"node":"1HF14A211ZC",
			"tag":"DI1:508",
			"type":1
		},
		{
			"gid":"D000509",
			"node":"1HF14A211ZO",
			"tag":"DI1:509",
			"type":1
		},
		{
			"gid":"D000510",
			"node":"1HF14P001PE",
			"tag":"DI1:510",
			"type":1
		},
		{
			"gid":"D000511",
			"node":"1HF14P001PG",
			"tag":"DI1:511",
			"type":1
		},
		{
			"gid":"D000512",
			"node":"1HF14P001ZD",
			"tag":"DI1:512",
			"type":1
		},
		{
			"gid":"D000513",
			"node":"1HF14P001ZS",
			"tag":"DI1:513",
			"type":1
		},
		{
			"gid":"D000514",
			"node":"1HQ25A204PL",
			"tag":"DI1:514",
			"type":1
		},
		{
			"gid":"D000515",
			"node":"1HQ25A204ZC",
			"tag":"DI1:515",
			"type":1
		},
		{
			"gid":"D000516",
			"node":"1HQ25A204ZO",
			"tag":"DI1:516",
			"type":1
		},
		{
			"gid":"D000517",
			"node":"1HD10M003PE",
			"tag":"DI1:517",
			"type":1
		},
		{
			"gid":"D000518",
			"node":"1HD10M003PG",
			"tag":"DI1:518",
			"type":1
		},
		{
			"gid":"D000519",
			"node":"1HD10M003ZD",
			"tag":"DI1:519",
			"type":1
		},
		{
			"gid":"D000520",
			"node":"1HD10M003ZF",
			"tag":"DI1:520",
			"type":1
		},
		{
			"gid":"D000521",
			"node":"1HD10M003ZS",
			"tag":"DI1:521",
			"type":1
		},
		{
			"gid":"D000522",
			"node":"1HJ20A211PL",
			"tag":"DI1:522",
			"type":1
		},
		{
			"gid":"D000523",
			"node":"1HJ20A211ZC",
			"tag":"DI1:523",
			"type":1
		},
		{
			"gid":"D000524",
			"node":"1HJ20A211ZO",
			"tag":"DI1:524",
			"type":1
		},
		{
			"gid":"D000525",
			"node":"1HQ27A201PL",
			"tag":"DI1:525",
			"type":1
		},
		{
			"gid":"D000526",
			"node":"1HQ27A201ZC",
			"tag":"DI1:526",
			"type":1
		},
		{
			"gid":"D000527",
			"node":"1HQ27A201ZO",
			"tag":"DI1:527",
			"type":1
		},
		{
			"gid":"D000528",
			"node":"1HT20M001PE",
			"tag":"DI1:528",
			"type":1
		},
		{
			"gid":"D000529",
			"node":"1HT20M001PF",
			"tag":"DI1:529",
			"type":1
		},
		{
			"gid":"D000530",
			"node":"1HT20M001PG",
			"tag":"DI1:530",
			"type":1
		},
		{
			"gid":"D000531",
			"node":"1HT20M001ZD",
			"tag":"DI1:531",
			"type":1
		},
		{
			"gid":"D000532",
			"node":"1HT20M001ZS",
			"tag":"DI1:532",
			"type":1
		},
		{
			"gid":"D000533",
			"node":"1HL12A201PL",
			"tag":"DI1:533",
			"type":1
		},
		{
			"gid":"D000534",
			"node":"1HL12A201ZC",
			"tag":"DI1:534",
			"type":1
		},
		{
			"gid":"D000535",
			"node":"1HL12A201ZO",
			"tag":"DI1:535",
			"type":1
		},
		{
			"gid":"D000536",
			"node":"1HL12A202PL",
			"tag":"DI1:536",
			"type":1
		},
		{
			"gid":"D000537",
			"node":"1HL12A202ZC",
			"tag":"DI1:537",
			"type":1
		},
		{
			"gid":"D000538",
			"node":"1HL12A202ZO",
			"tag":"DI1:538",
			"type":1
		},
		{
			"gid":"D000539",
			"node":"1HL12A211PL",
			"tag":"DI1:539",
			"type":1
		},
		{
			"gid":"D000540",
			"node":"1HL12A211ZC",
			"tag":"DI1:540",
			"type":1
		}
	],
	"name":"jgs_realtime_076",
	"table":"rdcs_jgs.jgs_realtime"
}