{
	"file":"jgs_realtime_002",
	"items":[
		{
			"gid":"A000050",
			"node":"1HA10CT002",
			"tag":"AI1:150",
			"type":0
		},
		{
			"gid":"A000051",
			"node":"1HC10CT303",
			"tag":"AI1:153",
			"type":0
		},
		{
			"gid":"A000052",
			"node":"1HC10CT304",
			"tag":"AI1:156",
			"type":0
		},
		{
			"gid":"A000053",
			"node":"1HC10CT009",
			"tag":"AI1:159",
			"type":0
		},
		{
			"gid":"A000054",
			"node":"1HC10CT010",
			"tag":"AI1:162",
			"type":0
		},
		{
			"gid":"A000055",
			"node":"1HG12CT001",
			"tag":"AI1:165",
			"type":0
		},
		{
			"gid":"A000056",
			"node":"1HG12CT002",
			"tag":"AI1:168",
			"type":0
		},
		{
			"gid":"A000057",
			"node":"1HG12CT003",
			"tag":"AI1:171",
			"type":0
		},
		{
			"gid":"A000058",
			"node":"1HG12CT004",
			"tag":"AI1:174",
			"type":0
		},
		{
			"gid":"A000059",
			"node":"1HC10CT015",
			"tag":"AI1:177",
			"type":0
		},
		{
			"gid":"A000060",
			"node":"1HC12CT001",
			"tag":"AI1:180",
			"type":0
		},
		{
			"gid":"A000061",
			"node":"1HA10CP003",
			"tag":"AI1:183",
			"type":0
		},
		{
			"gid":"A000062",
			"node":"1HA10DP003",
			"tag":"AI1:186",
			"type":0
		},
		{
			"gid":"A000063",
			"node":"1HG13N001CE",
			"tag":"AI1:189",
			"type":0
		},
		{
			"gid":"A000064",
			"node":"1HJ20A101GT",
			"tag":"AI1:192",
			"type":0
		},
		{
			"gid":"A000065",
			"node":"1HE10DP001",
			"tag":"AI1:195",
			"type":0
		},
		{
			"gid":"A000066",
			"node":"1HC10CY002",
			"tag":"AI1:198",
			"type":0
		},
		{
			"gid":"A000067",
			"node":"1HA60CF001",
			"tag":"AI1:201",
			"type":0
		},
		{
			"gid":"A000068",
			"node":"1HA60CP001",
			"tag":"AI1:204",
			"type":0
		},
		{
			"gid":"A000069",
			"node":"1HA60CQ001",
			"tag":"AI1:207",
			"type":0
		},
		{
			"gid":"A000070",
			"node":"1HA60CQ002",
			"tag":"AI1:210",
			"type":0
		},
		{
			"gid":"A000071",
			"node":"1HA60CQ003",
			"tag":"AI1:213",
			"type":0
		},
		{
			"gid":"A000072",
			"node":"1HA60CQ004",
			"tag":"AI1:216",
			"type":0
		},
		{
			"gid":"A000073",
			"node":"1HA60CQ005",
			"tag":"AI1:219",
			"type":0
		},
		{
			"gid":"A000074",
			"node":"1HA60CT001",
			"tag":"AI1:222",
			"type":0
		},
		{
			"gid":"A000075",
			"node":"D1P110B1",
			"tag":"AI1:225",
			"type":0
		},
		{
			"gid":"A000076",
			"node":"D1P111B1",
			"tag":"AI1:228",
			"type":0
		},
		{
			"gid":"A000077",
			"node":"D1P112B1",
			"tag":"AI1:231",
			"type":0
		},
		{
			"gid":"A000078",
			"node":"D1P115B1",
			"tag":"AI1:234",
			"type":0
		},
		{
			"gid":"A000079",
			"node":"D1P116B1",
			"tag":"AI1:237",
			"type":0
		},
		{
			"gid":"A000080",
			"node":"D1P117B1",
			"tag":"AI1:240",
			"type":0
		},
		{
			"gid":"A000081",
			"node":"D1P118B1",
			"tag":"AI1:243",
			"type":0
		},
		{
			"gid":"A000082",
			"node":"D1P120B1",
			"tag":"AI1:246",
			"type":0
		},
		{
			"gid":"A000083",
			"node":"D1P125B1",
			"tag":"AI1:249",
			"type":0
		},
		{
			"gid":"A000084",
			"node":"D1P126B1",
			"tag":"AI1:252",
			"type":0
		},
		{
			"gid":"A000085",
			"node":"D1P130B1",
			"tag":"AI1:255",
			"type":0
		},
		{
			"gid":"A000086",
			"node":"D1P131B1",
			"tag":"AI1:258",
			"type":0
		},
		{
			"gid":"A000087",
			"node":"D1P135B1",
			"tag":"AI1:261",
			"type":0
		},
		{
			"gid":"A000088",
			"node":"D1P136B1",
			"tag":"AI1:264",
			"type":0
		},
		{
			"gid":"A000089",
			"node":"D1P145B1",
			"tag":"AI1:267",
			"type":0
		},
		{
			"gid":"A000090",
			"node":"D1P146B1",
			"tag":"AI1:270",
			"type":0
		},
		{
			"gid":"A000091",
			"node":"D1P147B1",
			"tag":"AI1:273",
			"type":0
		},
		{
			"gid":"A000092",
			"node":"D1P148B1",
			"tag":"AI1:276",
			"type":0
		},
		{
			"gid":"A000093",
			"node":"D1P149B1",
			"tag":"AI1:279",
			"type":0
		},
		{
			"gid":"A000094",
			"node":"D1P150B1",
			"tag":"AI1:282",
			"type":0
		},
		{
			"gid":"A000095",
			"node":"D1P151B1",
			"tag":"AI1:285",
			"type":0
		},
		{
			"gid":"A000096",
			"node":"D1P160B1",
			"tag":"AI1:288",
			"type":0
		},
		{
			"gid":"A000097",
			"node":"D1P161B1",
			"tag":"AI1:291",
			"type":0
		},
		{
			"gid":"A000098",
			"node":"D1P162B1",
			"tag":"AI1:294",
			"type":0
		},
		{
			"gid":"A000099",
			"node":"D1P163B1",
			"tag":"AI1:297",
			"type":0
		}
	],
	"name":"jgs_realtime_002",
	"table":"rdcs_jgs.jgs_realtime"
}