{
	"file":"jgs_realtime_042",
	"items":[
		{
			"gid":"A002050",
			"node":"3F12AP001CE",
			"tag":"AI9:150",
			"type":0
		},
		{
			"gid":"A002051",
			"node":"3F14AP001CE",
			"tag":"AI9:153",
			"type":0
		},
		{
			"gid":"A002052",
			"node":"3L12AP001CE",
			"tag":"AI9:156",
			"type":0
		},
		{
			"gid":"A002053",
			"node":"3J20CD001",
			"tag":"AI9:159",
			"type":0
		},
		{
			"gid":"A002054",
			"node":"3F11CT001",
			"tag":"AI9:162",
			"type":0
		},
		{
			"gid":"A002055",
			"node":"3F11CT002",
			"tag":"AI9:165",
			"type":0
		},
		{
			"gid":"A002056",
			"node":"3F11CT003",
			"tag":"AI9:168",
			"type":0
		},
		{
			"gid":"A002057",
			"node":"3F11CT004",
			"tag":"AI9:171",
			"type":0
		},
		{
			"gid":"A002058",
			"node":"3F11CT005",
			"tag":"AI9:174",
			"type":0
		},
		{
			"gid":"A002059",
			"node":"3F11CT006",
			"tag":"AI9:177",
			"type":0
		},
		{
			"gid":"A002060",
			"node":"3F11CT007",
			"tag":"AI9:180",
			"type":0
		},
		{
			"gid":"A002061",
			"node":"3F11CT008",
			"tag":"AI9:183",
			"type":0
		},
		{
			"gid":"A002062",
			"node":"3F11CT009",
			"tag":"AI9:186",
			"type":0
		},
		{
			"gid":"A002063",
			"node":"3F11CT010",
			"tag":"AI9:189",
			"type":0
		},
		{
			"gid":"A002064",
			"node":"3F14CT001",
			"tag":"AI9:192",
			"type":0
		},
		{
			"gid":"A002065",
			"node":"3F14CT002",
			"tag":"AI9:195",
			"type":0
		},
		{
			"gid":"A002066",
			"node":"3F14CT003",
			"tag":"AI9:198",
			"type":0
		},
		{
			"gid":"A002067",
			"node":"3F14CT004",
			"tag":"AI9:201",
			"type":0
		},
		{
			"gid":"A002068",
			"node":"3F14CT005",
			"tag":"AI9:204",
			"type":0
		},
		{
			"gid":"A002069",
			"node":"3F12CT001",
			"tag":"AI9:207",
			"type":0
		},
		{
			"gid":"A002070",
			"node":"3F12CT002",
			"tag":"AI9:210",
			"type":0
		},
		{
			"gid":"A002071",
			"node":"3F12CT003",
			"tag":"AI9:213",
			"type":0
		},
		{
			"gid":"A002072",
			"node":"3F12CT004",
			"tag":"AI9:216",
			"type":0
		},
		{
			"gid":"A002073",
			"node":"3F12CT005",
			"tag":"AI9:219",
			"type":0
		},
		{
			"gid":"A002074",
			"node":"3F12CT006",
			"tag":"AI9:222",
			"type":0
		},
		{
			"gid":"A002075",
			"node":"3F12CT007",
			"tag":"AI9:225",
			"type":0
		},
		{
			"gid":"A002076",
			"node":"3F12CT008",
			"tag":"AI9:228",
			"type":0
		},
		{
			"gid":"A002077",
			"node":"3F12CT009",
			"tag":"AI9:231",
			"type":0
		},
		{
			"gid":"A002078",
			"node":"3F12CT010",
			"tag":"AI9:234",
			"type":0
		},
		{
			"gid":"A002079",
			"node":"3F14CT006",
			"tag":"AI9:237",
			"type":0
		},
		{
			"gid":"A002080",
			"node":"3F14CT007",
			"tag":"AI9:240",
			"type":0
		},
		{
			"gid":"A002081",
			"node":"3F14CT008",
			"tag":"AI9:243",
			"type":0
		},
		{
			"gid":"A002082",
			"node":"3F14CT009",
			"tag":"AI9:246",
			"type":0
		},
		{
			"gid":"A002083",
			"node":"3F14CT010",
			"tag":"AI9:249",
			"type":0
		},
		{
			"gid":"A002084",
			"node":"3F13CT001",
			"tag":"AI9:252",
			"type":0
		},
		{
			"gid":"A002085",
			"node":"3F13CT002",
			"tag":"AI9:255",
			"type":0
		},
		{
			"gid":"A002086",
			"node":"3F13CT003",
			"tag":"AI9:258",
			"type":0
		},
		{
			"gid":"A002087",
			"node":"3F13CT004",
			"tag":"AI9:261",
			"type":0
		},
		{
			"gid":"A002088",
			"node":"3F13CT005",
			"tag":"AI9:264",
			"type":0
		},
		{
			"gid":"A002089",
			"node":"3F13CT006",
			"tag":"AI9:267",
			"type":0
		},
		{
			"gid":"A002090",
			"node":"3F13CT007",
			"tag":"AI9:270",
			"type":0
		},
		{
			"gid":"A002091",
			"node":"3F13CT008",
			"tag":"AI9:273",
			"type":0
		},
		{
			"gid":"A002092",
			"node":"3F13CT009",
			"tag":"AI9:276",
			"type":0
		},
		{
			"gid":"A002093",
			"node":"3F13CT010",
			"tag":"AI9:279",
			"type":0
		},
		{
			"gid":"A002094",
			"node":"4A10CP001",
			"tag":"AI9:282",
			"type":0
		},
		{
			"gid":"A002095",
			"node":"4A10DP001",
			"tag":"AI9:285",
			"type":0
		},
		{
			"gid":"A002096",
			"node":"4G11AN001CE",
			"tag":"AI9:288",
			"type":0
		},
		{
			"gid":"A002097",
			"node":"4G10CP001",
			"tag":"AI9:291",
			"type":0
		},
		{
			"gid":"A002098",
			"node":"4A10CU901",
			"tag":"AI9:294",
			"type":0
		},
		{
			"gid":"A002099",
			"node":"4A10CU902",
			"tag":"AI9:297",
			"type":0
		}
	],
	"name":"jgs_realtime_042",
	"table":"rdcs_jgs.jgs_realtime"
}