{
	"file":"jgs_realtime_170",
	"items":[
		{
			"gid":"D005191",
			"node":"ID5P82SG",
			"tag":"DI6:191",
			"type":1
		},
		{
			"gid":"D005192",
			"node":"ID5P86BL",
			"tag":"DI6:192",
			"type":1
		},
		{
			"gid":"D005193",
			"node":"ID5P88DS",
			"tag":"DI6:193",
			"type":1
		},
		{
			"gid":"D005194",
			"node":"ID5P87JX",
			"tag":"DI6:194",
			"type":1
		},
		{
			"gid":"D005195",
			"node":"ID5P87SG",
			"tag":"DI6:195",
			"type":1
		},
		{
			"gid":"D005196",
			"node":"ID5P91BL",
			"tag":"DI6:196",
			"type":1
		},
		{
			"gid":"D005197",
			"node":"ID5P93DS",
			"tag":"DI6:197",
			"type":1
		},
		{
			"gid":"D005198",
			"node":"ID5P92JX",
			"tag":"DI6:198",
			"type":1
		},
		{
			"gid":"D005199",
			"node":"ID5P92SG",
			"tag":"DI6:199",
			"type":1
		},
		{
			"gid":"D005200",
			"node":"ID5P96BL",
			"tag":"DI6:200",
			"type":1
		},
		{
			"gid":"D005201",
			"node":"ID5P98DS",
			"tag":"DI6:201",
			"type":1
		},
		{
			"gid":"D005202",
			"node":"ID5P97JX",
			"tag":"DI6:202",
			"type":1
		},
		{
			"gid":"D005203",
			"node":"ID5P97SG",
			"tag":"DI6:203",
			"type":1
		},
		{
			"gid":"D005204",
			"node":"ID5P100BL",
			"tag":"DI6:204",
			"type":1
		},
		{
			"gid":"D005205",
			"node":"ID5P102DS",
			"tag":"DI6:205",
			"type":1
		},
		{
			"gid":"D005206",
			"node":"ID5P101JX",
			"tag":"DI6:206",
			"type":1
		},
		{
			"gid":"D005207",
			"node":"ID5P101SG",
			"tag":"DI6:207",
			"type":1
		},
		{
			"gid":"D005208",
			"node":"ID5R1NAF",
			"tag":"DI6:208",
			"type":1
		},
		{
			"gid":"D005209",
			"node":"ID5R1NBF",
			"tag":"DI6:209",
			"type":1
		},
		{
			"gid":"D005210",
			"node":"ID5R1FLT",
			"tag":"DI6:210",
			"type":1
		},
		{
			"gid":"D005211",
			"node":"ID5R2NAF",
			"tag":"DI6:211",
			"type":1
		},
		{
			"gid":"D005212",
			"node":"ID5R2NBF",
			"tag":"DI6:212",
			"type":1
		},
		{
			"gid":"D005213",
			"node":"ID5R2FLT",
			"tag":"DI6:213",
			"type":1
		},
		{
			"gid":"D005214",
			"node":"ID5AMST",
			"tag":"DI6:214",
			"type":1
		},
		{
			"gid":"D005215",
			"node":"ID5NAF",
			"tag":"DI6:215",
			"type":1
		},
		{
			"gid":"D005216",
			"node":"ID5NBF",
			"tag":"DI6:216",
			"type":1
		},
		{
			"gid":"D005217",
			"node":"ID5IOAF",
			"tag":"DI6:217",
			"type":1
		},
		{
			"gid":"D005218",
			"node":"ID5IOBF",
			"tag":"DI6:218",
			"type":1
		},
		{
			"gid":"D005219",
			"node":"ID5BMST",
			"tag":"DI6:219",
			"type":1
		},
		{
			"gid":"D005220",
			"node":"ID5CARDF",
			"tag":"DI6:220",
			"type":1
		},
		{
			"gid":"D005221",
			"node":"ID1R1NAF",
			"tag":"DI6:221",
			"type":1
		},
		{
			"gid":"D005222",
			"node":"ID1R1NBF",
			"tag":"DI6:222",
			"type":1
		},
		{
			"gid":"D005223",
			"node":"ID1R1FLT",
			"tag":"DI6:223",
			"type":1
		},
		{
			"gid":"D005224",
			"node":"ID1R2NAF",
			"tag":"DI6:224",
			"type":1
		},
		{
			"gid":"D005225",
			"node":"ID1R2NBF",
			"tag":"DI6:225",
			"type":1
		},
		{
			"gid":"D005226",
			"node":"ID1R2FLT",
			"tag":"DI6:226",
			"type":1
		},
		{
			"gid":"D005227",
			"node":"ID1AMST",
			"tag":"DI6:227",
			"type":1
		},
		{
			"gid":"D005228",
			"node":"ID1NAF",
			"tag":"DI6:228",
			"type":1
		},
		{
			"gid":"D005229",
			"node":"ID1NBF",
			"tag":"DI6:229",
			"type":1
		},
		{
			"gid":"D005230",
			"node":"ID1IOAF",
			"tag":"DI6:230",
			"type":1
		},
		{
			"gid":"D005231",
			"node":"ID1IOBF",
			"tag":"DI6:231",
			"type":1
		},
		{
			"gid":"D005232",
			"node":"ID1BMST",
			"tag":"DI6:232",
			"type":1
		},
		{
			"gid":"D005233",
			"node":"ID1CARDF",
			"tag":"DI6:233",
			"type":1
		},
		{
			"gid":"D005234",
			"node":"ID2R1NAF",
			"tag":"DI6:234",
			"type":1
		},
		{
			"gid":"D005235",
			"node":"ID2R1NBF",
			"tag":"DI6:235",
			"type":1
		},
		{
			"gid":"D005236",
			"node":"ID2R1FLT",
			"tag":"DI6:236",
			"type":1
		},
		{
			"gid":"D005237",
			"node":"ID2R2NAF",
			"tag":"DI6:237",
			"type":1
		},
		{
			"gid":"D005238",
			"node":"ID2R2NBF",
			"tag":"DI6:238",
			"type":1
		},
		{
			"gid":"D005239",
			"node":"ID2R2FLT",
			"tag":"DI6:239",
			"type":1
		},
		{
			"gid":"D005240",
			"node":"ID2R3NAF",
			"tag":"DI6:240",
			"type":1
		}
	],
	"name":"jgs_realtime_170",
	"table":"rdcs_jgs.jgs_realtime"
}