{
	"file":"jgs_realtime_149",
	"items":[
		{
			"gid":"D004141",
			"node":"3F13AA211VO",
			"tag":"DI5:141",
			"type":1
		},
		{
			"gid":"D004142",
			"node":"3F13AA211VC",
			"tag":"DI5:142",
			"type":1
		},
		{
			"gid":"D004143",
			"node":"3F13AP001MS",
			"tag":"DI5:143",
			"type":1
		},
		{
			"gid":"D004144",
			"node":"3F13AP001MD",
			"tag":"DI5:144",
			"type":1
		},
		{
			"gid":"D004145",
			"node":"3F14AA201VO",
			"tag":"DI5:145",
			"type":1
		},
		{
			"gid":"D004146",
			"node":"3F14AA201VC",
			"tag":"DI5:146",
			"type":1
		},
		{
			"gid":"D004147",
			"node":"3F14AA211VO",
			"tag":"DI5:147",
			"type":1
		},
		{
			"gid":"D004148",
			"node":"3F14AA211VC",
			"tag":"DI5:148",
			"type":1
		},
		{
			"gid":"D004149",
			"node":"3F14AP001MS",
			"tag":"DI5:149",
			"type":1
		},
		{
			"gid":"D004150",
			"node":"3F14AP001MD",
			"tag":"DI5:150",
			"type":1
		},
		{
			"gid":"D004151",
			"node":"3L11AA201VO",
			"tag":"DI5:151",
			"type":1
		},
		{
			"gid":"D004152",
			"node":"3L11AA201VC",
			"tag":"DI5:152",
			"type":1
		},
		{
			"gid":"D004153",
			"node":"3L11AA202VO",
			"tag":"DI5:153",
			"type":1
		},
		{
			"gid":"D004154",
			"node":"3L11AA202VC",
			"tag":"DI5:154",
			"type":1
		},
		{
			"gid":"D004155",
			"node":"3L11AA211VO",
			"tag":"DI5:155",
			"type":1
		},
		{
			"gid":"D004156",
			"node":"3L11AA211VC",
			"tag":"DI5:156",
			"type":1
		},
		{
			"gid":"D004157",
			"node":"3L11AP001MS",
			"tag":"DI5:157",
			"type":1
		},
		{
			"gid":"D004158",
			"node":"3L11AP001MD",
			"tag":"DI5:158",
			"type":1
		},
		{
			"gid":"D004159",
			"node":"3Q26AA201VO",
			"tag":"DI5:159",
			"type":1
		},
		{
			"gid":"D004160",
			"node":"3Q26AA201VC",
			"tag":"DI5:160",
			"type":1
		},
		{
			"gid":"D004161",
			"node":"3Q25AA201VO",
			"tag":"DI5:161",
			"type":1
		},
		{
			"gid":"D004162",
			"node":"3Q25AA201VC",
			"tag":"DI5:162",
			"type":1
		},
		{
			"gid":"D004163",
			"node":"3Q25AA202VO",
			"tag":"DI5:163",
			"type":1
		},
		{
			"gid":"D004164",
			"node":"3Q25AA202VC",
			"tag":"DI5:164",
			"type":1
		},
		{
			"gid":"D004165",
			"node":"3L12AA201VO",
			"tag":"DI5:165",
			"type":1
		},
		{
			"gid":"D004166",
			"node":"3L12AA201VC",
			"tag":"DI5:166",
			"type":1
		},
		{
			"gid":"D004167",
			"node":"3L12AA202VO",
			"tag":"DI5:167",
			"type":1
		},
		{
			"gid":"D004168",
			"node":"3L12AA202VC",
			"tag":"DI5:168",
			"type":1
		},
		{
			"gid":"D004169",
			"node":"3L12AA211VO",
			"tag":"DI5:169",
			"type":1
		},
		{
			"gid":"D004170",
			"node":"3L12AA211VC",
			"tag":"DI5:170",
			"type":1
		},
		{
			"gid":"D004171",
			"node":"3L12AP001MS",
			"tag":"DI5:171",
			"type":1
		},
		{
			"gid":"D004172",
			"node":"3L12AP001MD",
			"tag":"DI5:172",
			"type":1
		},
		{
			"gid":"D004173",
			"node":"3Q26AA202VO",
			"tag":"DI5:173",
			"type":1
		},
		{
			"gid":"D004174",
			"node":"3Q26AA202VC",
			"tag":"DI5:174",
			"type":1
		},
		{
			"gid":"D004175",
			"node":"3Q25AA203VO",
			"tag":"DI5:175",
			"type":1
		},
		{
			"gid":"D004176",
			"node":"3Q25AA203VC",
			"tag":"DI5:176",
			"type":1
		},
		{
			"gid":"D004177",
			"node":"3Q25AA204VO",
			"tag":"DI5:177",
			"type":1
		},
		{
			"gid":"D004178",
			"node":"3Q25AA204VC",
			"tag":"DI5:178",
			"type":1
		},
		{
			"gid":"D004179",
			"node":"3L10AA201VO",
			"tag":"DI5:179",
			"type":1
		},
		{
			"gid":"D004180",
			"node":"3L10AA201VC",
			"tag":"DI5:180",
			"type":1
		},
		{
			"gid":"D004181",
			"node":"3L10AA221VO",
			"tag":"DI5:181",
			"type":1
		},
		{
			"gid":"D004182",
			"node":"3L10AA221VC",
			"tag":"DI5:182",
			"type":1
		},
		{
			"gid":"D004183",
			"node":"3L10AA222VO",
			"tag":"DI5:183",
			"type":1
		},
		{
			"gid":"D004184",
			"node":"3L10AA222VC",
			"tag":"DI5:184",
			"type":1
		},
		{
			"gid":"D004185",
			"node":"3D10AA231OC",
			"tag":"DI5:185",
			"type":1
		},
		{
			"gid":"D004186",
			"node":"3D10AA232OC",
			"tag":"DI5:186",
			"type":1
		},
		{
			"gid":"D004187",
			"node":"3L10AA231VO",
			"tag":"DI5:187",
			"type":1
		},
		{
			"gid":"D004188",
			"node":"3L10AA231VC",
			"tag":"DI5:188",
			"type":1
		},
		{
			"gid":"D004189",
			"node":"3Q51AA201VO",
			"tag":"DI5:189",
			"type":1
		},
		{
			"gid":"D004190",
			"node":"3Q51AA201VC",
			"tag":"DI5:190",
			"type":1
		}
	],
	"name":"jgs_realtime_149",
	"table":"rdcs_jgs.jgs_realtime"
}