{
	"file":"jgs_realtime_050",
	"items":[
		{
			"gid":"A002450",
			"node":"ID4P121B1",
			"tag":"AI10:600",
			"type":0
		},
		{
			"gid":"A002451",
			"node":"ID4P122B1",
			"tag":"AI10:603",
			"type":0
		},
		{
			"gid":"A002452",
			"node":"ID4P123B1",
			"tag":"AI10:606",
			"type":0
		},
		{
			"gid":"A002453",
			"node":"ID4P124B1",
			"tag":"AI10:609",
			"type":0
		},
		{
			"gid":"A002454",
			"node":"ID4P125B1",
			"tag":"AI10:612",
			"type":0
		},
		{
			"gid":"A002455",
			"node":"ID4P141B1",
			"tag":"AI10:615",
			"type":0
		},
		{
			"gid":"A002456",
			"node":"ID4P142B1",
			"tag":"AI10:618",
			"type":0
		},
		{
			"gid":"A002457",
			"node":"ID4P143B1",
			"tag":"AI10:621",
			"type":0
		},
		{
			"gid":"A002458",
			"node":"ID4P144B1",
			"tag":"AI10:624",
			"type":0
		},
		{
			"gid":"A002459",
			"node":"ID4P145B1",
			"tag":"AI10:627",
			"type":0
		},
		{
			"gid":"A002460",
			"node":"ID4P146B1",
			"tag":"AI10:630",
			"type":0
		},
		{
			"gid":"A002461",
			"node":"ID4P147B1",
			"tag":"AI10:633",
			"type":0
		},
		{
			"gid":"A002462",
			"node":"ID4P161B1",
			"tag":"AI10:636",
			"type":0
		},
		{
			"gid":"A002463",
			"node":"ID4P162B1",
			"tag":"AI10:639",
			"type":0
		},
		{
			"gid":"A002464",
			"node":"ID4P163B1",
			"tag":"AI10:642",
			"type":0
		},
		{
			"gid":"A002465",
			"node":"ID4P164B1",
			"tag":"AI10:645",
			"type":0
		},
		{
			"gid":"A002466",
			"node":"ID4P165B1",
			"tag":"AI10:648",
			"type":0
		},
		{
			"gid":"A002467",
			"node":"ID4P166B1",
			"tag":"AI10:651",
			"type":0
		},
		{
			"gid":"A002468",
			"node":"ID4P167B1",
			"tag":"AI10:654",
			"type":0
		},
		{
			"gid":"A002469",
			"node":"ID4P181B1",
			"tag":"AI10:657",
			"type":0
		},
		{
			"gid":"A002470",
			"node":"ID4P182B1",
			"tag":"AI10:660",
			"type":0
		},
		{
			"gid":"A002471",
			"node":"ID4P183B1",
			"tag":"AI10:663",
			"type":0
		},
		{
			"gid":"A002472",
			"node":"ID4P184B1",
			"tag":"AI10:666",
			"type":0
		},
		{
			"gid":"A002473",
			"node":"ID4P185B1",
			"tag":"AI10:669",
			"type":0
		},
		{
			"gid":"A002474",
			"node":"ID4P186B1",
			"tag":"AI10:672",
			"type":0
		},
		{
			"gid":"A002475",
			"node":"ID4P187B1",
			"tag":"AI10:675",
			"type":0
		},
		{
			"gid":"A002476",
			"node":"ID4P201B1",
			"tag":"AI10:678",
			"type":0
		},
		{
			"gid":"A002477",
			"node":"ID4P202B1",
			"tag":"AI10:681",
			"type":0
		},
		{
			"gid":"A002478",
			"node":"ID4P203B1",
			"tag":"AI10:684",
			"type":0
		},
		{
			"gid":"A002479",
			"node":"ID4P204B1",
			"tag":"AI10:687",
			"type":0
		},
		{
			"gid":"A002480",
			"node":"ID4P211B1",
			"tag":"AI10:690",
			"type":0
		},
		{
			"gid":"A002481",
			"node":"ID4P212B1",
			"tag":"AI10:693",
			"type":0
		},
		{
			"gid":"A002482",
			"node":"ID4P213B1",
			"tag":"AI10:696",
			"type":0
		},
		{
			"gid":"A002483",
			"node":"ID4P214B1",
			"tag":"AI10:699",
			"type":0
		},
		{
			"gid":"A002484",
			"node":"ID4P221B1",
			"tag":"AI10:702",
			"type":0
		},
		{
			"gid":"A002485",
			"node":"ID4P222B1",
			"tag":"AI10:705",
			"type":0
		},
		{
			"gid":"A002486",
			"node":"ID5P52VC",
			"tag":"AI10:708",
			"type":0
		},
		{
			"gid":"A002487",
			"node":"ID5P57VC",
			"tag":"AI10:711",
			"type":0
		},
		{
			"gid":"A002488",
			"node":"ID5P62VC",
			"tag":"AI10:714",
			"type":0
		},
		{
			"gid":"A002489",
			"node":"ID5P67VC",
			"tag":"AI10:717",
			"type":0
		},
		{
			"gid":"A002490",
			"node":"ID5P72VC",
			"tag":"AI10:720",
			"type":0
		},
		{
			"gid":"A002491",
			"node":"ID5P77VC",
			"tag":"AI10:723",
			"type":0
		},
		{
			"gid":"A002492",
			"node":"ID5P82VC",
			"tag":"AI10:726",
			"type":0
		},
		{
			"gid":"A002493",
			"node":"ID5P87VC",
			"tag":"AI10:729",
			"type":0
		},
		{
			"gid":"A002494",
			"node":"ID5P92VC",
			"tag":"AI10:732",
			"type":0
		},
		{
			"gid":"A002495",
			"node":"ID5P97VC",
			"tag":"AI10:735",
			"type":0
		},
		{
			"gid":"A002496",
			"node":"ID5P101VC",
			"tag":"AI10:738",
			"type":0
		},
		{
			"gid":"A002497",
			"node":"ID5R1ALMP",
			"tag":"AI10:741",
			"type":0
		},
		{
			"gid":"A002498",
			"node":"ID5R2ALMP",
			"tag":"AI10:744",
			"type":0
		},
		{
			"gid":"A002499",
			"node":"ID1R1ALMP",
			"tag":"AI10:747",
			"type":0
		}
	],
	"name":"jgs_realtime_050",
	"table":"rdcs_jgs.jgs_realtime"
}