{
	"file":"jgs_realtime_115",
	"items":[
		{
			"gid":"D002441",
			"node":"D7P103B2",
			"tag":"DI3:441",
			"type":1
		},
		{
			"gid":"D002442",
			"node":"D7P103B3",
			"tag":"DI3:442",
			"type":1
		},
		{
			"gid":"D002443",
			"node":"D7P103B4",
			"tag":"DI3:443",
			"type":1
		},
		{
			"gid":"D002444",
			"node":"D7P103B5",
			"tag":"DI3:444",
			"type":1
		},
		{
			"gid":"D002445",
			"node":"D07DBAK032",
			"tag":"DI3:445",
			"type":1
		},
		{
			"gid":"D002446",
			"node":"D07DBAK033",
			"tag":"DI3:446",
			"type":1
		},
		{
			"gid":"D002447",
			"node":"D07DBAK034",
			"tag":"DI3:447",
			"type":1
		},
		{
			"gid":"D002448",
			"node":"D07DBAK035",
			"tag":"DI3:448",
			"type":1
		},
		{
			"gid":"D002449",
			"node":"D07DBAK036",
			"tag":"DI3:449",
			"type":1
		},
		{
			"gid":"D002450",
			"node":"D07DBAK037",
			"tag":"DI3:450",
			"type":1
		},
		{
			"gid":"D002451",
			"node":"D07DBAK038",
			"tag":"DI3:451",
			"type":1
		},
		{
			"gid":"D002452",
			"node":"D07DBAK039",
			"tag":"DI3:452",
			"type":1
		},
		{
			"gid":"D002453",
			"node":"D07DBAK040",
			"tag":"DI3:453",
			"type":1
		},
		{
			"gid":"D002454",
			"node":"D07DBAK041",
			"tag":"DI3:454",
			"type":1
		},
		{
			"gid":"D002455",
			"node":"D07DBAK042",
			"tag":"DI3:455",
			"type":1
		},
		{
			"gid":"D002456",
			"node":"D07DBAK043",
			"tag":"DI3:456",
			"type":1
		},
		{
			"gid":"D002457",
			"node":"D07DBAK044",
			"tag":"DI3:457",
			"type":1
		},
		{
			"gid":"D002458",
			"node":"D07DBAK045",
			"tag":"DI3:458",
			"type":1
		},
		{
			"gid":"D002459",
			"node":"D07DBAK046",
			"tag":"DI3:459",
			"type":1
		},
		{
			"gid":"D002460",
			"node":"D07DBAK047",
			"tag":"DI3:460",
			"type":1
		},
		{
			"gid":"D002461",
			"node":"D07DBAK048",
			"tag":"DI3:461",
			"type":1
		},
		{
			"gid":"D002462",
			"node":"D07DBAK049",
			"tag":"DI3:462",
			"type":1
		},
		{
			"gid":"D002463",
			"node":"D07DBAK050",
			"tag":"DI3:463",
			"type":1
		},
		{
			"gid":"D002464",
			"node":"D07DBAK051",
			"tag":"DI3:464",
			"type":1
		},
		{
			"gid":"D002465",
			"node":"D07DBAK052",
			"tag":"DI3:465",
			"type":1
		},
		{
			"gid":"D002466",
			"node":"D07DBAK053",
			"tag":"DI3:466",
			"type":1
		},
		{
			"gid":"D002467",
			"node":"D07DBAK054",
			"tag":"DI3:467",
			"type":1
		},
		{
			"gid":"D002468",
			"node":"D07DBAK055",
			"tag":"DI3:468",
			"type":1
		},
		{
			"gid":"D002469",
			"node":"D07DBAK056",
			"tag":"DI3:469",
			"type":1
		},
		{
			"gid":"D002470",
			"node":"D07DBAK057",
			"tag":"DI3:470",
			"type":1
		},
		{
			"gid":"D002471",
			"node":"D07DBAK058",
			"tag":"DI3:471",
			"type":1
		},
		{
			"gid":"D002472",
			"node":"D07DBAK059",
			"tag":"DI3:472",
			"type":1
		},
		{
			"gid":"D002473",
			"node":"D07DBAK060",
			"tag":"DI3:473",
			"type":1
		},
		{
			"gid":"D002474",
			"node":"D07DBAK061",
			"tag":"DI3:474",
			"type":1
		},
		{
			"gid":"D002475",
			"node":"D07DBAK062",
			"tag":"DI3:475",
			"type":1
		},
		{
			"gid":"D002476",
			"node":"D07DBAK063",
			"tag":"DI3:476",
			"type":1
		},
		{
			"gid":"D002477",
			"node":"D07DBAK064",
			"tag":"DI3:477",
			"type":1
		},
		{
			"gid":"D002478",
			"node":"D07DBAK065",
			"tag":"DI3:478",
			"type":1
		},
		{
			"gid":"D002479",
			"node":"D07DBAK066",
			"tag":"DI3:479",
			"type":1
		},
		{
			"gid":"D002480",
			"node":"D07DBAK067",
			"tag":"DI3:480",
			"type":1
		},
		{
			"gid":"D002481",
			"node":"D07DBAK068",
			"tag":"DI3:481",
			"type":1
		},
		{
			"gid":"D002482",
			"node":"D07DBAK069",
			"tag":"DI3:482",
			"type":1
		},
		{
			"gid":"D002483",
			"node":"D07DBAK070",
			"tag":"DI3:483",
			"type":1
		},
		{
			"gid":"D002484",
			"node":"D07DBAK071",
			"tag":"DI3:484",
			"type":1
		},
		{
			"gid":"D002485",
			"node":"D07DBAK072",
			"tag":"DI3:485",
			"type":1
		},
		{
			"gid":"D002486",
			"node":"D07DBAK073",
			"tag":"DI3:486",
			"type":1
		},
		{
			"gid":"D002487",
			"node":"D07DBAK074",
			"tag":"DI3:487",
			"type":1
		},
		{
			"gid":"D002488",
			"node":"D07DBAK075",
			"tag":"DI3:488",
			"type":1
		},
		{
			"gid":"D002489",
			"node":"JHM11A201ZO",
			"tag":"DI3:489",
			"type":1
		},
		{
			"gid":"D002490",
			"node":"JHM11A201ZC",
			"tag":"DI3:490",
			"type":1
		}
	],
	"name":"jgs_realtime_115",
	"table":"rdcs_jgs.jgs_realtime"
}