{
	"file":"jgs_realtime_025",
	"items":[
		{
			"gid":"A001200",
			"node":"D6P173B3P2",
			"tag":"AI5:600",
			"type":0
		},
		{
			"gid":"A001201",
			"node":"D6P177B1P1",
			"tag":"AI5:603",
			"type":0
		},
		{
			"gid":"A001202",
			"node":"D6P177B1P2",
			"tag":"AI5:606",
			"type":0
		},
		{
			"gid":"A001203",
			"node":"D6P177B1P3",
			"tag":"AI5:609",
			"type":0
		},
		{
			"gid":"A001204",
			"node":"D6P178B1P1",
			"tag":"AI5:612",
			"type":0
		},
		{
			"gid":"A001205",
			"node":"D6P178B1P2",
			"tag":"AI5:615",
			"type":0
		},
		{
			"gid":"A001206",
			"node":"D6P178B1P3",
			"tag":"AI5:618",
			"type":0
		},
		{
			"gid":"A001207",
			"node":"D6P179B1P1",
			"tag":"AI5:621",
			"type":0
		},
		{
			"gid":"A001208",
			"node":"D6P179B3P1",
			"tag":"AI5:624",
			"type":0
		},
		{
			"gid":"A001209",
			"node":"D6P179B3P2",
			"tag":"AI5:627",
			"type":0
		},
		{
			"gid":"A001210",
			"node":"D6P182B1P1",
			"tag":"AI5:630",
			"type":0
		},
		{
			"gid":"A001211",
			"node":"D6P182B1P2",
			"tag":"AI5:633",
			"type":0
		},
		{
			"gid":"A001212",
			"node":"D6P182B1P3",
			"tag":"AI5:636",
			"type":0
		},
		{
			"gid":"A001213",
			"node":"D6P183B1P1",
			"tag":"AI5:639",
			"type":0
		},
		{
			"gid":"A001214",
			"node":"D6P183B1P2",
			"tag":"AI5:642",
			"type":0
		},
		{
			"gid":"A001215",
			"node":"D6P183B1P3",
			"tag":"AI5:645",
			"type":0
		},
		{
			"gid":"A001216",
			"node":"D06ABAK052",
			"tag":"AI5:648",
			"type":0
		},
		{
			"gid":"A001217",
			"node":"D06ABAK053",
			"tag":"AI5:651",
			"type":0
		},
		{
			"gid":"A001218",
			"node":"D06ABAK054",
			"tag":"AI5:654",
			"type":0
		},
		{
			"gid":"A001219",
			"node":"D06ABAK055",
			"tag":"AI5:657",
			"type":0
		},
		{
			"gid":"A001220",
			"node":"D06ABAK056",
			"tag":"AI5:660",
			"type":0
		},
		{
			"gid":"A001221",
			"node":"D06ABAK057",
			"tag":"AI5:663",
			"type":0
		},
		{
			"gid":"A001222",
			"node":"D06ABAK058",
			"tag":"AI5:666",
			"type":0
		},
		{
			"gid":"A001223",
			"node":"D06ABAK059",
			"tag":"AI5:669",
			"type":0
		},
		{
			"gid":"A001224",
			"node":"D6P193B1P1",
			"tag":"AI5:672",
			"type":0
		},
		{
			"gid":"A001225",
			"node":"D6P193B3P1",
			"tag":"AI5:675",
			"type":0
		},
		{
			"gid":"A001226",
			"node":"D6P193B3P2",
			"tag":"AI5:678",
			"type":0
		},
		{
			"gid":"A001227",
			"node":"D6P194B1P1",
			"tag":"AI5:681",
			"type":0
		},
		{
			"gid":"A001228",
			"node":"D6P194B1P2",
			"tag":"AI5:684",
			"type":0
		},
		{
			"gid":"A001229",
			"node":"D6P194B1P3",
			"tag":"AI5:687",
			"type":0
		},
		{
			"gid":"A001230",
			"node":"D6P197B1P1",
			"tag":"AI5:690",
			"type":0
		},
		{
			"gid":"A001231",
			"node":"D6P197B1P2",
			"tag":"AI5:693",
			"type":0
		},
		{
			"gid":"A001232",
			"node":"D6P197B1P3",
			"tag":"AI5:696",
			"type":0
		},
		{
			"gid":"A001233",
			"node":"D6P198B1P1",
			"tag":"AI5:699",
			"type":0
		},
		{
			"gid":"A001234",
			"node":"D6P198B3P1",
			"tag":"AI5:702",
			"type":0
		},
		{
			"gid":"A001235",
			"node":"D6P198B3P2",
			"tag":"AI5:705",
			"type":0
		},
		{
			"gid":"A001236",
			"node":"D6P199B1P1",
			"tag":"AI5:708",
			"type":0
		},
		{
			"gid":"A001237",
			"node":"D6P199B1P2",
			"tag":"AI5:711",
			"type":0
		},
		{
			"gid":"A001238",
			"node":"D6P199B1P3",
			"tag":"AI5:714",
			"type":0
		},
		{
			"gid":"A001239",
			"node":"D06ABAK075",
			"tag":"AI5:717",
			"type":0
		},
		{
			"gid":"A001240",
			"node":"JHM31CT001",
			"tag":"AI5:720",
			"type":0
		},
		{
			"gid":"A001241",
			"node":"JHM31CT002",
			"tag":"AI5:723",
			"type":0
		},
		{
			"gid":"A001242",
			"node":"JHM31CT003",
			"tag":"AI5:726",
			"type":0
		},
		{
			"gid":"A001243",
			"node":"JHM31CT004",
			"tag":"AI5:729",
			"type":0
		},
		{
			"gid":"A001244",
			"node":"JHM31CT005",
			"tag":"AI5:732",
			"type":0
		},
		{
			"gid":"A001245",
			"node":"JHM31CT006",
			"tag":"AI5:735",
			"type":0
		},
		{
			"gid":"A001246",
			"node":"JHM31CT007",
			"tag":"AI5:738",
			"type":0
		},
		{
			"gid":"A001247",
			"node":"JHM32CT001",
			"tag":"AI5:741",
			"type":0
		},
		{
			"gid":"A001248",
			"node":"JHM32CT002",
			"tag":"AI5:744",
			"type":0
		},
		{
			"gid":"A001249",
			"node":"JHM32CT003",
			"tag":"AI5:747",
			"type":0
		}
	],
	"name":"jgs_realtime_025",
	"table":"rdcs_jgs.jgs_realtime"
}