{
	"file":"jgs_realtime_103",
	"items":[
		{
			"gid":"D001841",
			"node":"JHZ57P001ZS",
			"tag":"DI2:841",
			"type":1
		},
		{
			"gid":"D001842",
			"node":"JHZ57P001ZF",
			"tag":"DI2:842",
			"type":1
		},
		{
			"gid":"D001843",
			"node":"JHZ57P001PF",
			"tag":"DI2:843",
			"type":1
		},
		{
			"gid":"D001844",
			"node":"JHZ57P001PE",
			"tag":"DI2:844",
			"type":1
		},
		{
			"gid":"D001845",
			"node":"JHZ65M002ZS",
			"tag":"DI2:845",
			"type":1
		},
		{
			"gid":"D001846",
			"node":"JHZ65M002ZF",
			"tag":"DI2:846",
			"type":1
		},
		{
			"gid":"D001847",
			"node":"JHZ65M002PF",
			"tag":"DI2:847",
			"type":1
		},
		{
			"gid":"D001848",
			"node":"JHZ65M002PE",
			"tag":"DI2:848",
			"type":1
		},
		{
			"gid":"D001849",
			"node":"JHZ68P001ZS",
			"tag":"DI2:849",
			"type":1
		},
		{
			"gid":"D001850",
			"node":"JHZ68P001ZF",
			"tag":"DI2:850",
			"type":1
		},
		{
			"gid":"D001851",
			"node":"JHZ68P001PF",
			"tag":"DI2:851",
			"type":1
		},
		{
			"gid":"D001852",
			"node":"JHZ68P001PE",
			"tag":"DI2:852",
			"type":1
		},
		{
			"gid":"D001853",
			"node":"JHZ87P001ZS",
			"tag":"DI2:853",
			"type":1
		},
		{
			"gid":"D001854",
			"node":"JHZ87P001ZF",
			"tag":"DI2:854",
			"type":1
		},
		{
			"gid":"D001855",
			"node":"JHZ87P001PF",
			"tag":"DI2:855",
			"type":1
		},
		{
			"gid":"D001856",
			"node":"JHZ87P001PE",
			"tag":"DI2:856",
			"type":1
		},
		{
			"gid":"D001857",
			"node":"JHZ70M002ZS",
			"tag":"DI2:857",
			"type":1
		},
		{
			"gid":"D001858",
			"node":"JHZ70M002ZF",
			"tag":"DI2:858",
			"type":1
		},
		{
			"gid":"D001859",
			"node":"JHZ70M002PF",
			"tag":"DI2:859",
			"type":1
		},
		{
			"gid":"D001860",
			"node":"JHZ70M002PE",
			"tag":"DI2:860",
			"type":1
		},
		{
			"gid":"D001861",
			"node":"JHZ72P001ZS",
			"tag":"DI2:861",
			"type":1
		},
		{
			"gid":"D001862",
			"node":"JHZ72P001ZF",
			"tag":"DI2:862",
			"type":1
		},
		{
			"gid":"D001863",
			"node":"JHZ72P001PF",
			"tag":"DI2:863",
			"type":1
		},
		{
			"gid":"D001864",
			"node":"JHZ72P001PE",
			"tag":"DI2:864",
			"type":1
		},
		{
			"gid":"D001865",
			"node":"JHZ80M002ZS",
			"tag":"DI2:865",
			"type":1
		},
		{
			"gid":"D001866",
			"node":"JHZ80M002ZF",
			"tag":"DI2:866",
			"type":1
		},
		{
			"gid":"D001867",
			"node":"JHZ80M002PF",
			"tag":"DI2:867",
			"type":1
		},
		{
			"gid":"D001868",
			"node":"JHZ80M002PE",
			"tag":"DI2:868",
			"type":1
		},
		{
			"gid":"D001869",
			"node":"JHZ92P001ZS",
			"tag":"DI2:869",
			"type":1
		},
		{
			"gid":"D001870",
			"node":"JHZ92P001ZF",
			"tag":"DI2:870",
			"type":1
		},
		{
			"gid":"D001871",
			"node":"JHZ92P001PF",
			"tag":"DI2:871",
			"type":1
		},
		{
			"gid":"D001872",
			"node":"JHZ92P001PE",
			"tag":"DI2:872",
			"type":1
		},
		{
			"gid":"D001873",
			"node":"JHZ82P001ZS",
			"tag":"DI2:873",
			"type":1
		},
		{
			"gid":"D001874",
			"node":"JHZ82P001ZF",
			"tag":"DI2:874",
			"type":1
		},
		{
			"gid":"D001875",
			"node":"JHZ82P001PF",
			"tag":"DI2:875",
			"type":1
		},
		{
			"gid":"D001876",
			"node":"JHZ82P001PE",
			"tag":"DI2:876",
			"type":1
		},
		{
			"gid":"D001877",
			"node":"JHZ37P001ZS",
			"tag":"DI2:877",
			"type":1
		},
		{
			"gid":"D001878",
			"node":"JHZ37P001ZF",
			"tag":"DI2:878",
			"type":1
		},
		{
			"gid":"D001879",
			"node":"JHZ37P001PF",
			"tag":"DI2:879",
			"type":1
		},
		{
			"gid":"D001880",
			"node":"JHZ37P001PE",
			"tag":"DI2:880",
			"type":1
		},
		{
			"gid":"D001881",
			"node":"JHZ34A201ZO",
			"tag":"DI2:881",
			"type":1
		},
		{
			"gid":"D001882",
			"node":"JHZ34A201ZC",
			"tag":"DI2:882",
			"type":1
		},
		{
			"gid":"D001883",
			"node":"JHZ34A201PL",
			"tag":"DI2:883",
			"type":1
		},
		{
			"gid":"D001884",
			"node":"JHZ34A202ZO",
			"tag":"DI2:884",
			"type":1
		},
		{
			"gid":"D001885",
			"node":"JHZ34A202ZC",
			"tag":"DI2:885",
			"type":1
		},
		{
			"gid":"D001886",
			"node":"JHZ34A202PL",
			"tag":"DI2:886",
			"type":1
		},
		{
			"gid":"D001887",
			"node":"JHZ35A201ZO",
			"tag":"DI2:887",
			"type":1
		},
		{
			"gid":"D001888",
			"node":"JHZ35A201ZC",
			"tag":"DI2:888",
			"type":1
		},
		{
			"gid":"D001889",
			"node":"JHZ35A201PL",
			"tag":"DI2:889",
			"type":1
		},
		{
			"gid":"D001890",
			"node":"JHZ33P001ZS",
			"tag":"DI2:890",
			"type":1
		}
	],
	"name":"jgs_realtime_103",
	"table":"rdcs_jgs.jgs_realtime"
}