{
	"file":"jgs_realtime_100",
	"items":[
		{
			"gid":"D001691",
			"node":"JHZ11P001ZS",
			"tag":"DI2:691",
			"type":1
		},
		{
			"gid":"D001692",
			"node":"JHZ11P001ZD",
			"tag":"DI2:692",
			"type":1
		},
		{
			"gid":"D001693",
			"node":"JHZ11P001PF",
			"tag":"DI2:693",
			"type":1
		},
		{
			"gid":"D001694",
			"node":"JHZ11P001PE",
			"tag":"DI2:694",
			"type":1
		},
		{
			"gid":"D001695",
			"node":"JHZ11P001PG",
			"tag":"DI2:695",
			"type":1
		},
		{
			"gid":"D001696",
			"node":"JHZ17A201ZO",
			"tag":"DI2:696",
			"type":1
		},
		{
			"gid":"D001697",
			"node":"JHZ17A201ZC",
			"tag":"DI2:697",
			"type":1
		},
		{
			"gid":"D001698",
			"node":"JHZ17A201PL",
			"tag":"DI2:698",
			"type":1
		},
		{
			"gid":"D001699",
			"node":"JHZ17P001ZS",
			"tag":"DI2:699",
			"type":1
		},
		{
			"gid":"D001700",
			"node":"JHZ17P001ZD",
			"tag":"DI2:700",
			"type":1
		},
		{
			"gid":"D001701",
			"node":"JHZ17P001PF",
			"tag":"DI2:701",
			"type":1
		},
		{
			"gid":"D001702",
			"node":"JHZ17P001PE",
			"tag":"DI2:702",
			"type":1
		},
		{
			"gid":"D001703",
			"node":"JHZ17P001PG",
			"tag":"DI2:703",
			"type":1
		},
		{
			"gid":"D001704",
			"node":"JHT50M001ZS",
			"tag":"DI2:704",
			"type":1
		},
		{
			"gid":"D001705",
			"node":"JHT50M001ZD",
			"tag":"DI2:705",
			"type":1
		},
		{
			"gid":"D001706",
			"node":"JHT50M001PF",
			"tag":"DI2:706",
			"type":1
		},
		{
			"gid":"D001707",
			"node":"JHT50M001PE",
			"tag":"DI2:707",
			"type":1
		},
		{
			"gid":"D001708",
			"node":"JHT50M001PG",
			"tag":"DI2:708",
			"type":1
		},
		{
			"gid":"D001709",
			"node":"JHZ05M001ZS",
			"tag":"DI2:709",
			"type":1
		},
		{
			"gid":"D001710",
			"node":"JHZ05M001ZD",
			"tag":"DI2:710",
			"type":1
		},
		{
			"gid":"D001711",
			"node":"JHZ05M001PF",
			"tag":"DI2:711",
			"type":1
		},
		{
			"gid":"D001712",
			"node":"JHZ05M001PE",
			"tag":"DI2:712",
			"type":1
		},
		{
			"gid":"D001713",
			"node":"JHZ05M001PG",
			"tag":"DI2:713",
			"type":1
		},
		{
			"gid":"D001714",
			"node":"JHZ56P001ZS",
			"tag":"DI2:714",
			"type":1
		},
		{
			"gid":"D001715",
			"node":"JHZ56P001ZF",
			"tag":"DI2:715",
			"type":1
		},
		{
			"gid":"D001716",
			"node":"JHZ56P001PF",
			"tag":"DI2:716",
			"type":1
		},
		{
			"gid":"D001717",
			"node":"JHZ56P001PE",
			"tag":"DI2:717",
			"type":1
		},
		{
			"gid":"D001718",
			"node":"JHZ65M001ZS",
			"tag":"DI2:718",
			"type":1
		},
		{
			"gid":"D001719",
			"node":"JHZ65M001ZF",
			"tag":"DI2:719",
			"type":1
		},
		{
			"gid":"D001720",
			"node":"JHZ65M001PF",
			"tag":"DI2:720",
			"type":1
		},
		{
			"gid":"D001721",
			"node":"JHZ65M001PE",
			"tag":"DI2:721",
			"type":1
		},
		{
			"gid":"D001722",
			"node":"JHZ66P001ZS",
			"tag":"DI2:722",
			"type":1
		},
		{
			"gid":"D001723",
			"node":"JHZ66P001ZF",
			"tag":"DI2:723",
			"type":1
		},
		{
			"gid":"D001724",
			"node":"JHZ66P001PF",
			"tag":"DI2:724",
			"type":1
		},
		{
			"gid":"D001725",
			"node":"JHZ66P001PE",
			"tag":"DI2:725",
			"type":1
		},
		{
			"gid":"D001726",
			"node":"JHZ67P001ZS",
			"tag":"DI2:726",
			"type":1
		},
		{
			"gid":"D001727",
			"node":"JHZ67P001ZF",
			"tag":"DI2:727",
			"type":1
		},
		{
			"gid":"D001728",
			"node":"JHZ67P001PF",
			"tag":"DI2:728",
			"type":1
		},
		{
			"gid":"D001729",
			"node":"JHZ67P001PE",
			"tag":"DI2:729",
			"type":1
		},
		{
			"gid":"D001730",
			"node":"JHZ70M001ZS",
			"tag":"DI2:730",
			"type":1
		},
		{
			"gid":"D001731",
			"node":"JHZ70M001ZF",
			"tag":"DI2:731",
			"type":1
		},
		{
			"gid":"D001732",
			"node":"JHZ70M001PF",
			"tag":"DI2:732",
			"type":1
		},
		{
			"gid":"D001733",
			"node":"JHZ70M001PE",
			"tag":"DI2:733",
			"type":1
		},
		{
			"gid":"D001734",
			"node":"JHZ71P001ZS",
			"tag":"DI2:734",
			"type":1
		},
		{
			"gid":"D001735",
			"node":"JHZ71P001ZF",
			"tag":"DI2:735",
			"type":1
		},
		{
			"gid":"D001736",
			"node":"JHZ71P001PF",
			"tag":"DI2:736",
			"type":1
		},
		{
			"gid":"D001737",
			"node":"JHZ71P001PE",
			"tag":"DI2:737",
			"type":1
		},
		{
			"gid":"D001738",
			"node":"JHZ80M001ZS",
			"tag":"DI2:738",
			"type":1
		},
		{
			"gid":"D001739",
			"node":"JHZ80M001ZF",
			"tag":"DI2:739",
			"type":1
		},
		{
			"gid":"D001740",
			"node":"JHZ80M001PF",
			"tag":"DI2:740",
			"type":1
		}
	],
	"name":"jgs_realtime_100",
	"table":"rdcs_jgs.jgs_realtime"
}