{
	"file":"jgs_realtime_053",
	"items":[
		{
			"gid":"A002600",
			"node":"ID02ABAK011",
			"tag":"AI11:300",
			"type":0
		},
		{
			"gid":"A002601",
			"node":"ID02ABAK012",
			"tag":"AI11:303",
			"type":0
		},
		{
			"gid":"A002602",
			"node":"ID02ABAK013",
			"tag":"AI11:306",
			"type":0
		},
		{
			"gid":"A002603",
			"node":"ID02ABAK014",
			"tag":"AI11:309",
			"type":0
		},
		{
			"gid":"A002604",
			"node":"ID02ABAK015",
			"tag":"AI11:312",
			"type":0
		},
		{
			"gid":"A002605",
			"node":"ID02ABAK016",
			"tag":"AI11:315",
			"type":0
		},
		{
			"gid":"A002606",
			"node":"ID02ABAK017",
			"tag":"AI11:318",
			"type":0
		},
		{
			"gid":"A002607",
			"node":"ID02ABAK018",
			"tag":"AI11:321",
			"type":0
		},
		{
			"gid":"A002608",
			"node":"ID02ABAK019",
			"tag":"AI11:324",
			"type":0
		},
		{
			"gid":"A002609",
			"node":"ID02ABAK020",
			"tag":"AI11:327",
			"type":0
		},
		{
			"gid":"A002610",
			"node":"ID02ABAK021",
			"tag":"AI11:330",
			"type":0
		},
		{
			"gid":"A002611",
			"node":"ID02ABAK022",
			"tag":"AI11:333",
			"type":0
		},
		{
			"gid":"A002612",
			"node":"ID02ABAK023",
			"tag":"AI11:336",
			"type":0
		},
		{
			"gid":"A002613",
			"node":"ID02ABAK024",
			"tag":"AI11:339",
			"type":0
		},
		{
			"gid":"A002614",
			"node":"ID02ABAK025",
			"tag":"AI11:342",
			"type":0
		},
		{
			"gid":"A002615",
			"node":"ID02ABAK026",
			"tag":"AI11:345",
			"type":0
		},
		{
			"gid":"A002616",
			"node":"ID02ABAK027",
			"tag":"AI11:348",
			"type":0
		},
		{
			"gid":"A002617",
			"node":"ID02ABAK028",
			"tag":"AI11:351",
			"type":0
		},
		{
			"gid":"A002618",
			"node":"ID02ABAK029",
			"tag":"AI11:354",
			"type":0
		},
		{
			"gid":"A002619",
			"node":"ID02ABAK030",
			"tag":"AI11:357",
			"type":0
		},
		{
			"gid":"A002620",
			"node":"ID02ABAK031",
			"tag":"AI11:360",
			"type":0
		},
		{
			"gid":"A002621",
			"node":"ID02ABAK032",
			"tag":"AI11:363",
			"type":0
		},
		{
			"gid":"A002622",
			"node":"ID02ABAK033",
			"tag":"AI11:366",
			"type":0
		},
		{
			"gid":"A002623",
			"node":"ID02ABAK034",
			"tag":"AI11:369",
			"type":0
		},
		{
			"gid":"A002624",
			"node":"ID02ABAK035",
			"tag":"AI11:372",
			"type":0
		},
		{
			"gid":"A002625",
			"node":"ID02ABAK036",
			"tag":"AI11:375",
			"type":0
		},
		{
			"gid":"A002626",
			"node":"ID02ABAK037",
			"tag":"AI11:378",
			"type":0
		},
		{
			"gid":"A002627",
			"node":"ID02ABAK038",
			"tag":"AI11:381",
			"type":0
		},
		{
			"gid":"A002628",
			"node":"ID02ABAK039",
			"tag":"AI11:384",
			"type":0
		},
		{
			"gid":"A002629",
			"node":"ID02ABAK040",
			"tag":"AI11:387",
			"type":0
		},
		{
			"gid":"A002630",
			"node":"ID02ABAK041",
			"tag":"AI11:390",
			"type":0
		},
		{
			"gid":"A002631",
			"node":"ID02ABAK042",
			"tag":"AI11:393",
			"type":0
		},
		{
			"gid":"A002632",
			"node":"ID02ABAK043",
			"tag":"AI11:396",
			"type":0
		},
		{
			"gid":"A002633",
			"node":"ID02ABAK044",
			"tag":"AI11:399",
			"type":0
		},
		{
			"gid":"A002634",
			"node":"ID02ABAK045",
			"tag":"AI11:402",
			"type":0
		},
		{
			"gid":"A002635",
			"node":"ID02ABAK046",
			"tag":"AI11:405",
			"type":0
		},
		{
			"gid":"A002636",
			"node":"ID02ABAK047",
			"tag":"AI11:408",
			"type":0
		},
		{
			"gid":"A002637",
			"node":"ID02ABAK048",
			"tag":"AI11:411",
			"type":0
		},
		{
			"gid":"A002638",
			"node":"ID02ABAK049",
			"tag":"AI11:414",
			"type":0
		},
		{
			"gid":"A002639",
			"node":"ID02ABAK050",
			"tag":"AI11:417",
			"type":0
		},
		{
			"gid":"A002640",
			"node":"ID03ABAK001",
			"tag":"AI11:420",
			"type":0
		},
		{
			"gid":"A002641",
			"node":"ID03ABAK002",
			"tag":"AI11:423",
			"type":0
		},
		{
			"gid":"A002642",
			"node":"ID03ABAK003",
			"tag":"AI11:426",
			"type":0
		},
		{
			"gid":"A002643",
			"node":"ID03ABAK004",
			"tag":"AI11:429",
			"type":0
		},
		{
			"gid":"A002644",
			"node":"ID03ABAK005",
			"tag":"AI11:432",
			"type":0
		},
		{
			"gid":"A002645",
			"node":"ID03ABAK006",
			"tag":"AI11:435",
			"type":0
		},
		{
			"gid":"A002646",
			"node":"ID03ABAK007",
			"tag":"AI11:438",
			"type":0
		},
		{
			"gid":"A002647",
			"node":"ID03ABAK008",
			"tag":"AI11:441",
			"type":0
		},
		{
			"gid":"A002648",
			"node":"ID03ABAK009",
			"tag":"AI11:444",
			"type":0
		},
		{
			"gid":"A002649",
			"node":"ID03ABAK010",
			"tag":"AI11:447",
			"type":0
		}
	],
	"name":"jgs_realtime_053",
	"table":"rdcs_jgs.jgs_realtime"
}