{
	"file":"jgs_realtime_036",
	"items":[
		{
			"gid":"A001750",
			"node":"D09ABAK061",
			"tag":"AI8:0",
			"type":0
		},
		{
			"gid":"A001751",
			"node":"D09ABAK062",
			"tag":"AI8:3",
			"type":0
		},
		{
			"gid":"A001752",
			"node":"D09ABAK063",
			"tag":"AI8:6",
			"type":0
		},
		{
			"gid":"A001753",
			"node":"D09ABAK064",
			"tag":"AI8:9",
			"type":0
		},
		{
			"gid":"A001754",
			"node":"D09ABAK065",
			"tag":"AI8:12",
			"type":0
		},
		{
			"gid":"A001755",
			"node":"D09ABAK066",
			"tag":"AI8:15",
			"type":0
		},
		{
			"gid":"A001756",
			"node":"D09ABAK067",
			"tag":"AI8:18",
			"type":0
		},
		{
			"gid":"A001757",
			"node":"D09ABAK068",
			"tag":"AI8:21",
			"type":0
		},
		{
			"gid":"A001758",
			"node":"D09ABAK069",
			"tag":"AI8:24",
			"type":0
		},
		{
			"gid":"A001759",
			"node":"D09ABAK070",
			"tag":"AI8:27",
			"type":0
		},
		{
			"gid":"A001760",
			"node":"D09ABAK071",
			"tag":"AI8:30",
			"type":0
		},
		{
			"gid":"A001761",
			"node":"D09ABAK072",
			"tag":"AI8:33",
			"type":0
		},
		{
			"gid":"A001762",
			"node":"D09ABAK073",
			"tag":"AI8:36",
			"type":0
		},
		{
			"gid":"A001763",
			"node":"D09ABAK074",
			"tag":"AI8:39",
			"type":0
		},
		{
			"gid":"A001764",
			"node":"D09ABAK075",
			"tag":"AI8:42",
			"type":0
		},
		{
			"gid":"A001765",
			"node":"JHK21F001PI",
			"tag":"AI8:45",
			"type":0
		},
		{
			"gid":"A001766",
			"node":"JHK22F001PI",
			"tag":"AI8:48",
			"type":0
		},
		{
			"gid":"A001767",
			"node":"JHK23F001PI",
			"tag":"AI8:51",
			"type":0
		},
		{
			"gid":"A001768",
			"node":"JHK31M001PI",
			"tag":"AI8:54",
			"type":0
		},
		{
			"gid":"A001769",
			"node":"JHK32M001PI",
			"tag":"AI8:57",
			"type":0
		},
		{
			"gid":"A001770",
			"node":"JHK33M001PI",
			"tag":"AI8:60",
			"type":0
		},
		{
			"gid":"A001771",
			"node":"JHK33CT001",
			"tag":"AI8:63",
			"type":0
		},
		{
			"gid":"A001772",
			"node":"JHK33CT002",
			"tag":"AI8:66",
			"type":0
		},
		{
			"gid":"A001773",
			"node":"JHK33CT011",
			"tag":"AI8:69",
			"type":0
		},
		{
			"gid":"A001774",
			"node":"JHK33CT003",
			"tag":"AI8:72",
			"type":0
		},
		{
			"gid":"A001775",
			"node":"JHK33CT004",
			"tag":"AI8:75",
			"type":0
		},
		{
			"gid":"A001776",
			"node":"JHK33CT005",
			"tag":"AI8:78",
			"type":0
		},
		{
			"gid":"A001777",
			"node":"JHK33CT006",
			"tag":"AI8:81",
			"type":0
		},
		{
			"gid":"A001778",
			"node":"JHK33CT007",
			"tag":"AI8:84",
			"type":0
		},
		{
			"gid":"A001779",
			"node":"JHK33CT008",
			"tag":"AI8:87",
			"type":0
		},
		{
			"gid":"A001780",
			"node":"JHK33CT009",
			"tag":"AI8:90",
			"type":0
		},
		{
			"gid":"A001781",
			"node":"JHK33CT010",
			"tag":"AI8:93",
			"type":0
		},
		{
			"gid":"A001782",
			"node":"JHK21CL001",
			"tag":"AI8:96",
			"type":0
		},
		{
			"gid":"A001783",
			"node":"JHK22CL001",
			"tag":"AI8:99",
			"type":0
		},
		{
			"gid":"A001784",
			"node":"JHK23CL001",
			"tag":"AI8:102",
			"type":0
		},
		{
			"gid":"A001785",
			"node":"JHK23F001AI",
			"tag":"AI8:105",
			"type":0
		},
		{
			"gid":"A001786",
			"node":"JHK43P001CE",
			"tag":"AI8:108",
			"type":0
		},
		{
			"gid":"A001787",
			"node":"JHK43P002CE",
			"tag":"AI8:111",
			"type":0
		},
		{
			"gid":"A001788",
			"node":"JHK43CD001",
			"tag":"AI8:114",
			"type":0
		},
		{
			"gid":"A001789",
			"node":"JHK43CL001",
			"tag":"AI8:117",
			"type":0
		},
		{
			"gid":"A001790",
			"node":"JHK33M001CE",
			"tag":"AI8:120",
			"type":0
		},
		{
			"gid":"A001791",
			"node":"JHJ10CL001",
			"tag":"AI8:123",
			"type":0
		},
		{
			"gid":"A001792",
			"node":"JHT30CL001",
			"tag":"AI8:126",
			"type":0
		},
		{
			"gid":"A001793",
			"node":"D10P86VC",
			"tag":"AI8:129",
			"type":0
		},
		{
			"gid":"A001794",
			"node":"D10P91VC",
			"tag":"AI8:132",
			"type":0
		},
		{
			"gid":"A001795",
			"node":"D10P96VC",
			"tag":"AI8:135",
			"type":0
		},
		{
			"gid":"A001796",
			"node":"D10P107B1",
			"tag":"AI8:138",
			"type":0
		},
		{
			"gid":"A001797",
			"node":"D10P117B1",
			"tag":"AI8:141",
			"type":0
		},
		{
			"gid":"A001798",
			"node":"D10P119B1",
			"tag":"AI8:144",
			"type":0
		},
		{
			"gid":"A001799",
			"node":"D10P121B1",
			"tag":"AI8:147",
			"type":0
		}
	],
	"name":"jgs_realtime_036",
	"table":"rdcs_jgs.jgs_realtime"
}