{
	"file":"jgs_realtime_087",
	"items":[
		{
			"gid":"D001041",
			"node":"D03DBAK054",
			"tag":"DI2:41",
			"type":1
		},
		{
			"gid":"D001042",
			"node":"D03DBAK055",
			"tag":"DI2:42",
			"type":1
		},
		{
			"gid":"D001043",
			"node":"D03DBAK056",
			"tag":"DI2:43",
			"type":1
		},
		{
			"gid":"D001044",
			"node":"D03DBAK057",
			"tag":"DI2:44",
			"type":1
		},
		{
			"gid":"D001045",
			"node":"D03DBAK058",
			"tag":"DI2:45",
			"type":1
		},
		{
			"gid":"D001046",
			"node":"D03DBAK059",
			"tag":"DI2:46",
			"type":1
		},
		{
			"gid":"D001047",
			"node":"D03DBAK060",
			"tag":"DI2:47",
			"type":1
		},
		{
			"gid":"D001048",
			"node":"D03DBAK061",
			"tag":"DI2:48",
			"type":1
		},
		{
			"gid":"D001049",
			"node":"D03DBAK062",
			"tag":"DI2:49",
			"type":1
		},
		{
			"gid":"D001050",
			"node":"D03DBAK063",
			"tag":"DI2:50",
			"type":1
		},
		{
			"gid":"D001051",
			"node":"D03DBAK064",
			"tag":"DI2:51",
			"type":1
		},
		{
			"gid":"D001052",
			"node":"D03DBAK065",
			"tag":"DI2:52",
			"type":1
		},
		{
			"gid":"D001053",
			"node":"D03DBAK066",
			"tag":"DI2:53",
			"type":1
		},
		{
			"gid":"D001054",
			"node":"D03DBAK067",
			"tag":"DI2:54",
			"type":1
		},
		{
			"gid":"D001055",
			"node":"D03DBAK068",
			"tag":"DI2:55",
			"type":1
		},
		{
			"gid":"D001056",
			"node":"D03DBAK069",
			"tag":"DI2:56",
			"type":1
		},
		{
			"gid":"D001057",
			"node":"D03DBAK070",
			"tag":"DI2:57",
			"type":1
		},
		{
			"gid":"D001058",
			"node":"D03DBAK071",
			"tag":"DI2:58",
			"type":1
		},
		{
			"gid":"D001059",
			"node":"D03DBAK072",
			"tag":"DI2:59",
			"type":1
		},
		{
			"gid":"D001060",
			"node":"D03DBAK073",
			"tag":"DI2:60",
			"type":1
		},
		{
			"gid":"D001061",
			"node":"D03DBAK074",
			"tag":"DI2:61",
			"type":1
		},
		{
			"gid":"D001062",
			"node":"D03DBAK075",
			"tag":"DI2:62",
			"type":1
		},
		{
			"gid":"D001063",
			"node":"2HF11A201PL",
			"tag":"DI2:63",
			"type":1
		},
		{
			"gid":"D001064",
			"node":"2HF11A201ZC",
			"tag":"DI2:64",
			"type":1
		},
		{
			"gid":"D001065",
			"node":"2HF11A201ZO",
			"tag":"DI2:65",
			"type":1
		},
		{
			"gid":"D001066",
			"node":"2HF11A211PL",
			"tag":"DI2:66",
			"type":1
		},
		{
			"gid":"D001067",
			"node":"2HF11A211ZC",
			"tag":"DI2:67",
			"type":1
		},
		{
			"gid":"D001068",
			"node":"2HF11A211ZO",
			"tag":"DI2:68",
			"type":1
		},
		{
			"gid":"D001069",
			"node":"2HF11P001PE",
			"tag":"DI2:69",
			"type":1
		},
		{
			"gid":"D001070",
			"node":"2HF11P001PG",
			"tag":"DI2:70",
			"type":1
		},
		{
			"gid":"D001071",
			"node":"2HF11P001ZD",
			"tag":"DI2:71",
			"type":1
		},
		{
			"gid":"D001072",
			"node":"2HF11P001ZS",
			"tag":"DI2:72",
			"type":1
		},
		{
			"gid":"D001073",
			"node":"2HQ25A201PL",
			"tag":"DI2:73",
			"type":1
		},
		{
			"gid":"D001074",
			"node":"2HQ25A201ZC",
			"tag":"DI2:74",
			"type":1
		},
		{
			"gid":"D001075",
			"node":"2HQ25A201ZO",
			"tag":"DI2:75",
			"type":1
		},
		{
			"gid":"D001076",
			"node":"2HD10M004PE",
			"tag":"DI2:76",
			"type":1
		},
		{
			"gid":"D001077",
			"node":"2HD10M004PG",
			"tag":"DI2:77",
			"type":1
		},
		{
			"gid":"D001078",
			"node":"2HD10M004ZD",
			"tag":"DI2:78",
			"type":1
		},
		{
			"gid":"D001079",
			"node":"2HD10M004ZF",
			"tag":"DI2:79",
			"type":1
		},
		{
			"gid":"D001080",
			"node":"2HD10M004ZS",
			"tag":"DI2:80",
			"type":1
		},
		{
			"gid":"D001081",
			"node":"2HD10M005PE",
			"tag":"DI2:81",
			"type":1
		},
		{
			"gid":"D001082",
			"node":"2HD10M005PG",
			"tag":"DI2:82",
			"type":1
		},
		{
			"gid":"D001083",
			"node":"2HD10M005ZD",
			"tag":"DI2:83",
			"type":1
		},
		{
			"gid":"D001084",
			"node":"2HD10M005ZF",
			"tag":"DI2:84",
			"type":1
		},
		{
			"gid":"D001085",
			"node":"2HD10M005ZS",
			"tag":"DI2:85",
			"type":1
		},
		{
			"gid":"D001086",
			"node":"2HL10A231PL",
			"tag":"DI2:86",
			"type":1
		},
		{
			"gid":"D001087",
			"node":"2HL10A231ZC",
			"tag":"DI2:87",
			"type":1
		},
		{
			"gid":"D001088",
			"node":"2HL10A231ZO",
			"tag":"DI2:88",
			"type":1
		},
		{
			"gid":"D001089",
			"node":"2HF12A201PL",
			"tag":"DI2:89",
			"type":1
		},
		{
			"gid":"D001090",
			"node":"2HF12A201ZC",
			"tag":"DI2:90",
			"type":1
		}
	],
	"name":"jgs_realtime_087",
	"table":"rdcs_jgs.jgs_realtime"
}