{
	"file":"jgs_realtime_107",
	"items":[
		{
			"gid":"D002041",
			"node":"JHZ22P001MS",
			"tag":"DI3:41",
			"type":1
		},
		{
			"gid":"D002042",
			"node":"JHZ22P001MD",
			"tag":"DI3:42",
			"type":1
		},
		{
			"gid":"D002043",
			"node":"JHQ46A202VO",
			"tag":"DI3:43",
			"type":1
		},
		{
			"gid":"D002044",
			"node":"JHQ46A202VC",
			"tag":"DI3:44",
			"type":1
		},
		{
			"gid":"D002045",
			"node":"JHZ10A201VO",
			"tag":"DI3:45",
			"type":1
		},
		{
			"gid":"D002046",
			"node":"JHZ10A201VC",
			"tag":"DI3:46",
			"type":1
		},
		{
			"gid":"D002047",
			"node":"JHZ10A202VO",
			"tag":"DI3:47",
			"type":1
		},
		{
			"gid":"D002048",
			"node":"JHZ10A202VC",
			"tag":"DI3:48",
			"type":1
		},
		{
			"gid":"D002049",
			"node":"JHQ46A234MS",
			"tag":"DI3:49",
			"type":1
		},
		{
			"gid":"D002050",
			"node":"JHQ46A234MD",
			"tag":"DI3:50",
			"type":1
		},
		{
			"gid":"D002051",
			"node":"JHZ31A201VO",
			"tag":"DI3:51",
			"type":1
		},
		{
			"gid":"D002052",
			"node":"JHZ31A201VC",
			"tag":"DI3:52",
			"type":1
		},
		{
			"gid":"D002053",
			"node":"JHQ46A204VO",
			"tag":"DI3:53",
			"type":1
		},
		{
			"gid":"D002054",
			"node":"JHQ46A204VC",
			"tag":"DI3:54",
			"type":1
		},
		{
			"gid":"D002055",
			"node":"D06AMST",
			"tag":"DI3:55",
			"type":1
		},
		{
			"gid":"D002056",
			"node":"D06NAF",
			"tag":"DI3:56",
			"type":1
		},
		{
			"gid":"D002057",
			"node":"D06NBF",
			"tag":"DI3:57",
			"type":1
		},
		{
			"gid":"D002058",
			"node":"D26NAF",
			"tag":"DI3:58",
			"type":1
		},
		{
			"gid":"D002059",
			"node":"D26NBF",
			"tag":"DI3:59",
			"type":1
		},
		{
			"gid":"D002060",
			"node":"D26BMST",
			"tag":"DI3:60",
			"type":1
		},
		{
			"gid":"D002061",
			"node":"D06CARDF",
			"tag":"DI3:61",
			"type":1
		},
		{
			"gid":"D002062",
			"node":"D06DBAK001",
			"tag":"DI3:62",
			"type":1
		},
		{
			"gid":"D002063",
			"node":"D06DBAK002",
			"tag":"DI3:63",
			"type":1
		},
		{
			"gid":"D002064",
			"node":"D06DBAK003",
			"tag":"DI3:64",
			"type":1
		},
		{
			"gid":"D002065",
			"node":"D06DBAK004",
			"tag":"DI3:65",
			"type":1
		},
		{
			"gid":"D002066",
			"node":"D06DBAK005",
			"tag":"DI3:66",
			"type":1
		},
		{
			"gid":"D002067",
			"node":"D06DBAK006",
			"tag":"DI3:67",
			"type":1
		},
		{
			"gid":"D002068",
			"node":"D06DBAK007",
			"tag":"DI3:68",
			"type":1
		},
		{
			"gid":"D002069",
			"node":"D06DBAK008",
			"tag":"DI3:69",
			"type":1
		},
		{
			"gid":"D002070",
			"node":"D06DBAK009",
			"tag":"DI3:70",
			"type":1
		},
		{
			"gid":"D002071",
			"node":"D06DBAK010",
			"tag":"DI3:71",
			"type":1
		},
		{
			"gid":"D002072",
			"node":"D06DBAK011",
			"tag":"DI3:72",
			"type":1
		},
		{
			"gid":"D002073",
			"node":"D06DBAK012",
			"tag":"DI3:73",
			"type":1
		},
		{
			"gid":"D002074",
			"node":"D06DBAK013",
			"tag":"DI3:74",
			"type":1
		},
		{
			"gid":"D002075",
			"node":"D06DBAK014",
			"tag":"DI3:75",
			"type":1
		},
		{
			"gid":"D002076",
			"node":"D06DBAK015",
			"tag":"DI3:76",
			"type":1
		},
		{
			"gid":"D002077",
			"node":"D06DBAK016",
			"tag":"DI3:77",
			"type":1
		},
		{
			"gid":"D002078",
			"node":"D06DBAK017",
			"tag":"DI3:78",
			"type":1
		},
		{
			"gid":"D002079",
			"node":"D06DBAK018",
			"tag":"DI3:79",
			"type":1
		},
		{
			"gid":"D002080",
			"node":"D06DBAK019",
			"tag":"DI3:80",
			"type":1
		},
		{
			"gid":"D002081",
			"node":"D06DBAK020",
			"tag":"DI3:81",
			"type":1
		},
		{
			"gid":"D002082",
			"node":"D06DBAK021",
			"tag":"DI3:82",
			"type":1
		},
		{
			"gid":"D002083",
			"node":"D06DBAK022",
			"tag":"DI3:83",
			"type":1
		},
		{
			"gid":"D002084",
			"node":"D06DBAK023",
			"tag":"DI3:84",
			"type":1
		},
		{
			"gid":"D002085",
			"node":"D06DBAK024",
			"tag":"DI3:85",
			"type":1
		},
		{
			"gid":"D002086",
			"node":"D06DBAK025",
			"tag":"DI3:86",
			"type":1
		},
		{
			"gid":"D002087",
			"node":"D06DBAK026",
			"tag":"DI3:87",
			"type":1
		},
		{
			"gid":"D002088",
			"node":"D06DBAK027",
			"tag":"DI3:88",
			"type":1
		},
		{
			"gid":"D002089",
			"node":"D06DBAK028",
			"tag":"DI3:89",
			"type":1
		},
		{
			"gid":"D002090",
			"node":"D06DBAK029",
			"tag":"DI3:90",
			"type":1
		}
	],
	"name":"jgs_realtime_107",
	"table":"rdcs_jgs.jgs_realtime"
}