{
	"file":"jgs_realtime_070",
	"items":[
		{
			"gid":"D000191",
			"node":"1HQ13A205ZO",
			"tag":"DI1:191",
			"type":1
		},
		{
			"gid":"D000192",
			"node":"1HQ13A205ZC",
			"tag":"DI1:192",
			"type":1
		},
		{
			"gid":"D000193",
			"node":"1HQ13A205PL",
			"tag":"DI1:193",
			"type":1
		},
		{
			"gid":"D000194",
			"node":"1HQ13A006ZO",
			"tag":"DI1:194",
			"type":1
		},
		{
			"gid":"D000195",
			"node":"1HQ13A006ZC",
			"tag":"DI1:195",
			"type":1
		},
		{
			"gid":"D000196",
			"node":"1HQ13A006PL",
			"tag":"DI1:196",
			"type":1
		},
		{
			"gid":"D000197",
			"node":"1HQ11A201VO",
			"tag":"DI1:197",
			"type":1
		},
		{
			"gid":"D000198",
			"node":"1HQ11A201VC",
			"tag":"DI1:198",
			"type":1
		},
		{
			"gid":"D000199",
			"node":"1HQ11A202VO",
			"tag":"DI1:199",
			"type":1
		},
		{
			"gid":"D000200",
			"node":"1HQ11A202VC",
			"tag":"DI1:200",
			"type":1
		},
		{
			"gid":"D000201",
			"node":"1HQ11A203VO",
			"tag":"DI1:201",
			"type":1
		},
		{
			"gid":"D000202",
			"node":"1HQ11A203VC",
			"tag":"DI1:202",
			"type":1
		},
		{
			"gid":"D000203",
			"node":"1HQ11A204VO",
			"tag":"DI1:203",
			"type":1
		},
		{
			"gid":"D000204",
			"node":"1HQ11A204VC",
			"tag":"DI1:204",
			"type":1
		},
		{
			"gid":"D000205",
			"node":"1HQ11A205VO",
			"tag":"DI1:205",
			"type":1
		},
		{
			"gid":"D000206",
			"node":"1HQ11A205VC",
			"tag":"DI1:206",
			"type":1
		},
		{
			"gid":"D000207",
			"node":"1HQ11A206VC",
			"tag":"DI1:207",
			"type":1
		},
		{
			"gid":"D000208",
			"node":"1HQ11A206VO",
			"tag":"DI1:208",
			"type":1
		},
		{
			"gid":"D000209",
			"node":"1HQ12A201VO",
			"tag":"DI1:209",
			"type":1
		},
		{
			"gid":"D000210",
			"node":"1HQ12A201VC",
			"tag":"DI1:210",
			"type":1
		},
		{
			"gid":"D000211",
			"node":"1HQ12A202VO",
			"tag":"DI1:211",
			"type":1
		},
		{
			"gid":"D000212",
			"node":"1HQ12A202VC",
			"tag":"DI1:212",
			"type":1
		},
		{
			"gid":"D000213",
			"node":"1HQ12A203VO",
			"tag":"DI1:213",
			"type":1
		},
		{
			"gid":"D000214",
			"node":"1HQ12A203VC",
			"tag":"DI1:214",
			"type":1
		},
		{
			"gid":"D000215",
			"node":"1HQ12A204VO",
			"tag":"DI1:215",
			"type":1
		},
		{
			"gid":"D000216",
			"node":"1HQ12A204VC",
			"tag":"DI1:216",
			"type":1
		},
		{
			"gid":"D000217",
			"node":"1HQ12A205VO",
			"tag":"DI1:217",
			"type":1
		},
		{
			"gid":"D000218",
			"node":"1HQ12A205VC",
			"tag":"DI1:218",
			"type":1
		},
		{
			"gid":"D000219",
			"node":"1HQ12A206VO",
			"tag":"DI1:219",
			"type":1
		},
		{
			"gid":"D000220",
			"node":"1HQ12A206VC",
			"tag":"DI1:220",
			"type":1
		},
		{
			"gid":"D000221",
			"node":"1HC10N001MS",
			"tag":"DI1:221",
			"type":1
		},
		{
			"gid":"D000222",
			"node":"1HC10N001MD",
			"tag":"DI1:222",
			"type":1
		},
		{
			"gid":"D000223",
			"node":"1HG11N001MS",
			"tag":"DI1:223",
			"type":1
		},
		{
			"gid":"D000224",
			"node":"1HG11N001MD",
			"tag":"DI1:224",
			"type":1
		},
		{
			"gid":"D000225",
			"node":"1HG12N001MS",
			"tag":"DI1:225",
			"type":1
		},
		{
			"gid":"D000226",
			"node":"1HG12N001MD",
			"tag":"DI1:226",
			"type":1
		},
		{
			"gid":"D000227",
			"node":"1HG13N001MS",
			"tag":"DI1:227",
			"type":1
		},
		{
			"gid":"D000228",
			"node":"1HG13N001MD",
			"tag":"DI1:228",
			"type":1
		},
		{
			"gid":"D000229",
			"node":"1HQ13A201VO",
			"tag":"DI1:229",
			"type":1
		},
		{
			"gid":"D000230",
			"node":"1HQ13A201VC",
			"tag":"DI1:230",
			"type":1
		},
		{
			"gid":"D000231",
			"node":"1HQ13A202VO",
			"tag":"DI1:231",
			"type":1
		},
		{
			"gid":"D000232",
			"node":"1HQ13A202VC",
			"tag":"DI1:232",
			"type":1
		},
		{
			"gid":"D000233",
			"node":"1HQ13A203VO",
			"tag":"DI1:233",
			"type":1
		},
		{
			"gid":"D000234",
			"node":"1HQ13A203VC",
			"tag":"DI1:234",
			"type":1
		},
		{
			"gid":"D000235",
			"node":"1HQ13A204VO",
			"tag":"DI1:235",
			"type":1
		},
		{
			"gid":"D000236",
			"node":"1HQ13A204VC",
			"tag":"DI1:236",
			"type":1
		},
		{
			"gid":"D000237",
			"node":"1HQ13A205VO",
			"tag":"DI1:237",
			"type":1
		},
		{
			"gid":"D000238",
			"node":"1HQ13A205VC",
			"tag":"DI1:238",
			"type":1
		},
		{
			"gid":"D000239",
			"node":"1HQ13A006VO",
			"tag":"DI1:239",
			"type":1
		},
		{
			"gid":"D000240",
			"node":"1HQ13A006VC",
			"tag":"DI1:240",
			"type":1
		}
	],
	"name":"jgs_realtime_070",
	"table":"rdcs_jgs.jgs_realtime"
}