{
	"file":"yc3_realtime_076",
	"items":[
		{
			"gid":"",
			"node":"M0HTK62AR-N",
			"tag":"M0HTK62AR-N",
			"type":0
		},
		{
			"gid":"",
			"node":"M0HTK62AR-O",
			"tag":"M0HTK62AR-O",
			"type":0
		},
		{
			"gid":"",
			"node":"M0HTK62AR-P",
			"tag":"M0HTK62AR-P",
			"type":0
		},
		{
			"gid":"",
			"node":"M0HTK62AR-T",
			"tag":"M0HTK62AR-T",
			"type":0
		},
		{
			"gid":"",
			"node":"M0HTK62BP-J",
			"tag":"M0HTK62BP-J",
			"type":0
		},
		{
			"gid":"",
			"node":"M0HTK62BP-M",
			"tag":"M0HTK62BP-M",
			"type":0
		},
		{
			"gid":"",
			"node":"M0HTK62BP-N",
			"tag":"M0HTK62BP-N",
			"type":0
		},
		{
			"gid":"",
			"node":"M0HTK62BP-O",
			"tag":"M0HTK62BP-O",
			"type":0
		},
		{
			"gid":"",
			"node":"M0HTK62BP-P",
			"tag":"M0HTK62BP-P",
			"type":0
		},
		{
			"gid":"",
			"node":"M0HTK62BP-T",
			"tag":"M0HTK62BP-T",
			"type":0
		},
		{
			"gid":"",
			"node":"M0HTK62BR-J",
			"tag":"M0HTK62BR-J",
			"type":0
		},
		{
			"gid":"",
			"node":"M0HTK62BR-M",
			"tag":"M0HTK62BR-M",
			"type":0
		},
		{
			"gid":"",
			"node":"M0HTK62BR-N",
			"tag":"M0HTK62BR-N",
			"type":0
		},
		{
			"gid":"",
			"node":"M0HTK62BR-O",
			"tag":"M0HTK62BR-O",
			"type":0
		},
		{
			"gid":"",
			"node":"M0HTK62BR-P",
			"tag":"M0HTK62BR-P",
			"type":0
		},
		{
			"gid":"",
			"node":"M0HTK62BR-T",
			"tag":"M0HTK62BR-T",
			"type":0
		},
		{
			"gid":"",
			"node":"M0HTK62CL101",
			"tag":"M0HTK62CL101",
			"type":0
		},
		{
			"gid":"",
			"node":"M0HTK62CL101NL",
			"tag":"M0HTK62CL101NL",
			"type":0
		},
		{
			"gid":"",
			"node":"M0HTK62CP101",
			"tag":"M0HTK62CP101",
			"type":0
		},
		{
			"gid":"",
			"node":"M0HTM40AA210",
			"tag":"M0HTM40AA210",
			"type":0
		},
		{
			"gid":"",
			"node":"M0HTM40AA210-RP",
			"tag":"M0HTM40AA210-RP",
			"type":0
		},
		{
			"gid":"",
			"node":"M0HTM40AA210ZC",
			"tag":"M0HTM40AA210ZC",
			"type":0
		},
		{
			"gid":"",
			"node":"M0HTM40AA210ZO",
			"tag":"M0HTM40AA210ZO",
			"type":0
		},
		{
			"gid":"",
			"node":"M0HTM48AA211",
			"tag":"M0HTM48AA211",
			"type":0
		},
		{
			"gid":"",
			"node":"M0HTM48AA211-ALM",
			"tag":"M0HTM48AA211-ALM",
			"type":0
		},
		{
			"gid":"",
			"node":"M0HTM48AA211-CS",
			"tag":"M0HTM48AA211-CS",
			"type":0
		},
		{
			"gid":"",
			"node":"M0HTM48AA211-RP",
			"tag":"M0HTM48AA211-RP",
			"type":0
		},
		{
			"gid":"",
			"node":"M0HTM48AA211GT",
			"tag":"M0HTM48AA211GT",
			"type":0
		},
		{
			"gid":"",
			"node":"M0HTM48AA211ZC",
			"tag":"M0HTM48AA211ZC",
			"type":0
		},
		{
			"gid":"",
			"node":"M0HTM48AA211ZF",
			"tag":"M0HTM48AA211ZF",
			"type":0
		},
		{
			"gid":"",
			"node":"M0HTM48AA211ZO",
			"tag":"M0HTM48AA211ZO",
			"type":0
		},
		{
			"gid":"",
			"node":"M0HTM48AA222",
			"tag":"M0HTM48AA222",
			"type":0
		},
		{
			"gid":"",
			"node":"M0HTM48AA222-ALM",
			"tag":"M0HTM48AA222-ALM",
			"type":0
		},
		{
			"gid":"",
			"node":"M0HTM48AA222-CS",
			"tag":"M0HTM48AA222-CS",
			"type":0
		},
		{
			"gid":"",
			"node":"M0HTM48AA222-RP",
			"tag":"M0HTM48AA222-RP",
			"type":0
		},
		{
			"gid":"",
			"node":"M0HTM48AA222GT",
			"tag":"M0HTM48AA222GT",
			"type":0
		},
		{
			"gid":"",
			"node":"M0HTM48AA222ZC",
			"tag":"M0HTM48AA222ZC",
			"type":0
		},
		{
			"gid":"",
			"node":"M0HTM48AA222ZF",
			"tag":"M0HTM48AA222ZF",
			"type":0
		},
		{
			"gid":"",
			"node":"M0HTM48AA222ZO",
			"tag":"M0HTM48AA222ZO",
			"type":0
		},
		{
			"gid":"",
			"node":"M0HTM48CF101",
			"tag":"M0HTM48CF101",
			"type":0
		},
		{
			"gid":"",
			"node":"M0HTM48CF102",
			"tag":"M0HTM48CF102",
			"type":0
		},
		{
			"gid":"",
			"node":"M0HTQ41AA221",
			"tag":"M0HTQ41AA221",
			"type":0
		},
		{
			"gid":"",
			"node":"M0HTQ41AA221-RP",
			"tag":"M0HTQ41AA221-RP",
			"type":0
		},
		{
			"gid":"",
			"node":"M0HTQ41AA221ZC",
			"tag":"M0HTQ41AA221ZC",
			"type":0
		},
		{
			"gid":"",
			"node":"M0HTQ41AA221ZO",
			"tag":"M0HTQ41AA221ZO",
			"type":0
		},
		{
			"gid":"",
			"node":"M0HTQ41AA222",
			"tag":"M0HTQ41AA222",
			"type":0
		},
		{
			"gid":"",
			"node":"M0HTQ41AA222-RP",
			"tag":"M0HTQ41AA222-RP",
			"type":0
		},
		{
			"gid":"",
			"node":"M0HTQ41AA222ZC",
			"tag":"M0HTQ41AA222ZC",
			"type":0
		},
		{
			"gid":"",
			"node":"M0HTQ41AA222ZO",
			"tag":"M0HTQ41AA222ZO",
			"type":0
		},
		{
			"gid":"",
			"node":"M0HTQ72AA202",
			"tag":"M0HTQ72AA202",
			"type":0
		}
	],
	"name":"yc3_realtime_076",
	"table":"rdcs_yc3.yc3_realtime"
}