{
	"file":"yc3_realtime_019",
	"items":[
		{
			"gid":"",
			"node":"50HTQ10AA201AZC",
			"tag":"50HTQ10AA201AZC",
			"type":0
		},
		{
			"gid":"",
			"node":"50HTQ10AA201AZO",
			"tag":"50HTQ10AA201AZO",
			"type":0
		},
		{
			"gid":"",
			"node":"50HTQ10AA201B-CK",
			"tag":"50HTQ10AA201B-CK",
			"type":0
		},
		{
			"gid":"",
			"node":"50HTQ10AA201B",
			"tag":"50HTQ10AA201B",
			"type":0
		},
		{
			"gid":"",
			"node":"50HTQ10AA201BZC",
			"tag":"50HTQ10AA201BZC",
			"type":0
		},
		{
			"gid":"",
			"node":"50HTQ10AA201BZO",
			"tag":"50HTQ10AA201BZO",
			"type":0
		},
		{
			"gid":"",
			"node":"50HTQ10AA201C-CK",
			"tag":"50HTQ10AA201C-CK",
			"type":0
		},
		{
			"gid":"",
			"node":"50HTQ10AA201C",
			"tag":"50HTQ10AA201C",
			"type":0
		},
		{
			"gid":"",
			"node":"50HTQ10AA201CZC",
			"tag":"50HTQ10AA201CZC",
			"type":0
		},
		{
			"gid":"",
			"node":"50HTQ10AA201CZO",
			"tag":"50HTQ10AA201CZO",
			"type":0
		},
		{
			"gid":"",
			"node":"50HTQ10AA201D-CK",
			"tag":"50HTQ10AA201D-CK",
			"type":0
		},
		{
			"gid":"",
			"node":"50HTQ10AA201D",
			"tag":"50HTQ10AA201D",
			"type":0
		},
		{
			"gid":"",
			"node":"50HTQ10AA201DZC",
			"tag":"50HTQ10AA201DZC",
			"type":0
		},
		{
			"gid":"",
			"node":"50HTQ10AA201DZO",
			"tag":"50HTQ10AA201DZO",
			"type":0
		},
		{
			"gid":"",
			"node":"50HTQ10AA202A-CK",
			"tag":"50HTQ10AA202A-CK",
			"type":0
		},
		{
			"gid":"",
			"node":"50HTQ10AA202A",
			"tag":"50HTQ10AA202A",
			"type":0
		},
		{
			"gid":"",
			"node":"50HTQ10AA202AZC",
			"tag":"50HTQ10AA202AZC",
			"type":0
		},
		{
			"gid":"",
			"node":"50HTQ10AA202AZO",
			"tag":"50HTQ10AA202AZO",
			"type":0
		},
		{
			"gid":"",
			"node":"50HTQ10AA202B-CK",
			"tag":"50HTQ10AA202B-CK",
			"type":0
		},
		{
			"gid":"",
			"node":"50HTQ10AA202B",
			"tag":"50HTQ10AA202B",
			"type":0
		},
		{
			"gid":"",
			"node":"50HTQ10AA202BZC",
			"tag":"50HTQ10AA202BZC",
			"type":0
		},
		{
			"gid":"",
			"node":"50HTQ10AA202BZO",
			"tag":"50HTQ10AA202BZO",
			"type":0
		},
		{
			"gid":"",
			"node":"50HTQ10AA202C-CK",
			"tag":"50HTQ10AA202C-CK",
			"type":0
		},
		{
			"gid":"",
			"node":"50HTQ10AA202C",
			"tag":"50HTQ10AA202C",
			"type":0
		},
		{
			"gid":"",
			"node":"50HTQ10AA202CZC",
			"tag":"50HTQ10AA202CZC",
			"type":0
		},
		{
			"gid":"",
			"node":"50HTQ10AA202CZO",
			"tag":"50HTQ10AA202CZO",
			"type":0
		},
		{
			"gid":"",
			"node":"50HTQ10AA202D-CK",
			"tag":"50HTQ10AA202D-CK",
			"type":0
		},
		{
			"gid":"",
			"node":"50HTQ10AA202D",
			"tag":"50HTQ10AA202D",
			"type":0
		},
		{
			"gid":"",
			"node":"50HTQ10AA202DZC",
			"tag":"50HTQ10AA202DZC",
			"type":0
		},
		{
			"gid":"",
			"node":"50HTQ10AA202DZO",
			"tag":"50HTQ10AA202DZO",
			"type":0
		},
		{
			"gid":"",
			"node":"50HTQ10AA203A-CK",
			"tag":"50HTQ10AA203A-CK",
			"type":0
		},
		{
			"gid":"",
			"node":"50HTQ10AA203A",
			"tag":"50HTQ10AA203A",
			"type":0
		},
		{
			"gid":"",
			"node":"50HTQ10AA203AZC",
			"tag":"50HTQ10AA203AZC",
			"type":0
		},
		{
			"gid":"",
			"node":"50HTQ10AA203AZO",
			"tag":"50HTQ10AA203AZO",
			"type":0
		},
		{
			"gid":"",
			"node":"50HTQ10AA203B-CK",
			"tag":"50HTQ10AA203B-CK",
			"type":0
		},
		{
			"gid":"",
			"node":"50HTQ10AA203B",
			"tag":"50HTQ10AA203B",
			"type":0
		},
		{
			"gid":"",
			"node":"50HTQ10AA203BZC",
			"tag":"50HTQ10AA203BZC",
			"type":0
		},
		{
			"gid":"",
			"node":"50HTQ10AA203BZO",
			"tag":"50HTQ10AA203BZO",
			"type":0
		},
		{
			"gid":"",
			"node":"50HTQ10AA203C-CK",
			"tag":"50HTQ10AA203C-CK",
			"type":0
		},
		{
			"gid":"",
			"node":"50HTQ10AA203C",
			"tag":"50HTQ10AA203C",
			"type":0
		},
		{
			"gid":"",
			"node":"50HTQ10AA203CZC",
			"tag":"50HTQ10AA203CZC",
			"type":0
		},
		{
			"gid":"",
			"node":"50HTQ10AA203CZO",
			"tag":"50HTQ10AA203CZO",
			"type":0
		},
		{
			"gid":"",
			"node":"50HTQ10AA203D-CK",
			"tag":"50HTQ10AA203D-CK",
			"type":0
		},
		{
			"gid":"",
			"node":"50HTQ10AA203D",
			"tag":"50HTQ10AA203D",
			"type":0
		},
		{
			"gid":"",
			"node":"50HTQ10AA203DZC",
			"tag":"50HTQ10AA203DZC",
			"type":0
		},
		{
			"gid":"",
			"node":"50HTQ10AA203DZO",
			"tag":"50HTQ10AA203DZO",
			"type":0
		},
		{
			"gid":"",
			"node":"50HTQ21AA201A-CK",
			"tag":"50HTQ21AA201A-CK",
			"type":0
		},
		{
			"gid":"",
			"node":"50HTQ21AA201A",
			"tag":"50HTQ21AA201A",
			"type":0
		},
		{
			"gid":"",
			"node":"50HTQ21AA201B-CK",
			"tag":"50HTQ21AA201B-CK",
			"type":0
		},
		{
			"gid":"",
			"node":"50HTQ21AA201B",
			"tag":"50HTQ21AA201B",
			"type":0
		}
	],
	"name":"yc3_realtime_019",
	"table":"rdcs_yc3.yc3_realtime"
}