{
	"file":"yc3_realtime_053",
	"items":[
		{
			"gid":"",
			"node":"15205-SLV02-S",
			"tag":"15205-SLV02-S",
			"type":0
		},
		{
			"gid":"",
			"node":"15205-SLV04-S",
			"tag":"15205-SLV04-S",
			"type":0
		},
		{
			"gid":"",
			"node":"15205-SLV05-S",
			"tag":"15205-SLV05-S",
			"type":0
		},
		{
			"gid":"",
			"node":"15205-SLV08-S",
			"tag":"15205-SLV08-S",
			"type":0
		},
		{
			"gid":"",
			"node":"15205-SLV09-S",
			"tag":"15205-SLV09-S",
			"type":0
		},
		{
			"gid":"",
			"node":"15205-SLV10-S",
			"tag":"15205-SLV10-S",
			"type":0
		},
		{
			"gid":"",
			"node":"15205-SLV11-S",
			"tag":"15205-SLV11-S",
			"type":0
		},
		{
			"gid":"",
			"node":"15205-SLV12-S",
			"tag":"15205-SLV12-S",
			"type":0
		},
		{
			"gid":"",
			"node":"15205-SLV13-S",
			"tag":"15205-SLV13-S",
			"type":0
		},
		{
			"gid":"",
			"node":"15205-SLV14-S",
			"tag":"15205-SLV14-S",
			"type":0
		},
		{
			"gid":"",
			"node":"15205-SLV15-S",
			"tag":"15205-SLV15-S",
			"type":0
		},
		{
			"gid":"",
			"node":"15205-SLV16-S",
			"tag":"15205-SLV16-S",
			"type":0
		},
		{
			"gid":"",
			"node":"15205-SLV17-S",
			"tag":"15205-SLV17-S",
			"type":0
		},
		{
			"gid":"",
			"node":"15205-SLV18-S",
			"tag":"15205-SLV18-S",
			"type":0
		},
		{
			"gid":"",
			"node":"15205-SLV19-S",
			"tag":"15205-SLV19-S",
			"type":0
		},
		{
			"gid":"",
			"node":"15205-SLV20-S",
			"tag":"15205-SLV20-S",
			"type":0
		},
		{
			"gid":"",
			"node":"15205-SLV21-S",
			"tag":"15205-SLV21-S",
			"type":0
		},
		{
			"gid":"",
			"node":"15205-SLV22-S",
			"tag":"15205-SLV22-S",
			"type":0
		},
		{
			"gid":"",
			"node":"15205-SLV27-S",
			"tag":"15205-SLV27-S",
			"type":0
		},
		{
			"gid":"",
			"node":"15205-SLV28-S",
			"tag":"15205-SLV28-S",
			"type":0
		},
		{
			"gid":"",
			"node":"15205-SLV29-S",
			"tag":"15205-SLV29-S",
			"type":0
		},
		{
			"gid":"",
			"node":"15205-SLV30-S",
			"tag":"15205-SLV30-S",
			"type":0
		},
		{
			"gid":"",
			"node":"15205-SLV31-S",
			"tag":"15205-SLV31-S",
			"type":0
		},
		{
			"gid":"",
			"node":"15205-SLV32-S",
			"tag":"15205-SLV32-S",
			"type":0
		},
		{
			"gid":"",
			"node":"15205-SLV33-S",
			"tag":"15205-SLV33-S",
			"type":0
		},
		{
			"gid":"",
			"node":"15205-SLV34-S",
			"tag":"15205-SLV34-S",
			"type":0
		},
		{
			"gid":"",
			"node":"15205-SLV35-S",
			"tag":"15205-SLV35-S",
			"type":0
		},
		{
			"gid":"",
			"node":"15205-SLV36-S",
			"tag":"15205-SLV36-S",
			"type":0
		},
		{
			"gid":"",
			"node":"10803-SLV01-S",
			"tag":"10803-SLV01-S",
			"type":0
		},
		{
			"gid":"",
			"node":"10803-SLV02-S",
			"tag":"10803-SLV02-S",
			"type":0
		},
		{
			"gid":"",
			"node":"10803-SLV03-S",
			"tag":"10803-SLV03-S",
			"type":0
		},
		{
			"gid":"",
			"node":"10803-SLV04-S",
			"tag":"10803-SLV04-S",
			"type":0
		},
		{
			"gid":"",
			"node":"10803-SLV05-S",
			"tag":"10803-SLV05-S",
			"type":0
		},
		{
			"gid":"",
			"node":"10803-SLV06-S",
			"tag":"10803-SLV06-S",
			"type":0
		},
		{
			"gid":"",
			"node":"10803-SLV09-S",
			"tag":"10803-SLV09-S",
			"type":0
		},
		{
			"gid":"",
			"node":"10803-SLV10-S",
			"tag":"10803-SLV10-S",
			"type":0
		},
		{
			"gid":"",
			"node":"10803-SLV11-S",
			"tag":"10803-SLV11-S",
			"type":0
		},
		{
			"gid":"",
			"node":"10803-SLV12-S",
			"tag":"10803-SLV12-S",
			"type":0
		},
		{
			"gid":"",
			"node":"10803-SLV13-S",
			"tag":"10803-SLV13-S",
			"type":0
		},
		{
			"gid":"",
			"node":"10803-SLV14-S",
			"tag":"10803-SLV14-S",
			"type":0
		},
		{
			"gid":"",
			"node":"10803-SLV15-S",
			"tag":"10803-SLV15-S",
			"type":0
		},
		{
			"gid":"",
			"node":"10803-SLV16-S",
			"tag":"10803-SLV16-S",
			"type":0
		},
		{
			"gid":"",
			"node":"10803-SLV17-S",
			"tag":"10803-SLV17-S",
			"type":0
		},
		{
			"gid":"",
			"node":"10803-SLV18-S",
			"tag":"10803-SLV18-S",
			"type":0
		},
		{
			"gid":"",
			"node":"10803-SLV19-S",
			"tag":"10803-SLV19-S",
			"type":0
		},
		{
			"gid":"",
			"node":"10803-SLV23-S",
			"tag":"10803-SLV23-S",
			"type":0
		},
		{
			"gid":"",
			"node":"10803-SLV25-S",
			"tag":"10803-SLV25-S",
			"type":0
		},
		{
			"gid":"",
			"node":"10803-SLV26-S",
			"tag":"10803-SLV26-S",
			"type":0
		},
		{
			"gid":"",
			"node":"10803-SLV27-S",
			"tag":"10803-SLV27-S",
			"type":0
		},
		{
			"gid":"",
			"node":"10803-SLV28-S",
			"tag":"10803-SLV28-S",
			"type":0
		}
	],
	"name":"yc3_realtime_053",
	"table":"rdcs_yc3.yc3_realtime"
}