{
	"file":"yc3_realtime_034",
	"items":[
		{
			"gid":"",
			"node":"60HTF11AP001T-J",
			"tag":"60HTF11AP001T-J",
			"type":0
		},
		{
			"gid":"",
			"node":"60HTF11AP001T-M",
			"tag":"60HTF11AP001T-M",
			"type":0
		},
		{
			"gid":"",
			"node":"60HTF11AP001T-N",
			"tag":"60HTF11AP001T-N",
			"type":0
		},
		{
			"gid":"",
			"node":"60HTF11AP001T-O",
			"tag":"60HTF11AP001T-O",
			"type":0
		},
		{
			"gid":"",
			"node":"60HTF11AP001T-P",
			"tag":"60HTF11AP001T-P",
			"type":0
		},
		{
			"gid":"",
			"node":"60HTF11AP001T-T",
			"tag":"60HTF11AP001T-T",
			"type":0
		},
		{
			"gid":"",
			"node":"60HTF11AP001ZF",
			"tag":"60HTF11AP001ZF",
			"type":0
		},
		{
			"gid":"",
			"node":"60HTF11AP001ZS",
			"tag":"60HTF11AP001ZS",
			"type":0
		},
		{
			"gid":"",
			"node":"60HTF11CT301",
			"tag":"60HTF11CT301",
			"type":0
		},
		{
			"gid":"",
			"node":"60HTF11CT301-T",
			"tag":"60HTF11CT301-T",
			"type":0
		},
		{
			"gid":"",
			"node":"60HTF11CT301H",
			"tag":"60HTF11CT301H",
			"type":0
		},
		{
			"gid":"",
			"node":"60HTF11CT301RCM",
			"tag":"60HTF11CT301RCM",
			"type":0
		},
		{
			"gid":"",
			"node":"60HTF11CT302",
			"tag":"60HTF11CT302",
			"type":0
		},
		{
			"gid":"",
			"node":"60HTF11CT302-T",
			"tag":"60HTF11CT302-T",
			"type":0
		},
		{
			"gid":"",
			"node":"60HTF11CT302H",
			"tag":"60HTF11CT302H",
			"type":0
		},
		{
			"gid":"",
			"node":"60HTF11CT302RCM",
			"tag":"60HTF11CT302RCM",
			"type":0
		},
		{
			"gid":"",
			"node":"60HTF11CT303",
			"tag":"60HTF11CT303",
			"type":0
		},
		{
			"gid":"",
			"node":"60HTF11CT303-T",
			"tag":"60HTF11CT303-T",
			"type":0
		},
		{
			"gid":"",
			"node":"60HTF11CT303H",
			"tag":"60HTF11CT303H",
			"type":0
		},
		{
			"gid":"",
			"node":"60HTF11CT303RCM",
			"tag":"60HTF11CT303RCM",
			"type":0
		},
		{
			"gid":"",
			"node":"60HTF11CT307",
			"tag":"60HTF11CT307",
			"type":0
		},
		{
			"gid":"",
			"node":"60HTF11CT307-T",
			"tag":"60HTF11CT307-T",
			"type":0
		},
		{
			"gid":"",
			"node":"60HTF11CT307H",
			"tag":"60HTF11CT307H",
			"type":0
		},
		{
			"gid":"",
			"node":"60HTF11CT307RCM",
			"tag":"60HTF11CT307RCM",
			"type":0
		},
		{
			"gid":"",
			"node":"60HTF11CT308",
			"tag":"60HTF11CT308",
			"type":0
		},
		{
			"gid":"",
			"node":"60HTF11CT308-T",
			"tag":"60HTF11CT308-T",
			"type":0
		},
		{
			"gid":"",
			"node":"60HTF11CT308H",
			"tag":"60HTF11CT308H",
			"type":0
		},
		{
			"gid":"",
			"node":"60HTF11CT308RCM",
			"tag":"60HTF11CT308RCM",
			"type":0
		},
		{
			"gid":"",
			"node":"60HTF11CT309",
			"tag":"60HTF11CT309",
			"type":0
		},
		{
			"gid":"",
			"node":"60HTF11CT309-T",
			"tag":"60HTF11CT309-T",
			"type":0
		},
		{
			"gid":"",
			"node":"60HTF11CT309H",
			"tag":"60HTF11CT309H",
			"type":0
		},
		{
			"gid":"",
			"node":"60HTF11CT309RCM",
			"tag":"60HTF11CT309RCM",
			"type":0
		},
		{
			"gid":"",
			"node":"60HTF11CT310",
			"tag":"60HTF11CT310",
			"type":0
		},
		{
			"gid":"",
			"node":"60HTF11CT310-T",
			"tag":"60HTF11CT310-T",
			"type":0
		},
		{
			"gid":"",
			"node":"60HTF11CT310H",
			"tag":"60HTF11CT310H",
			"type":0
		},
		{
			"gid":"",
			"node":"60HTF11CT310RCM",
			"tag":"60HTF11CT310RCM",
			"type":0
		},
		{
			"gid":"",
			"node":"60HTF12-BEART-E",
			"tag":"60HTF12-BEART-E",
			"type":0
		},
		{
			"gid":"",
			"node":"60HTF12INDRAIN-E",
			"tag":"60HTF12INDRAIN-E",
			"type":0
		},
		{
			"gid":"",
			"node":"60HTF12-INVLV-E",
			"tag":"60HTF12-INVLV-E",
			"type":0
		},
		{
			"gid":"",
			"node":"60HTF12-LEVEL-E",
			"tag":"60HTF12-LEVEL-E",
			"type":0
		},
		{
			"gid":"",
			"node":"60HTF12MTBEART-E",
			"tag":"60HTF12MTBEART-E",
			"type":0
		},
		{
			"gid":"",
			"node":"60HTF12MTWINDT-E",
			"tag":"60HTF12MTWINDT-E",
			"type":0
		},
		{
			"gid":"",
			"node":"60HTF12OUTWASH-E",
			"tag":"60HTF12OUTWASH-E",
			"type":0
		},
		{
			"gid":"",
			"node":"60HTF12AA201-SCK",
			"tag":"60HTF12AA201-SCK",
			"type":0
		},
		{
			"gid":"",
			"node":"60HTF12AA201",
			"tag":"60HTF12AA201",
			"type":0
		},
		{
			"gid":"",
			"node":"60HTF12AA201CLW",
			"tag":"60HTF12AA201CLW",
			"type":0
		},
		{
			"gid":"",
			"node":"60HTF12AA201OLW",
			"tag":"60HTF12AA201OLW",
			"type":0
		},
		{
			"gid":"",
			"node":"60HTF12AA201ZC",
			"tag":"60HTF12AA201ZC",
			"type":0
		},
		{
			"gid":"",
			"node":"60HTF12AA201ZF",
			"tag":"60HTF12AA201ZF",
			"type":0
		},
		{
			"gid":"",
			"node":"60HTF12AA201ZO",
			"tag":"60HTF12AA201ZO",
			"type":0
		}
	],
	"name":"yc3_realtime_034",
	"table":"rdcs_yc3.yc3_realtime"
}