{
	"file":"yc3_realtime_027",
	"items":[
		{
			"gid":"",
			"node":"60HTC10CT306",
			"tag":"60HTC10CT306",
			"type":0
		},
		{
			"gid":"",
			"node":"60HTC10CT306-T",
			"tag":"60HTC10CT306-T",
			"type":0
		},
		{
			"gid":"",
			"node":"60HTC10CT306H",
			"tag":"60HTC10CT306H",
			"type":0
		},
		{
			"gid":"",
			"node":"60HTC10CT306RCM",
			"tag":"60HTC10CT306RCM",
			"type":0
		},
		{
			"gid":"",
			"node":"60HTC10CT307",
			"tag":"60HTC10CT307",
			"type":0
		},
		{
			"gid":"",
			"node":"60HTC10CT307-T",
			"tag":"60HTC10CT307-T",
			"type":0
		},
		{
			"gid":"",
			"node":"60HTC10CT307H",
			"tag":"60HTC10CT307H",
			"type":0
		},
		{
			"gid":"",
			"node":"60HTC10CT307RCM",
			"tag":"60HTC10CT307RCM",
			"type":0
		},
		{
			"gid":"",
			"node":"60HTC10CT308",
			"tag":"60HTC10CT308",
			"type":0
		},
		{
			"gid":"",
			"node":"60HTC10CT308-T",
			"tag":"60HTC10CT308-T",
			"type":0
		},
		{
			"gid":"",
			"node":"60HTC10CT308H",
			"tag":"60HTC10CT308H",
			"type":0
		},
		{
			"gid":"",
			"node":"60HTC10CT308RCM",
			"tag":"60HTC10CT308RCM",
			"type":0
		},
		{
			"gid":"",
			"node":"60HTC10CT309",
			"tag":"60HTC10CT309",
			"type":0
		},
		{
			"gid":"",
			"node":"60HTC10CT309-T",
			"tag":"60HTC10CT309-T",
			"type":0
		},
		{
			"gid":"",
			"node":"60HTC10CT309H",
			"tag":"60HTC10CT309H",
			"type":0
		},
		{
			"gid":"",
			"node":"60HTC10CT309RCM",
			"tag":"60HTC10CT309RCM",
			"type":0
		},
		{
			"gid":"",
			"node":"60HTC10CT310",
			"tag":"60HTC10CT310",
			"type":0
		},
		{
			"gid":"",
			"node":"60HTC10CT310-T",
			"tag":"60HTC10CT310-T",
			"type":0
		},
		{
			"gid":"",
			"node":"60HTC10CT310H",
			"tag":"60HTC10CT310H",
			"type":0
		},
		{
			"gid":"",
			"node":"60HTC10CT310RCM",
			"tag":"60HTC10CT310RCM",
			"type":0
		},
		{
			"gid":"",
			"node":"60HTC10CT311",
			"tag":"60HTC10CT311",
			"type":0
		},
		{
			"gid":"",
			"node":"60HTC10CT311-T",
			"tag":"60HTC10CT311-T",
			"type":0
		},
		{
			"gid":"",
			"node":"60HTC10CT311H",
			"tag":"60HTC10CT311H",
			"type":0
		},
		{
			"gid":"",
			"node":"60HTC10CT311RCM",
			"tag":"60HTC10CT311RCM",
			"type":0
		},
		{
			"gid":"",
			"node":"60HTC10AA001",
			"tag":"60HTC10AA001",
			"type":0
		},
		{
			"gid":"",
			"node":"60HTC10CY001H",
			"tag":"60HTC10CY001H",
			"type":0
		},
		{
			"gid":"",
			"node":"60HTC10CY002H",
			"tag":"60HTC10CY002H",
			"type":0
		},
		{
			"gid":"",
			"node":"60HTC10CY101",
			"tag":"60HTC10CY101",
			"type":0
		},
		{
			"gid":"",
			"node":"60HTC10CY102",
			"tag":"60HTC10CY102",
			"type":0
		},
		{
			"gid":"",
			"node":"60HTC21AN001-L",
			"tag":"60HTC21AN001-L",
			"type":0
		},
		{
			"gid":"",
			"node":"60HTC21AN001-SAT",
			"tag":"60HTC21AN001-SAT",
			"type":0
		},
		{
			"gid":"",
			"node":"60HTC21AN001-SCK",
			"tag":"60HTC21AN001-SCK",
			"type":0
		},
		{
			"gid":"",
			"node":"60HTC21AN001-SEL",
			"tag":"60HTC21AN001-SEL",
			"type":0
		},
		{
			"gid":"",
			"node":"60HTC21AN001",
			"tag":"60HTC21AN001",
			"type":0
		},
		{
			"gid":"",
			"node":"60HTC21AN001RM",
			"tag":"60HTC21AN001RM",
			"type":0
		},
		{
			"gid":"",
			"node":"60HTC21AN001ZD",
			"tag":"60HTC21AN001ZD",
			"type":0
		},
		{
			"gid":"",
			"node":"60HTC21AN001ZF",
			"tag":"60HTC21AN001ZF",
			"type":0
		},
		{
			"gid":"",
			"node":"60HTC21AN001ZS",
			"tag":"60HTC21AN001ZS",
			"type":0
		},
		{
			"gid":"",
			"node":"60HTC22AN001-SAT",
			"tag":"60HTC22AN001-SAT",
			"type":0
		},
		{
			"gid":"",
			"node":"60HTC22AN001-SCK",
			"tag":"60HTC22AN001-SCK",
			"type":0
		},
		{
			"gid":"",
			"node":"60HTC22AN001",
			"tag":"60HTC22AN001",
			"type":0
		},
		{
			"gid":"",
			"node":"60HTC22AN001RM",
			"tag":"60HTC22AN001RM",
			"type":0
		},
		{
			"gid":"",
			"node":"60HTC22AN001ZD",
			"tag":"60HTC22AN001ZD",
			"type":0
		},
		{
			"gid":"",
			"node":"60HTC22AN001ZF",
			"tag":"60HTC22AN001ZF",
			"type":0
		},
		{
			"gid":"",
			"node":"60HTC22AN001ZS",
			"tag":"60HTC22AN001ZS",
			"type":0
		},
		{
			"gid":"",
			"node":"60HTC30AX501X1",
			"tag":"60HTC30AX501X1",
			"type":0
		},
		{
			"gid":"",
			"node":"60HTC30AX501X10",
			"tag":"60HTC30AX501X10",
			"type":0
		},
		{
			"gid":"",
			"node":"60HTC30AX501X2",
			"tag":"60HTC30AX501X2",
			"type":0
		},
		{
			"gid":"",
			"node":"60HTC30AX501X3",
			"tag":"60HTC30AX501X3",
			"type":0
		},
		{
			"gid":"",
			"node":"60HTC30AX501X4",
			"tag":"60HTC30AX501X4",
			"type":0
		}
	],
	"name":"yc3_realtime_027",
	"table":"rdcs_yc3.yc3_realtime"
}