{
	"file":"yc3_realtime_094",
	"items":[
		{
			"gid":"",
			"node":"5B-DI06",
			"tag":"5B-DI06",
			"type":0
		},
		{
			"gid":"",
			"node":"5B-DI07",
			"tag":"5B-DI07",
			"type":0
		},
		{
			"gid":"",
			"node":"5B-DI08",
			"tag":"5B-DI08",
			"type":0
		},
		{
			"gid":"",
			"node":"5B-DI09",
			"tag":"5B-DI09",
			"type":0
		},
		{
			"gid":"",
			"node":"5B-DI10",
			"tag":"5B-DI10",
			"type":0
		},
		{
			"gid":"",
			"node":"5B-DI11",
			"tag":"5B-DI11",
			"type":0
		},
		{
			"gid":"",
			"node":"5B-DI12",
			"tag":"5B-DI12",
			"type":0
		},
		{
			"gid":"",
			"node":"5B-DI13",
			"tag":"5B-DI13",
			"type":0
		},
		{
			"gid":"",
			"node":"5B-DI14",
			"tag":"5B-DI14",
			"type":0
		},
		{
			"gid":"",
			"node":"5B-DI15",
			"tag":"5B-DI15",
			"type":0
		},
		{
			"gid":"",
			"node":"5B-DI16",
			"tag":"5B-DI16",
			"type":0
		},
		{
			"gid":"",
			"node":"5B-AI01",
			"tag":"5B-AI01",
			"type":0
		},
		{
			"gid":"",
			"node":"5B-AI02",
			"tag":"5B-AI02",
			"type":0
		},
		{
			"gid":"",
			"node":"5B-AI03",
			"tag":"5B-AI03",
			"type":0
		},
		{
			"gid":"",
			"node":"5B-AI04",
			"tag":"5B-AI04",
			"type":0
		},
		{
			"gid":"",
			"node":"5B-AI05",
			"tag":"5B-AI05",
			"type":0
		},
		{
			"gid":"",
			"node":"5B-AI06",
			"tag":"5B-AI06",
			"type":0
		},
		{
			"gid":"",
			"node":"5B-AI07",
			"tag":"5B-AI07",
			"type":0
		},
		{
			"gid":"",
			"node":"5B-AI08",
			"tag":"5B-AI08",
			"type":0
		},
		{
			"gid":"",
			"node":"5B-AI09",
			"tag":"5B-AI09",
			"type":0
		},
		{
			"gid":"",
			"node":"5B-DI17",
			"tag":"5B-DI17",
			"type":0
		},
		{
			"gid":"",
			"node":"5B-DI18",
			"tag":"5B-DI18",
			"type":0
		},
		{
			"gid":"",
			"node":"5B-DI19",
			"tag":"5B-DI19",
			"type":0
		},
		{
			"gid":"",
			"node":"5B-DI20",
			"tag":"5B-DI20",
			"type":0
		},
		{
			"gid":"",
			"node":"5B-DI21",
			"tag":"5B-DI21",
			"type":0
		},
		{
			"gid":"",
			"node":"5B-DI22",
			"tag":"5B-DI22",
			"type":0
		},
		{
			"gid":"",
			"node":"5B-DI23",
			"tag":"5B-DI23",
			"type":0
		},
		{
			"gid":"",
			"node":"5B-DI24",
			"tag":"5B-DI24",
			"type":0
		},
		{
			"gid":"",
			"node":"5B-DI25",
			"tag":"5B-DI25",
			"type":0
		},
		{
			"gid":"",
			"node":"5B-DI26",
			"tag":"5B-DI26",
			"type":0
		},
		{
			"gid":"",
			"node":"5B-DI27",
			"tag":"5B-DI27",
			"type":0
		},
		{
			"gid":"",
			"node":"5B-DI28",
			"tag":"5B-DI28",
			"type":0
		},
		{
			"gid":"",
			"node":"5B-DI29",
			"tag":"5B-DI29",
			"type":0
		},
		{
			"gid":"",
			"node":"5B-DI30",
			"tag":"5B-DI30",
			"type":0
		},
		{
			"gid":"",
			"node":"5B-DI31",
			"tag":"5B-DI31",
			"type":0
		},
		{
			"gid":"",
			"node":"5B-DI32",
			"tag":"5B-DI32",
			"type":0
		},
		{
			"gid":"",
			"node":"5B-AI10",
			"tag":"5B-AI10",
			"type":0
		},
		{
			"gid":"",
			"node":"5B-AI11",
			"tag":"5B-AI11",
			"type":0
		},
		{
			"gid":"",
			"node":"5B-AI12",
			"tag":"5B-AI12",
			"type":0
		},
		{
			"gid":"",
			"node":"5B-AI13",
			"tag":"5B-AI13",
			"type":0
		},
		{
			"gid":"",
			"node":"5B-AI14",
			"tag":"5B-AI14",
			"type":0
		},
		{
			"gid":"",
			"node":"5B-AI15",
			"tag":"5B-AI15",
			"type":0
		},
		{
			"gid":"",
			"node":"5B-AI16",
			"tag":"5B-AI16",
			"type":0
		},
		{
			"gid":"",
			"node":"5B-AI17",
			"tag":"5B-AI17",
			"type":0
		},
		{
			"gid":"",
			"node":"5B-AI18",
			"tag":"5B-AI18",
			"type":0
		},
		{
			"gid":"",
			"node":"5B-AI19",
			"tag":"5B-AI19",
			"type":0
		},
		{
			"gid":"",
			"node":"5B-AI20",
			"tag":"5B-AI20",
			"type":0
		},
		{
			"gid":"",
			"node":"5B-AI21",
			"tag":"5B-AI21",
			"type":0
		},
		{
			"gid":"",
			"node":"5B-AI22",
			"tag":"5B-AI22",
			"type":0
		},
		{
			"gid":"",
			"node":"5B-AI23",
			"tag":"5B-AI23",
			"type":0
		}
	],
	"name":"yc3_realtime_094",
	"table":"rdcs_yc3.yc3_realtime"
}