{
	"file":"yc3_realtime_065",
	"items":[
		{
			"gid":"",
			"node":"M0CXE18DO002-RP",
			"tag":"M0CXE18DO002-RP",
			"type":0
		},
		{
			"gid":"",
			"node":"M0CXE18DO004",
			"tag":"M0CXE18DO004",
			"type":0
		},
		{
			"gid":"",
			"node":"M0CXE18DO004-RP",
			"tag":"M0CXE18DO004-RP",
			"type":0
		},
		{
			"gid":"",
			"node":"M0CXE1P-J",
			"tag":"M0CXE1P-J",
			"type":0
		},
		{
			"gid":"",
			"node":"M0CXE1P-M",
			"tag":"M0CXE1P-M",
			"type":0
		},
		{
			"gid":"",
			"node":"M0CXE1P-N",
			"tag":"M0CXE1P-N",
			"type":0
		},
		{
			"gid":"",
			"node":"M0CXE1P-O",
			"tag":"M0CXE1P-O",
			"type":0
		},
		{
			"gid":"",
			"node":"M0CXE1P-P",
			"tag":"M0CXE1P-P",
			"type":0
		},
		{
			"gid":"",
			"node":"M0CXE1P-T",
			"tag":"M0CXE1P-T",
			"type":0
		},
		{
			"gid":"",
			"node":"M0CXE1R-J",
			"tag":"M0CXE1R-J",
			"type":0
		},
		{
			"gid":"",
			"node":"M0CXE1R-M",
			"tag":"M0CXE1R-M",
			"type":0
		},
		{
			"gid":"",
			"node":"M0CXE1R-N",
			"tag":"M0CXE1R-N",
			"type":0
		},
		{
			"gid":"",
			"node":"M0CXE1R-O",
			"tag":"M0CXE1R-O",
			"type":0
		},
		{
			"gid":"",
			"node":"M0CXE1R-P",
			"tag":"M0CXE1R-P",
			"type":0
		},
		{
			"gid":"",
			"node":"M0CXE1R-T",
			"tag":"M0CXE1R-T",
			"type":0
		},
		{
			"gid":"",
			"node":"M0CXE20DI001",
			"tag":"M0CXE20DI001",
			"type":0
		},
		{
			"gid":"",
			"node":"M0CXE20DI002",
			"tag":"M0CXE20DI002",
			"type":0
		},
		{
			"gid":"",
			"node":"M0CXE20DI003",
			"tag":"M0CXE20DI003",
			"type":0
		},
		{
			"gid":"",
			"node":"M0CXE20DI004",
			"tag":"M0CXE20DI004",
			"type":0
		},
		{
			"gid":"",
			"node":"M0CXE20DI005",
			"tag":"M0CXE20DI005",
			"type":0
		},
		{
			"gid":"",
			"node":"M0CXE20DI006",
			"tag":"M0CXE20DI006",
			"type":0
		},
		{
			"gid":"",
			"node":"M0CXE20DI007",
			"tag":"M0CXE20DI007",
			"type":0
		},
		{
			"gid":"",
			"node":"M0CXE20DI008",
			"tag":"M0CXE20DI008",
			"type":0
		},
		{
			"gid":"",
			"node":"M0CXE20DI009",
			"tag":"M0CXE20DI009",
			"type":0
		},
		{
			"gid":"",
			"node":"M0CXE20DI010",
			"tag":"M0CXE20DI010",
			"type":0
		},
		{
			"gid":"",
			"node":"M0CXE20DI011",
			"tag":"M0CXE20DI011",
			"type":0
		},
		{
			"gid":"",
			"node":"M0CXE20DI012",
			"tag":"M0CXE20DI012",
			"type":0
		},
		{
			"gid":"",
			"node":"M0CXE20DI013",
			"tag":"M0CXE20DI013",
			"type":0
		},
		{
			"gid":"",
			"node":"M0CXE20DI014",
			"tag":"M0CXE20DI014",
			"type":0
		},
		{
			"gid":"",
			"node":"M0CXE20DI015",
			"tag":"M0CXE20DI015",
			"type":0
		},
		{
			"gid":"",
			"node":"M0CXE20DI016",
			"tag":"M0CXE20DI016",
			"type":0
		},
		{
			"gid":"",
			"node":"M0CXE20DI017",
			"tag":"M0CXE20DI017",
			"type":0
		},
		{
			"gid":"",
			"node":"M0CXE20DI018",
			"tag":"M0CXE20DI018",
			"type":0
		},
		{
			"gid":"",
			"node":"M0CXE20DI019",
			"tag":"M0CXE20DI019",
			"type":0
		},
		{
			"gid":"",
			"node":"M0CXE20DI020",
			"tag":"M0CXE20DI020",
			"type":0
		},
		{
			"gid":"",
			"node":"M0CXE20DI021",
			"tag":"M0CXE20DI021",
			"type":0
		},
		{
			"gid":"",
			"node":"M0CXE20DI022",
			"tag":"M0CXE20DI022",
			"type":0
		},
		{
			"gid":"",
			"node":"M0CXE20DI023",
			"tag":"M0CXE20DI023",
			"type":0
		},
		{
			"gid":"",
			"node":"M0CXE20DO001",
			"tag":"M0CXE20DO001",
			"type":0
		},
		{
			"gid":"",
			"node":"M0CXE20DO001-RP",
			"tag":"M0CXE20DO001-RP",
			"type":0
		},
		{
			"gid":"",
			"node":"M0CXE20DO003",
			"tag":"M0CXE20DO003",
			"type":0
		},
		{
			"gid":"",
			"node":"M0CXE20DO003-RP",
			"tag":"M0CXE20DO003-RP",
			"type":0
		},
		{
			"gid":"",
			"node":"M0CXE20DO005",
			"tag":"M0CXE20DO005",
			"type":0
		},
		{
			"gid":"",
			"node":"M0CXE20DO005-RP",
			"tag":"M0CXE20DO005-RP",
			"type":0
		},
		{
			"gid":"",
			"node":"M0CXE20DO007",
			"tag":"M0CXE20DO007",
			"type":0
		},
		{
			"gid":"",
			"node":"M0CXE20DO007-RP",
			"tag":"M0CXE20DO007-RP",
			"type":0
		},
		{
			"gid":"",
			"node":"M0CXE20DO009",
			"tag":"M0CXE20DO009",
			"type":0
		},
		{
			"gid":"",
			"node":"M0CXE20DO009-RP",
			"tag":"M0CXE20DO009-RP",
			"type":0
		},
		{
			"gid":"",
			"node":"M0CXE24",
			"tag":"M0CXE24",
			"type":0
		},
		{
			"gid":"",
			"node":"M0CXE24-RP",
			"tag":"M0CXE24-RP",
			"type":0
		}
	],
	"name":"yc3_realtime_065",
	"table":"rdcs_yc3.yc3_realtime"
}