{
	"file":"yc3_realtime_055",
	"items":[
		{
			"gid":"",
			"node":"50BFJ07",
			"tag":"50BFJ07",
			"type":0
		},
		{
			"gid":"",
			"node":"50BFJ07CK",
			"tag":"50BFJ07CK",
			"type":0
		},
		{
			"gid":"",
			"node":"50BFJ07AT",
			"tag":"50BFJ07AT",
			"type":0
		},
		{
			"gid":"",
			"node":"60BFK07",
			"tag":"60BFK07",
			"type":0
		},
		{
			"gid":"",
			"node":"60BFK07CK",
			"tag":"60BFK07CK",
			"type":0
		},
		{
			"gid":"",
			"node":"60BFK07AT",
			"tag":"60BFK07AT",
			"type":0
		},
		{
			"gid":"",
			"node":"15203-SLV30-S",
			"tag":"15203-SLV30-S",
			"type":0
		},
		{
			"gid":"",
			"node":"50HTM42AA101-CS",
			"tag":"50HTM42AA101-CS",
			"type":0
		},
		{
			"gid":"",
			"node":"50HTM42AA101-A",
			"tag":"50HTM42AA101-A",
			"type":0
		},
		{
			"gid":"",
			"node":"50HTL21AP001-CS",
			"tag":"50HTL21AP001-CS",
			"type":0
		},
		{
			"gid":"",
			"node":"50HTL21AP001-A",
			"tag":"50HTL21AP001-A",
			"type":0
		},
		{
			"gid":"",
			"node":"50HTL22AP001-CS",
			"tag":"50HTL22AP001-CS",
			"type":0
		},
		{
			"gid":"",
			"node":"50HTL22AP001-A",
			"tag":"50HTL22AP001-A",
			"type":0
		},
		{
			"gid":"",
			"node":"50HTA10CQ118W",
			"tag":"50HTA10CQ118W",
			"type":0
		},
		{
			"gid":"",
			"node":"50HTG10GH501CT",
			"tag":"50HTG10GH501CT",
			"type":0
		},
		{
			"gid":"",
			"node":"50HTA10CQ128W",
			"tag":"50HTA10CQ128W",
			"type":0
		},
		{
			"gid":"",
			"node":"50HTA50CQ108W",
			"tag":"50HTA50CQ108W",
			"type":0
		},
		{
			"gid":"",
			"node":"50HTG10GH501CF",
			"tag":"50HTG10GH501CF",
			"type":0
		},
		{
			"gid":"",
			"node":"50HTG10GH501CP",
			"tag":"50HTG10GH501CP",
			"type":0
		},
		{
			"gid":"",
			"node":"50HTM42AA101GT",
			"tag":"50HTM42AA101GT",
			"type":0
		},
		{
			"gid":"",
			"node":"50HTL21AP001AI",
			"tag":"50HTL21AP001AI",
			"type":0
		},
		{
			"gid":"",
			"node":"50HTL22AP001AI",
			"tag":"50HTL22AP001AI",
			"type":0
		},
		{
			"gid":"",
			"node":"50HTF14CT303",
			"tag":"50HTF14CT303",
			"type":0
		},
		{
			"gid":"",
			"node":"50HTF14CT307",
			"tag":"50HTF14CT307",
			"type":0
		},
		{
			"gid":"",
			"node":"50HTF14CT308",
			"tag":"50HTF14CT308",
			"type":0
		},
		{
			"gid":"",
			"node":"50HTF14AA201ZO",
			"tag":"50HTF14AA201ZO",
			"type":0
		},
		{
			"gid":"",
			"node":"50HTF14AA201ZC",
			"tag":"50HTF14AA201ZC",
			"type":0
		},
		{
			"gid":"",
			"node":"50HTF14AA201ZF",
			"tag":"50HTF14AA201ZF",
			"type":0
		},
		{
			"gid":"",
			"node":"50HTM42AA101ZF",
			"tag":"50HTM42AA101ZF",
			"type":0
		},
		{
			"gid":"",
			"node":"15205-SLV06-S",
			"tag":"15205-SLV06-S",
			"type":0
		},
		{
			"gid":"",
			"node":"15205-SLV07-S",
			"tag":"15205-SLV07-S",
			"type":0
		},
		{
			"gid":"",
			"node":"50HTF14AP001ZS",
			"tag":"50HTF14AP001ZS",
			"type":0
		},
		{
			"gid":"",
			"node":"50HTF14AP001ZD",
			"tag":"50HTF14AP001ZD",
			"type":0
		},
		{
			"gid":"",
			"node":"50HTF14AP001RM",
			"tag":"50HTF14AP001RM",
			"type":0
		},
		{
			"gid":"",
			"node":"50HTF14AP001PG",
			"tag":"50HTF14AP001PG",
			"type":0
		},
		{
			"gid":"",
			"node":"50HTF14AP001CO",
			"tag":"50HTF14AP001CO",
			"type":0
		},
		{
			"gid":"",
			"node":"50HTF14AP001ZF",
			"tag":"50HTF14AP001ZF",
			"type":0
		},
		{
			"gid":"",
			"node":"50HTF14CP001",
			"tag":"50HTF14CP001",
			"type":0
		},
		{
			"gid":"",
			"node":"50HTF14AA201",
			"tag":"50HTF14AA201",
			"type":0
		},
		{
			"gid":"",
			"node":"50HTF14AA201-SCK",
			"tag":"50HTF14AA201-SCK",
			"type":0
		},
		{
			"gid":"",
			"node":"50HTF14AP001",
			"tag":"50HTF14AP001",
			"type":0
		},
		{
			"gid":"",
			"node":"50HTF14AP001-SCK",
			"tag":"50HTF14AP001-SCK",
			"type":0
		},
		{
			"gid":"",
			"node":"50HTF14AP001-SAT",
			"tag":"50HTF14AP001-SAT",
			"type":0
		},
		{
			"gid":"",
			"node":"50HTJ10CD201/",
			"tag":"50HTJ10CD201/",
			"type":0
		},
		{
			"gid":"",
			"node":"50HTL20CF101W",
			"tag":"50HTL20CF101W",
			"type":0
		},
		{
			"gid":"",
			"node":"50HTF14AP001PI",
			"tag":"50HTF14AP001PI",
			"type":0
		},
		{
			"gid":"",
			"node":"50HTF14AA202",
			"tag":"50HTF14AA202",
			"type":0
		},
		{
			"gid":"",
			"node":"50HTF14AA202-SCK",
			"tag":"50HTF14AA202-SCK",
			"type":0
		},
		{
			"gid":"",
			"node":"50HTF14AA202ZO",
			"tag":"50HTF14AA202ZO",
			"type":0
		},
		{
			"gid":"",
			"node":"50HTF14AA202ZC",
			"tag":"50HTF14AA202ZC",
			"type":0
		}
	],
	"name":"yc3_realtime_055",
	"table":"rdcs_yc3.yc3_realtime"
}