{
	"file":"yc3_realtime_084",
	"items":[
		{
			"gid":"",
			"node":"M0HTJ23AM001ZD",
			"tag":"M0HTJ23AM001ZD",
			"type":0
		},
		{
			"gid":"",
			"node":"M0HTJ23AM001ZF",
			"tag":"M0HTJ23AM001ZF",
			"type":0
		},
		{
			"gid":"",
			"node":"M0HTJ23AM001ZS",
			"tag":"M0HTJ23AM001ZS",
			"type":0
		},
		{
			"gid":"",
			"node":"M0HTK23AA001AT",
			"tag":"M0HTK23AA001AT",
			"type":0
		},
		{
			"gid":"",
			"node":"M0HTK23AA001ZC",
			"tag":"M0HTK23AA001ZC",
			"type":0
		},
		{
			"gid":"",
			"node":"M0HTK23AA001ZO",
			"tag":"M0HTK23AA001ZO",
			"type":0
		},
		{
			"gid":"",
			"node":"M0HTK23AF001AO-A",
			"tag":"M0HTK23AF001AO-A",
			"type":0
		},
		{
			"gid":"",
			"node":"M0HTK23AF001AT",
			"tag":"M0HTK23AF001AT",
			"type":0
		},
		{
			"gid":"",
			"node":"M0HTK23AF001RM",
			"tag":"M0HTK23AF001RM",
			"type":0
		},
		{
			"gid":"",
			"node":"M0HTK23AF001ZF1",
			"tag":"M0HTK23AF001ZF1",
			"type":0
		},
		{
			"gid":"",
			"node":"M0HTK23AF001ZF2",
			"tag":"M0HTK23AF001ZF2",
			"type":0
		},
		{
			"gid":"",
			"node":"M0HTK23AF001ZF3",
			"tag":"M0HTK23AF001ZF3",
			"type":0
		},
		{
			"gid":"",
			"node":"M0HTK23AF001ZF4",
			"tag":"M0HTK23AF001ZF4",
			"type":0
		},
		{
			"gid":"",
			"node":"M0HTK23AF001ZF5",
			"tag":"M0HTK23AF001ZF5",
			"type":0
		},
		{
			"gid":"",
			"node":"M0HTK23AF001ZS1",
			"tag":"M0HTK23AF001ZS1",
			"type":0
		},
		{
			"gid":"",
			"node":"M0HTK23AF001ZS2",
			"tag":"M0HTK23AF001ZS2",
			"type":0
		},
		{
			"gid":"",
			"node":"M0HTK53AA001AT",
			"tag":"M0HTK53AA001AT",
			"type":0
		},
		{
			"gid":"",
			"node":"M0HTK53AJ001AT",
			"tag":"M0HTK53AJ001AT",
			"type":0
		},
		{
			"gid":"",
			"node":"M0HTK53AJ001P",
			"tag":"M0HTK53AJ001P",
			"type":0
		},
		{
			"gid":"",
			"node":"M0HTK53AJ001P1",
			"tag":"M0HTK53AJ001P1",
			"type":0
		},
		{
			"gid":"",
			"node":"M0HTK53AJ001P2",
			"tag":"M0HTK53AJ001P2",
			"type":0
		},
		{
			"gid":"",
			"node":"M0HTK53AJ001P3",
			"tag":"M0HTK53AJ001P3",
			"type":0
		},
		{
			"gid":"",
			"node":"M0HTK53AJ001P4",
			"tag":"M0HTK53AJ001P4",
			"type":0
		},
		{
			"gid":"",
			"node":"M0HTK53AJ001P5",
			"tag":"M0HTK53AJ001P5",
			"type":0
		},
		{
			"gid":"",
			"node":"M0HTK53AJ001P6",
			"tag":"M0HTK53AJ001P6",
			"type":0
		},
		{
			"gid":"",
			"node":"M0HTK53AJ001P7",
			"tag":"M0HTK53AJ001P7",
			"type":0
		},
		{
			"gid":"",
			"node":"M0HTK53AJ001P8",
			"tag":"M0HTK53AJ001P8",
			"type":0
		},
		{
			"gid":"",
			"node":"M0HTK53AJ001RM",
			"tag":"M0HTK53AJ001RM",
			"type":0
		},
		{
			"gid":"",
			"node":"M0HTK53AJ001T1",
			"tag":"M0HTK53AJ001T1",
			"type":0
		},
		{
			"gid":"",
			"node":"M0HTK53AJ001T2",
			"tag":"M0HTK53AJ001T2",
			"type":0
		},
		{
			"gid":"",
			"node":"M0HTK53AJ001T3",
			"tag":"M0HTK53AJ001T3",
			"type":0
		},
		{
			"gid":"",
			"node":"M0HTK53AJ001T4",
			"tag":"M0HTK53AJ001T4",
			"type":0
		},
		{
			"gid":"",
			"node":"M0HTK53AJ001T5",
			"tag":"M0HTK53AJ001T5",
			"type":0
		},
		{
			"gid":"",
			"node":"M0HTK53AJ001T6",
			"tag":"M0HTK53AJ001T6",
			"type":0
		},
		{
			"gid":"",
			"node":"M0HTK53AJ001ZD",
			"tag":"M0HTK53AJ001ZD",
			"type":0
		},
		{
			"gid":"",
			"node":"M0HTK53AJ001ZF1",
			"tag":"M0HTK53AJ001ZF1",
			"type":0
		},
		{
			"gid":"",
			"node":"M0HTK53AJ001ZF2",
			"tag":"M0HTK53AJ001ZF2",
			"type":0
		},
		{
			"gid":"",
			"node":"M0HTK53AJ001ZF3",
			"tag":"M0HTK53AJ001ZF3",
			"type":0
		},
		{
			"gid":"",
			"node":"M0HTK53AJ001ZF4",
			"tag":"M0HTK53AJ001ZF4",
			"type":0
		},
		{
			"gid":"",
			"node":"M0HTK53AJ001ZS",
			"tag":"M0HTK53AJ001ZS",
			"type":0
		},
		{
			"gid":"",
			"node":"M0HTK53AN001ZD",
			"tag":"M0HTK53AN001ZD",
			"type":0
		},
		{
			"gid":"",
			"node":"M0HTK53AN001ZF",
			"tag":"M0HTK53AN001ZF",
			"type":0
		},
		{
			"gid":"",
			"node":"M0HTK53AN001ZS",
			"tag":"M0HTK53AN001ZS",
			"type":0
		},
		{
			"gid":"",
			"node":"M0HTK53CL001",
			"tag":"M0HTK53CL001",
			"type":0
		},
		{
			"gid":"",
			"node":"M0HTK53CP001",
			"tag":"M0HTK53CP001",
			"type":0
		},
		{
			"gid":"",
			"node":"M0HTK53CP002",
			"tag":"M0HTK53CP002",
			"type":0
		},
		{
			"gid":"",
			"node":"M0HTK53CP003",
			"tag":"M0HTK53CP003",
			"type":0
		},
		{
			"gid":"",
			"node":"M0HTK53CP004",
			"tag":"M0HTK53CP004",
			"type":0
		},
		{
			"gid":"",
			"node":"M0HTK53DI001",
			"tag":"M0HTK53DI001",
			"type":0
		},
		{
			"gid":"",
			"node":"M0HTK53DI002",
			"tag":"M0HTK53DI002",
			"type":0
		}
	],
	"name":"yc3_realtime_084",
	"table":"rdcs_yc3.yc3_realtime"
}