{
	"file":"yc4_realtime_016",
	"items":[
		{
			"gid":"",
			"node":"70HTJ12-OUTVLV-E",
			"tag":"70HTJ12-OUTVLV-E",
			"type":0
		},
		{
			"gid":"",
			"node":"70HTJ23AA201",
			"tag":"70HTJ23AA201",
			"type":0
		},
		{
			"gid":"",
			"node":"70HTJ23AA201CK",
			"tag":"70HTJ23AA201CK",
			"type":0
		},
		{
			"gid":"",
			"node":"70HTJ23AA201ZF",
			"tag":"70HTJ23AA201ZF",
			"type":0
		},
		{
			"gid":"",
			"node":"70HTJ13CD101",
			"tag":"70HTJ13CD101",
			"type":0
		},
		{
			"gid":"",
			"node":"70HTJ13CP101",
			"tag":"70HTJ13CP101",
			"type":0
		},
		{
			"gid":"",
			"node":"70HTL11CQ101",
			"tag":"70HTL11CQ101",
			"type":0
		},
		{
			"gid":"",
			"node":"70HTL12CQ101",
			"tag":"70HTL12CQ101",
			"type":0
		},
		{
			"gid":"",
			"node":"70HTL20AA201",
			"tag":"70HTL20AA201",
			"type":0
		},
		{
			"gid":"",
			"node":"70HTL20AA201CK",
			"tag":"70HTL20AA201CK",
			"type":0
		},
		{
			"gid":"",
			"node":"70HTL20AA201ZF",
			"tag":"70HTL20AA201ZF",
			"type":0
		},
		{
			"gid":"",
			"node":"70HTL20AA202",
			"tag":"70HTL20AA202",
			"type":0
		},
		{
			"gid":"",
			"node":"70HTQ10AA204C",
			"tag":"70HTQ10AA204C",
			"type":0
		},
		{
			"gid":"",
			"node":"70HTQ10AA204D",
			"tag":"70HTQ10AA204D",
			"type":0
		},
		{
			"gid":"",
			"node":"70HTL20AA202CK",
			"tag":"70HTL20AA202CK",
			"type":0
		},
		{
			"gid":"",
			"node":"70HTL20AA202ZF",
			"tag":"70HTL20AA202ZF",
			"type":0
		},
		{
			"gid":"",
			"node":"70HTL20AA203",
			"tag":"70HTL20AA203",
			"type":0
		},
		{
			"gid":"",
			"node":"70HTL20AA203CK",
			"tag":"70HTL20AA203CK",
			"type":0
		},
		{
			"gid":"",
			"node":"70HTL20AA203ZF",
			"tag":"70HTL20AA203ZF",
			"type":0
		},
		{
			"gid":"",
			"node":"70HTL20AA205",
			"tag":"70HTL20AA205",
			"type":0
		},
		{
			"gid":"",
			"node":"70HTL20AA205CK",
			"tag":"70HTL20AA205CK",
			"type":0
		},
		{
			"gid":"",
			"node":"70HTL20AA205ZF",
			"tag":"70HTL20AA205ZF",
			"type":0
		},
		{
			"gid":"",
			"node":"70HTL20CP101",
			"tag":"70HTL20CP101",
			"type":0
		},
		{
			"gid":"",
			"node":"70HTL20PMP-ITLK",
			"tag":"70HTL20PMP-ITLK",
			"type":0
		},
		{
			"gid":"",
			"node":"70HTL21-DRAIN-E",
			"tag":"70HTL21-DRAIN-E",
			"type":0
		},
		{
			"gid":"",
			"node":"70HTL21-HEADP-E",
			"tag":"70HTL21-HEADP-E",
			"type":0
		},
		{
			"gid":"",
			"node":"70HTL21-INVLV-E",
			"tag":"70HTL21-INVLV-E",
			"type":0
		},
		{
			"gid":"",
			"node":"70HTL21-OUTVLV-E",
			"tag":"70HTL21-OUTVLV-E",
			"type":0
		},
		{
			"gid":"",
			"node":"70HTL21-WASHVLV-E",
			"tag":"70HTL21-WASHVLV-E",
			"type":0
		},
		{
			"gid":"",
			"node":"70HTL21AA201",
			"tag":"70HTL21AA201",
			"type":0
		},
		{
			"gid":"",
			"node":"70HTL21AA201CK",
			"tag":"70HTL21AA201CK",
			"type":0
		},
		{
			"gid":"",
			"node":"70HTL21AA201ZF",
			"tag":"70HTL21AA201ZF",
			"type":0
		},
		{
			"gid":"",
			"node":"70HTL21AA202",
			"tag":"70HTL21AA202",
			"type":0
		},
		{
			"gid":"",
			"node":"70HTL21AA202CK",
			"tag":"70HTL21AA202CK",
			"type":0
		},
		{
			"gid":"",
			"node":"70HTL21AA202ZF",
			"tag":"70HTL21AA202ZF",
			"type":0
		},
		{
			"gid":"",
			"node":"70HTL21AA203",
			"tag":"70HTL21AA203",
			"type":0
		},
		{
			"gid":"",
			"node":"70HTL21AA203CK",
			"tag":"70HTL21AA203CK",
			"type":0
		},
		{
			"gid":"",
			"node":"70HTL21AA203ZF",
			"tag":"70HTL21AA203ZF",
			"type":0
		},
		{
			"gid":"",
			"node":"70HTL21AP001",
			"tag":"70HTL21AP001",
			"type":0
		},
		{
			"gid":"",
			"node":"70HTL21AP001AT",
			"tag":"70HTL21AP001AT",
			"type":0
		},
		{
			"gid":"",
			"node":"70HTL21AP001CK",
			"tag":"70HTL21AP001CK",
			"type":0
		},
		{
			"gid":"",
			"node":"70HTL21AP001RS",
			"tag":"70HTL21AP001RS",
			"type":0
		},
		{
			"gid":"",
			"node":"70HTL21AP001ZF",
			"tag":"70HTL21AP001ZF",
			"type":0
		},
		{
			"gid":"",
			"node":"70HTL22-DRAIN-E",
			"tag":"70HTL22-DRAIN-E",
			"type":0
		},
		{
			"gid":"",
			"node":"70HTL22-INVLV-E",
			"tag":"70HTL22-INVLV-E",
			"type":0
		},
		{
			"gid":"",
			"node":"70HTL22-OUTVLV-E",
			"tag":"70HTL22-OUTVLV-E",
			"type":0
		},
		{
			"gid":"",
			"node":"70HTL22-WASHVLV-E",
			"tag":"70HTL22-WASHVLV-E",
			"type":0
		},
		{
			"gid":"",
			"node":"70HTL22AA201",
			"tag":"70HTL22AA201",
			"type":0
		},
		{
			"gid":"",
			"node":"70HTL22AA201CK",
			"tag":"70HTL22AA201CK",
			"type":0
		},
		{
			"gid":"",
			"node":"70HTL22AA201ZF",
			"tag":"70HTL22AA201ZF",
			"type":0
		}
	],
	"name":"yc4_realtime_016",
	"table":"rdcs_yc4.yc4_realtime"
}