{
	"file":"yc4_realtime_087",
	"items":[
		{
			"gid":"",
			"node":"S-1370336-BQ",
			"tag":"S-1370336-BQ",
			"type":0
		},
		{
			"gid":"",
			"node":"S-1370337-BQ",
			"tag":"S-1370337-BQ",
			"type":0
		},
		{
			"gid":"",
			"node":"S-1370338-BQ",
			"tag":"S-1370338-BQ",
			"type":0
		},
		{
			"gid":"",
			"node":"S-1370339-BQ",
			"tag":"S-1370339-BQ",
			"type":0
		},
		{
			"gid":"",
			"node":"S-1370341-BQ",
			"tag":"S-1370341-BQ",
			"type":0
		},
		{
			"gid":"",
			"node":"S-1370342-BQ",
			"tag":"S-1370342-BQ",
			"type":0
		},
		{
			"gid":"",
			"node":"VAC-C-BEAR-T-70",
			"tag":"VAC-C-BEAR-T-70",
			"type":0
		},
		{
			"gid":"",
			"node":"M0HTJ12AA201",
			"tag":"M0HTJ12AA201",
			"type":0
		},
		{
			"gid":"",
			"node":"M0HTJ121AA201CK",
			"tag":"M0HTJ121AA201CK",
			"type":0
		},
		{
			"gid":"",
			"node":"M0HTJ12AA201ZF",
			"tag":"M0HTJ12AA201ZF",
			"type":0
		},
		{
			"gid":"",
			"node":"M0HTJ12AA202",
			"tag":"M0HTJ12AA202",
			"type":0
		},
		{
			"gid":"",
			"node":"M0HTJ121AA202CK",
			"tag":"M0HTJ121AA202CK",
			"type":0
		},
		{
			"gid":"",
			"node":"M0HTJ12AA202ZF",
			"tag":"M0HTJ12AA202ZF",
			"type":0
		},
		{
			"gid":"",
			"node":"M0HTJ12AA401",
			"tag":"M0HTJ12AA401",
			"type":0
		},
		{
			"gid":"",
			"node":"M0HTJ121AA401CK",
			"tag":"M0HTJ121AA401CK",
			"type":0
		},
		{
			"gid":"",
			"node":"M0HTJ12AA401ZF",
			"tag":"M0HTJ12AA401ZF",
			"type":0
		},
		{
			"gid":"",
			"node":"M0HTJ11AP001",
			"tag":"M0HTJ11AP001",
			"type":0
		},
		{
			"gid":"",
			"node":"M0HTJ11AP001-RP",
			"tag":"M0HTJ11AP001-RP",
			"type":0
		},
		{
			"gid":"",
			"node":"M0HTJ11AP1-ITLK",
			"tag":"M0HTJ11AP1-ITLK",
			"type":0
		},
		{
			"gid":"",
			"node":"M0HTJ11AP1P-J",
			"tag":"M0HTJ11AP1P-J",
			"type":0
		},
		{
			"gid":"",
			"node":"M0HTJ11AP1P-M",
			"tag":"M0HTJ11AP1P-M",
			"type":0
		},
		{
			"gid":"",
			"node":"M0HTJ11AP1P-N",
			"tag":"M0HTJ11AP1P-N",
			"type":0
		},
		{
			"gid":"",
			"node":"M0HTJ11AP1P-O",
			"tag":"M0HTJ11AP1P-O",
			"type":0
		},
		{
			"gid":"",
			"node":"M0HTJ11AP1P-P",
			"tag":"M0HTJ11AP1P-P",
			"type":0
		},
		{
			"gid":"",
			"node":"M0HTJ11AP1P-T",
			"tag":"M0HTJ11AP1P-T",
			"type":0
		},
		{
			"gid":"",
			"node":"M0HTJ11AP1R-J",
			"tag":"M0HTJ11AP1R-J",
			"type":0
		},
		{
			"gid":"",
			"node":"M0HTJ11AP1R-M",
			"tag":"M0HTJ11AP1R-M",
			"type":0
		},
		{
			"gid":"",
			"node":"M0HTJ11AP1R-N",
			"tag":"M0HTJ11AP1R-N",
			"type":0
		},
		{
			"gid":"",
			"node":"M0HTJ11AP1R-O",
			"tag":"M0HTJ11AP1R-O",
			"type":0
		},
		{
			"gid":"",
			"node":"M0HTJ11AP1R-P",
			"tag":"M0HTJ11AP1R-P",
			"type":0
		},
		{
			"gid":"",
			"node":"M0HTJ11AP1R-T",
			"tag":"M0HTJ11AP1R-T",
			"type":0
		},
		{
			"gid":"",
			"node":"M0HTJ11AA201",
			"tag":"M0HTJ11AA201",
			"type":0
		},
		{
			"gid":"",
			"node":"M0HTJ11AA201CK",
			"tag":"M0HTJ11AA201CK",
			"type":0
		},
		{
			"gid":"",
			"node":"M0HTJ11AA201ZF",
			"tag":"M0HTJ11AA201ZF",
			"type":0
		},
		{
			"gid":"",
			"node":"M0HTJ11AA202",
			"tag":"M0HTJ11AA202",
			"type":0
		},
		{
			"gid":"",
			"node":"M0HTJ11AA202CK",
			"tag":"M0HTJ11AA202CK",
			"type":0
		},
		{
			"gid":"",
			"node":"M0HTJ11AA202ZF",
			"tag":"M0HTJ11AA202ZF",
			"type":0
		},
		{
			"gid":"",
			"node":"M0HTJ11AA401ZF",
			"tag":"M0HTJ11AA401ZF",
			"type":0
		},
		{
			"gid":"",
			"node":"M0HTJ12AP001",
			"tag":"M0HTJ12AP001",
			"type":0
		},
		{
			"gid":"",
			"node":"M0HTJ12AP001-RP",
			"tag":"M0HTJ12AP001-RP",
			"type":0
		},
		{
			"gid":"",
			"node":"M0HTJ12AP1P-J",
			"tag":"M0HTJ12AP1P-J",
			"type":0
		},
		{
			"gid":"",
			"node":"M0HTJ12AP1P-M",
			"tag":"M0HTJ12AP1P-M",
			"type":0
		},
		{
			"gid":"",
			"node":"M0HTJ12AP1P-N",
			"tag":"M0HTJ12AP1P-N",
			"type":0
		},
		{
			"gid":"",
			"node":"M0HTJ12AP1P-O",
			"tag":"M0HTJ12AP1P-O",
			"type":0
		},
		{
			"gid":"",
			"node":"M0HTJ12AP1P-P",
			"tag":"M0HTJ12AP1P-P",
			"type":0
		},
		{
			"gid":"",
			"node":"M0HTJ12AP1P-T",
			"tag":"M0HTJ12AP1P-T",
			"type":0
		},
		{
			"gid":"",
			"node":"M0HTJ12AP1R-J",
			"tag":"M0HTJ12AP1R-J",
			"type":0
		},
		{
			"gid":"",
			"node":"M0HTJ12AP1R-M",
			"tag":"M0HTJ12AP1R-M",
			"type":0
		},
		{
			"gid":"",
			"node":"M0HTJ12AP1R-N",
			"tag":"M0HTJ12AP1R-N",
			"type":0
		},
		{
			"gid":"",
			"node":"M0HTJ12AP1R-O",
			"tag":"M0HTJ12AP1R-O",
			"type":0
		}
	],
	"name":"yc4_realtime_087",
	"table":"rdcs_yc4.yc4_realtime"
}