{
	"file":"yc4_realtime_044",
	"items":[
		{
			"gid":"",
			"node":"M0HTK41AP2P-N",
			"tag":"M0HTK41AP2P-N",
			"type":0
		},
		{
			"gid":"",
			"node":"M0HTK41AP2P-T",
			"tag":"M0HTK41AP2P-T",
			"type":0
		},
		{
			"gid":"",
			"node":"M0HTK41AP2P-M",
			"tag":"M0HTK41AP2P-M",
			"type":0
		},
		{
			"gid":"",
			"node":"M0HTK41AP002CK",
			"tag":"M0HTK41AP002CK",
			"type":0
		},
		{
			"gid":"",
			"node":"M0HTK41AP002AT",
			"tag":"M0HTK41AP002AT",
			"type":0
		},
		{
			"gid":"",
			"node":"M0HTK41AP002",
			"tag":"M0HTK41AP002",
			"type":0
		},
		{
			"gid":"",
			"node":"MHTK41AA201BCK",
			"tag":"MHTK41AA201BCK",
			"type":0
		},
		{
			"gid":"",
			"node":"MHTK41AA201B",
			"tag":"MHTK41AA201B",
			"type":0
		},
		{
			"gid":"",
			"node":"MHTK41AA202BCK",
			"tag":"MHTK41AA202BCK",
			"type":0
		},
		{
			"gid":"",
			"node":"MHTK41AA202B",
			"tag":"MHTK41AA202B",
			"type":0
		},
		{
			"gid":"",
			"node":"MHTK41AA203BCK",
			"tag":"MHTK41AA203BCK",
			"type":0
		},
		{
			"gid":"",
			"node":"MHTK41AA203B",
			"tag":"MHTK41AA203B",
			"type":0
		},
		{
			"gid":"",
			"node":"MHTQ22AA203ACK",
			"tag":"MHTQ22AA203ACK",
			"type":0
		},
		{
			"gid":"",
			"node":"MHTQ22AA203A",
			"tag":"MHTQ22AA203A",
			"type":0
		},
		{
			"gid":"",
			"node":"MHTQ22AA202ACK",
			"tag":"MHTQ22AA202ACK",
			"type":0
		},
		{
			"gid":"",
			"node":"MHTQ22AA202A",
			"tag":"MHTQ22AA202A",
			"type":0
		},
		{
			"gid":"",
			"node":"M0HTK41AP2AO",
			"tag":"M0HTK41AP2AO",
			"type":0
		},
		{
			"gid":"",
			"node":"M0HTK41AP2AO-A",
			"tag":"M0HTK41AP2AO-A",
			"type":0
		},
		{
			"gid":"",
			"node":"M0HTK41AP001BK",
			"tag":"M0HTK41AP001BK",
			"type":0
		},
		{
			"gid":"",
			"node":"M0HTK42CL101NL",
			"tag":"M0HTK42CL101NL",
			"type":0
		},
		{
			"gid":"",
			"node":"M0HTK42AP1R-O",
			"tag":"M0HTK42AP1R-O",
			"type":0
		},
		{
			"gid":"",
			"node":"M0HTK42AP1R-P",
			"tag":"M0HTK42AP1R-P",
			"type":0
		},
		{
			"gid":"",
			"node":"M0HTK42AP1R-J",
			"tag":"M0HTK42AP1R-J",
			"type":0
		},
		{
			"gid":"",
			"node":"M0HTK42AP1R-N",
			"tag":"M0HTK42AP1R-N",
			"type":0
		},
		{
			"gid":"",
			"node":"M0HTK42AP1R-T",
			"tag":"M0HTK42AP1R-T",
			"type":0
		},
		{
			"gid":"",
			"node":"M0HTK42AP1R-M",
			"tag":"M0HTK42AP1R-M",
			"type":0
		},
		{
			"gid":"",
			"node":"M0HTK42AP1P-O",
			"tag":"M0HTK42AP1P-O",
			"type":0
		},
		{
			"gid":"",
			"node":"M0HTK42AP1P-P",
			"tag":"M0HTK42AP1P-P",
			"type":0
		},
		{
			"gid":"",
			"node":"M0HTK42AP1P-J",
			"tag":"M0HTK42AP1P-J",
			"type":0
		},
		{
			"gid":"",
			"node":"M0HTK42AP1P-N",
			"tag":"M0HTK42AP1P-N",
			"type":0
		},
		{
			"gid":"",
			"node":"M0HTK42AP1P-T",
			"tag":"M0HTK42AP1P-T",
			"type":0
		},
		{
			"gid":"",
			"node":"M0HTK42AP1P-M",
			"tag":"M0HTK42AP1P-M",
			"type":0
		},
		{
			"gid":"",
			"node":"M0HTK42AP001CK",
			"tag":"M0HTK42AP001CK",
			"type":0
		},
		{
			"gid":"",
			"node":"M0HTK42AP001AT",
			"tag":"M0HTK42AP001AT",
			"type":0
		},
		{
			"gid":"",
			"node":"M0HTK42AP001",
			"tag":"M0HTK42AP001",
			"type":0
		},
		{
			"gid":"",
			"node":"MHTK42AA201ACK",
			"tag":"MHTK42AA201ACK",
			"type":0
		},
		{
			"gid":"",
			"node":"MHTK42AA201A",
			"tag":"MHTK42AA201A",
			"type":0
		},
		{
			"gid":"",
			"node":"MHTK42AA202ACK",
			"tag":"MHTK42AA202ACK",
			"type":0
		},
		{
			"gid":"",
			"node":"MHTK42AA202A",
			"tag":"MHTK42AA202A",
			"type":0
		},
		{
			"gid":"",
			"node":"MHTK42AA203ACK",
			"tag":"MHTK42AA203ACK",
			"type":0
		},
		{
			"gid":"",
			"node":"MHTK42AA203A",
			"tag":"MHTK42AA203A",
			"type":0
		},
		{
			"gid":"",
			"node":"MHTQ22AA204BCK",
			"tag":"MHTQ22AA204BCK",
			"type":0
		},
		{
			"gid":"",
			"node":"MHTQ22AA204B",
			"tag":"MHTQ22AA204B",
			"type":0
		},
		{
			"gid":"",
			"node":"MHTK42AA204ACK",
			"tag":"MHTK42AA204ACK",
			"type":0
		},
		{
			"gid":"",
			"node":"MHTK42AA204A",
			"tag":"MHTK42AA204A",
			"type":0
		},
		{
			"gid":"",
			"node":"M0HTK42AP1AO",
			"tag":"M0HTK42AP1AO",
			"type":0
		},
		{
			"gid":"",
			"node":"M0HTK42AP1AO-A",
			"tag":"M0HTK42AP1AO-A",
			"type":0
		},
		{
			"gid":"",
			"node":"M0HTK42AP2R-O",
			"tag":"M0HTK42AP2R-O",
			"type":0
		},
		{
			"gid":"",
			"node":"M0HTK42AP2R-P",
			"tag":"M0HTK42AP2R-P",
			"type":0
		},
		{
			"gid":"",
			"node":"M0HTK42AP2R-J",
			"tag":"M0HTK42AP2R-J",
			"type":0
		}
	],
	"name":"yc4_realtime_044",
	"table":"rdcs_yc4.yc4_realtime"
}