{
	"file":"yc4_realtime_041",
	"items":[
		{
			"gid":"",
			"node":"80WALL-WW-SEQ-J",
			"tag":"80WALL-WW-SEQ-J",
			"type":0
		},
		{
			"gid":"",
			"node":"80WALL-WW-SEQ-M",
			"tag":"80WALL-WW-SEQ-M",
			"type":0
		},
		{
			"gid":"",
			"node":"80WALL-WW-SEQ-N",
			"tag":"80WALL-WW-SEQ-N",
			"type":0
		},
		{
			"gid":"",
			"node":"80WALL-WW-SEQ-O",
			"tag":"80WALL-WW-SEQ-O",
			"type":0
		},
		{
			"gid":"",
			"node":"80WALL-WW-SEQ-P",
			"tag":"80WALL-WW-SEQ-P",
			"type":0
		},
		{
			"gid":"",
			"node":"80WALL-WW-SEQ-T",
			"tag":"80WALL-WW-SEQ-T",
			"type":0
		},
		{
			"gid":"",
			"node":"CNET1-115-BQ",
			"tag":"CNET1-115-BQ",
			"type":0
		},
		{
			"gid":"",
			"node":"CNET2-115-BQ)",
			"tag":"CNET2-115-BQ)",
			"type":0
		},
		{
			"gid":"",
			"node":"M-11500-BQ",
			"tag":"M-11500-BQ",
			"type":0
		},
		{
			"gid":"",
			"node":"M-11501-BQ",
			"tag":"M-11501-BQ",
			"type":0
		},
		{
			"gid":"",
			"node":"M-11503-BQ",
			"tag":"M-11503-BQ",
			"type":0
		},
		{
			"gid":"",
			"node":"PWR-115-BQ",
			"tag":"PWR-115-BQ",
			"type":0
		},
		{
			"gid":"",
			"node":"80ABSTL-NORM",
			"tag":"80ABSTL-NORM",
			"type":0
		},
		{
			"gid":"",
			"node":"80HTG10-ABSTL-E",
			"tag":"80HTG10-ABSTL-E",
			"type":0
		},
		{
			"gid":"",
			"node":"80HTG20-ABSTL-E",
			"tag":"80HTG20-ABSTL-E",
			"type":0
		},
		{
			"gid":"",
			"node":"80HTL21-ABST-L",
			"tag":"80HTL21-ABST-L",
			"type":0
		},
		{
			"gid":"",
			"node":"80HTL22-ABST-L",
			"tag":"80HTL22-ABST-L",
			"type":0
		},
		{
			"gid":"",
			"node":"80HTL22-HEADP-E",
			"tag":"80HTL22-HEADP-E",
			"type":0
		},
		{
			"gid":"",
			"node":"S-1150301-BQ",
			"tag":"S-1150301-BQ",
			"type":0
		},
		{
			"gid":"",
			"node":"S-1150302-BQ",
			"tag":"S-1150302-BQ",
			"type":0
		},
		{
			"gid":"",
			"node":"S-1150303-BQ",
			"tag":"S-1150303-BQ",
			"type":0
		},
		{
			"gid":"",
			"node":"S-1150304-BQ",
			"tag":"S-1150304-BQ",
			"type":0
		},
		{
			"gid":"",
			"node":"S-1150306-BQ",
			"tag":"S-1150306-BQ",
			"type":0
		},
		{
			"gid":"",
			"node":"S-1150307-BQ",
			"tag":"S-1150307-BQ",
			"type":0
		},
		{
			"gid":"",
			"node":"S-1150311-BQ",
			"tag":"S-1150311-BQ",
			"type":0
		},
		{
			"gid":"",
			"node":"S-1150312-BQ",
			"tag":"S-1150312-BQ",
			"type":0
		},
		{
			"gid":"",
			"node":"S-1150313-BQ",
			"tag":"S-1150313-BQ",
			"type":0
		},
		{
			"gid":"",
			"node":"S-1150314-BQ",
			"tag":"S-1150314-BQ",
			"type":0
		},
		{
			"gid":"",
			"node":"S-1150315-BQ",
			"tag":"S-1150315-BQ",
			"type":0
		},
		{
			"gid":"",
			"node":"S-1150316-BQ",
			"tag":"S-1150316-BQ",
			"type":0
		},
		{
			"gid":"",
			"node":"S-1150317-BQ",
			"tag":"S-1150317-BQ",
			"type":0
		},
		{
			"gid":"",
			"node":"S-1150318-BQ",
			"tag":"S-1150318-BQ",
			"type":0
		},
		{
			"gid":"",
			"node":"S-1150319-BQ",
			"tag":"S-1150319-BQ",
			"type":0
		},
		{
			"gid":"",
			"node":"S-1150320-BQ",
			"tag":"S-1150320-BQ",
			"type":0
		},
		{
			"gid":"",
			"node":"S-1150321-BQ",
			"tag":"S-1150321-BQ",
			"type":0
		},
		{
			"gid":"",
			"node":"S-1150322-BQ",
			"tag":"S-1150322-BQ",
			"type":0
		},
		{
			"gid":"",
			"node":"S-1150323-BQ",
			"tag":"S-1150323-BQ",
			"type":0
		},
		{
			"gid":"",
			"node":"S-1150324-BQ",
			"tag":"S-1150324-BQ",
			"type":0
		},
		{
			"gid":"",
			"node":"S-1150325-BQ",
			"tag":"S-1150325-BQ",
			"type":0
		},
		{
			"gid":"",
			"node":"S-1150326-BQ",
			"tag":"S-1150326-BQ",
			"type":0
		},
		{
			"gid":"",
			"node":"S-1150327-BQ",
			"tag":"S-1150327-BQ",
			"type":0
		},
		{
			"gid":"",
			"node":"S-1150331-BQ",
			"tag":"S-1150331-BQ",
			"type":0
		},
		{
			"gid":"",
			"node":"S-1150332-BQ",
			"tag":"S-1150332-BQ",
			"type":0
		},
		{
			"gid":"",
			"node":"S-1150333-BQ",
			"tag":"S-1150333-BQ",
			"type":0
		},
		{
			"gid":"",
			"node":"S-1150334-BQ",
			"tag":"S-1150334-BQ",
			"type":0
		},
		{
			"gid":"",
			"node":"S-1150335-BQ",
			"tag":"S-1150335-BQ",
			"type":0
		},
		{
			"gid":"",
			"node":"S-1150336-BQ",
			"tag":"S-1150336-BQ",
			"type":0
		},
		{
			"gid":"",
			"node":"S-1150337-BQ",
			"tag":"S-1150337-BQ",
			"type":0
		},
		{
			"gid":"",
			"node":"S-1150338-BQ",
			"tag":"S-1150338-BQ",
			"type":0
		},
		{
			"gid":"",
			"node":"S-1150339-BQ",
			"tag":"S-1150339-BQ",
			"type":0
		}
	],
	"name":"yc4_realtime_041",
	"table":"rdcs_yc4.yc4_realtime"
}