{
	"file":"yc4_realtime_026",
	"items":[
		{
			"gid":"",
			"node":"80HTB40CP015",
			"tag":"80HTB40CP015",
			"type":0
		},
		{
			"gid":"",
			"node":"80HTC1-MTBEART-E",
			"tag":"80HTC1-MTBEART-E",
			"type":0
		},
		{
			"gid":"",
			"node":"80HTC10-BEART-E",
			"tag":"80HTC10-BEART-E",
			"type":0
		},
		{
			"gid":"",
			"node":"80HTC10-BEARVIB-E",
			"tag":"80HTC10-BEARVIB-E",
			"type":0
		},
		{
			"gid":"",
			"node":"80HTC10-DIFDP-E",
			"tag":"80HTC10-DIFDP-E",
			"type":0
		},
		{
			"gid":"",
			"node":"80HTC10-HYDOILPL-E",
			"tag":"80HTC10-HYDOILPL-E",
			"type":0
		},
		{
			"gid":"",
			"node":"80HTC10-HYDOILT1-E",
			"tag":"80HTC10-HYDOILT1-E",
			"type":0
		},
		{
			"gid":"",
			"node":"80HTC10-HYDOILT2-E",
			"tag":"80HTC10-HYDOILT2-E",
			"type":0
		},
		{
			"gid":"",
			"node":"80HTC10-INLDP-E",
			"tag":"80HTC10-INLDP-E",
			"type":0
		},
		{
			"gid":"",
			"node":"80HTC10-LSTSP-E",
			"tag":"80HTC10-LSTSP-E",
			"type":0
		},
		{
			"gid":"",
			"node":"80HTC10-MTOILFL-E",
			"tag":"80HTC10-MTOILFL-E",
			"type":0
		},
		{
			"gid":"",
			"node":"80HTC10-OILFL-E",
			"tag":"80HTC10-OILFL-E",
			"type":0
		},
		{
			"gid":"",
			"node":"80HTC10-WINDT-E",
			"tag":"80HTC10-WINDT-E",
			"type":0
		},
		{
			"gid":"",
			"node":"80HTC10AH001",
			"tag":"80HTC10AH001",
			"type":0
		},
		{
			"gid":"",
			"node":"80HTC10AH001AT",
			"tag":"80HTC10AH001AT",
			"type":0
		},
		{
			"gid":"",
			"node":"80HTC10AH001CK",
			"tag":"80HTC10AH001CK",
			"type":0
		},
		{
			"gid":"",
			"node":"80HTC10AH001ZD",
			"tag":"80HTC10AH001ZD",
			"type":0
		},
		{
			"gid":"",
			"node":"80HTC10AH001ZF",
			"tag":"80HTC10AH001ZF",
			"type":0
		},
		{
			"gid":"",
			"node":"80HTC10AH001ZS",
			"tag":"80HTC10AH001ZS",
			"type":0
		},
		{
			"gid":"",
			"node":"80HTC10AN001",
			"tag":"80HTC10AN001",
			"type":0
		},
		{
			"gid":"",
			"node":"80HTC10AN001-A",
			"tag":"80HTC10AN001-A",
			"type":0
		},
		{
			"gid":"",
			"node":"80HTC10AN001AT",
			"tag":"80HTC10AN001AT",
			"type":0
		},
		{
			"gid":"",
			"node":"80HTC10AN001CK",
			"tag":"80HTC10AN001CK",
			"type":0
		},
		{
			"gid":"",
			"node":"80HTC10AN001CS",
			"tag":"80HTC10AN001CS",
			"type":0
		},
		{
			"gid":"",
			"node":"80HTC10AN001PM",
			"tag":"80HTC10AN001PM",
			"type":0
		},
		{
			"gid":"",
			"node":"80HTC10AN001ZF",
			"tag":"80HTC10AN001ZF",
			"type":0
		},
		{
			"gid":"",
			"node":"80HTC10AN001ZS",
			"tag":"80HTC10AN001ZS",
			"type":0
		},
		{
			"gid":"",
			"node":"80HTC10CE101",
			"tag":"80HTC10CE101",
			"type":0
		},
		{
			"gid":"",
			"node":"80HTC10CG001",
			"tag":"80HTC10CG001",
			"type":0
		},
		{
			"gid":"",
			"node":"80HTC10CG002",
			"tag":"80HTC10CG002",
			"type":0
		},
		{
			"gid":"",
			"node":"80HTC10CG003",
			"tag":"80HTC10CG003",
			"type":0
		},
		{
			"gid":"",
			"node":"80HTC10CG004",
			"tag":"80HTC10CG004",
			"type":0
		},
		{
			"gid":"",
			"node":"80HTC10CG101",
			"tag":"80HTC10CG101",
			"type":0
		},
		{
			"gid":"",
			"node":"80HTC10CP001",
			"tag":"80HTC10CP001",
			"type":0
		},
		{
			"gid":"",
			"node":"80HTC10CP102",
			"tag":"80HTC10CP102",
			"type":0
		},
		{
			"gid":"",
			"node":"80HTC10CT301",
			"tag":"80HTC10CT301",
			"type":0
		},
		{
			"gid":"",
			"node":"80HTC10CT302",
			"tag":"80HTC10CT302",
			"type":0
		},
		{
			"gid":"",
			"node":"80HTC10CT303",
			"tag":"80HTC10CT303",
			"type":0
		},
		{
			"gid":"",
			"node":"80HTC10CT304",
			"tag":"80HTC10CT304",
			"type":0
		},
		{
			"gid":"",
			"node":"80HTC10CT305",
			"tag":"80HTC10CT305",
			"type":0
		},
		{
			"gid":"",
			"node":"80HTC10CT306",
			"tag":"80HTC10CT306",
			"type":0
		},
		{
			"gid":"",
			"node":"80HTC10CT307",
			"tag":"80HTC10CT307",
			"type":0
		},
		{
			"gid":"",
			"node":"80HTC10CT308",
			"tag":"80HTC10CT308",
			"type":0
		},
		{
			"gid":"",
			"node":"80HTC10CU001",
			"tag":"80HTC10CU001",
			"type":0
		},
		{
			"gid":"",
			"node":"80HTC10CY001",
			"tag":"80HTC10CY001",
			"type":0
		},
		{
			"gid":"",
			"node":"80HTC10CY002",
			"tag":"80HTC10CY002",
			"type":0
		},
		{
			"gid":"",
			"node":"80HTC10CY101",
			"tag":"80HTC10CY101",
			"type":0
		},
		{
			"gid":"",
			"node":"80HTC10CY102",
			"tag":"80HTC10CY102",
			"type":0
		},
		{
			"gid":"",
			"node":"80HTC11AH001",
			"tag":"80HTC11AH001",
			"type":0
		},
		{
			"gid":"",
			"node":"80HTC11AH001AT",
			"tag":"80HTC11AH001AT",
			"type":0
		}
	],
	"name":"yc4_realtime_026",
	"table":"rdcs_yc4.yc4_realtime"
}