{
	"file":"yc4_realtime_071",
	"items":[
		{
			"gid":"",
			"node":"80HTB20AA142CK",
			"tag":"80HTB20AA142CK",
			"type":0
		},
		{
			"gid":"",
			"node":"80HTB20AA142AT",
			"tag":"80HTB20AA142AT",
			"type":0
		},
		{
			"gid":"",
			"node":"70HTB20AA142",
			"tag":"70HTB20AA142",
			"type":0
		},
		{
			"gid":"",
			"node":"70HTB20AA142CK",
			"tag":"70HTB20AA142CK",
			"type":0
		},
		{
			"gid":"",
			"node":"70HTB20AA142AT",
			"tag":"70HTB20AA142AT",
			"type":0
		},
		{
			"gid":"",
			"node":"70HTA10CQ104W",
			"tag":"70HTA10CQ104W",
			"type":0
		},
		{
			"gid":"",
			"node":"70HTA10CQ105",
			"tag":"70HTA10CQ105",
			"type":0
		},
		{
			"gid":"",
			"node":"70HTA10CT101",
			"tag":"70HTA10CT101",
			"type":0
		},
		{
			"gid":"",
			"node":"70HTA10CP104",
			"tag":"70HTA10CP104",
			"type":0
		},
		{
			"gid":"",
			"node":"70HTA10CF101",
			"tag":"70HTA10CF101",
			"type":0
		},
		{
			"gid":"",
			"node":"70HTA10CQ106",
			"tag":"70HTA10CQ106",
			"type":0
		},
		{
			"gid":"",
			"node":"70HTA10CQ103W",
			"tag":"70HTA10CQ103W",
			"type":0
		},
		{
			"gid":"",
			"node":"70HTA10CQ107",
			"tag":"70HTA10CQ107",
			"type":0
		},
		{
			"gid":"",
			"node":"70HTA15CQ103",
			"tag":"70HTA15CQ103",
			"type":0
		},
		{
			"gid":"",
			"node":"70HTA15CQ107",
			"tag":"70HTA15CQ107",
			"type":0
		},
		{
			"gid":"",
			"node":"70HTL21AP001GT",
			"tag":"70HTL21AP001GT",
			"type":0
		},
		{
			"gid":"",
			"node":"70HTL22AP001GT",
			"tag":"70HTL22AP001GT",
			"type":0
		},
		{
			"gid":"",
			"node":"70HTG11DP101",
			"tag":"70HTG11DP101",
			"type":0
		},
		{
			"gid":"",
			"node":"70HTG12DP101",
			"tag":"70HTG12DP101",
			"type":0
		},
		{
			"gid":"",
			"node":"70HTL21AP001CS",
			"tag":"70HTL21AP001CS",
			"type":0
		},
		{
			"gid":"",
			"node":"70HTL21AP001-AUTO",
			"tag":"70HTL21AP001-AUTO",
			"type":0
		},
		{
			"gid":"",
			"node":"70HTL21AP001-A",
			"tag":"70HTL21AP001-A",
			"type":0
		},
		{
			"gid":"",
			"node":"70HTL22AP001CS",
			"tag":"70HTL22AP001CS",
			"type":0
		},
		{
			"gid":"",
			"node":"70HTL22AP001-AUTO",
			"tag":"70HTL22AP001-AUTO",
			"type":0
		},
		{
			"gid":"",
			"node":"70HTL22AP001-A",
			"tag":"70HTL22AP001-A",
			"type":0
		},
		{
			"gid":"",
			"node":"70CXE06AO001CS",
			"tag":"70CXE06AO001CS",
			"type":0
		},
		{
			"gid":"",
			"node":"70CXE06AO001-A",
			"tag":"70CXE06AO001-A",
			"type":0
		},
		{
			"gid":"",
			"node":"70CXE07AO001CS",
			"tag":"70CXE07AO001CS",
			"type":0
		},
		{
			"gid":"",
			"node":"70CXE07AO001-A",
			"tag":"70CXE07AO001-A",
			"type":0
		},
		{
			"gid":"",
			"node":"70HTF14AP001WH",
			"tag":"70HTF14AP001WH",
			"type":0
		},
		{
			"gid":"",
			"node":"70BBE07CE002",
			"tag":"70BBE07CE002",
			"type":0
		},
		{
			"gid":"",
			"node":"70BBF07CE002",
			"tag":"70BBF07CE002",
			"type":0
		},
		{
			"gid":"",
			"node":"70HTG11CT302",
			"tag":"70HTG11CT302",
			"type":0
		},
		{
			"gid":"",
			"node":"70HTG11CT303",
			"tag":"70HTG11CT303",
			"type":0
		},
		{
			"gid":"",
			"node":"70HTG12CT302",
			"tag":"70HTG12CT302",
			"type":0
		},
		{
			"gid":"",
			"node":"70HTG12CT303",
			"tag":"70HTG12CT303",
			"type":0
		},
		{
			"gid":"",
			"node":"70HTD10DP101",
			"tag":"70HTD10DP101",
			"type":0
		},
		{
			"gid":"",
			"node":"70HTF14AP001CE",
			"tag":"70HTF14AP001CE",
			"type":0
		},
		{
			"gid":"",
			"node":"70HTF14CP101",
			"tag":"70HTF14CP101",
			"type":0
		},
		{
			"gid":"",
			"node":"70HTG11CP101",
			"tag":"70HTG11CP101",
			"type":0
		},
		{
			"gid":"",
			"node":"70HTG11CP102",
			"tag":"70HTG11CP102",
			"type":0
		},
		{
			"gid":"",
			"node":"70HTG11CT301",
			"tag":"70HTG11CT301",
			"type":0
		},
		{
			"gid":"",
			"node":"70HTG12CP101",
			"tag":"70HTG12CP101",
			"type":0
		},
		{
			"gid":"",
			"node":"70HTG12CP102",
			"tag":"70HTG12CP102",
			"type":0
		},
		{
			"gid":"",
			"node":"70HTG12CT301",
			"tag":"70HTG12CT301",
			"type":0
		},
		{
			"gid":"",
			"node":"70BBE07CE001W",
			"tag":"70BBE07CE001W",
			"type":0
		},
		{
			"gid":"",
			"node":"70BBF07CE001",
			"tag":"70BBF07CE001",
			"type":0
		},
		{
			"gid":"",
			"node":"70HTF14AA201ZO",
			"tag":"70HTF14AA201ZO",
			"type":0
		},
		{
			"gid":"",
			"node":"70HTF14AA201ZC",
			"tag":"70HTF14AA201ZC",
			"type":0
		},
		{
			"gid":"",
			"node":"70HTF14AA201ZF",
			"tag":"70HTF14AA201ZF",
			"type":0
		}
	],
	"name":"yc4_realtime_071",
	"table":"rdcs_yc4.yc4_realtime"
}