{
	"file":"yc4_realtime_043",
	"items":[
		{
			"gid":"",
			"node":"M0HTK10AA101",
			"tag":"M0HTK10AA101",
			"type":0
		},
		{
			"gid":"",
			"node":"M0HTK22AF001A-",
			"tag":"M0HTK22AF001A-",
			"type":0
		},
		{
			"gid":"",
			"node":"M0HTK22AF001A",
			"tag":"M0HTK22AF001A",
			"type":0
		},
		{
			"gid":"",
			"node":"M0HTM42AA201CK",
			"tag":"M0HTM42AA201CK",
			"type":0
		},
		{
			"gid":"",
			"node":"M0HTM42AA201",
			"tag":"M0HTM42AA201",
			"type":0
		},
		{
			"gid":"",
			"node":"M0HTQ22AA201CK",
			"tag":"M0HTQ22AA201CK",
			"type":0
		},
		{
			"gid":"",
			"node":"M0HTQ22AA201",
			"tag":"M0HTQ22AA201",
			"type":0
		},
		{
			"gid":"",
			"node":"MHTM42AA101AA-",
			"tag":"MHTM42AA101AA-",
			"type":0
		},
		{
			"gid":"",
			"node":"MHTM42AA101AA",
			"tag":"MHTM42AA101AA",
			"type":0
		},
		{
			"gid":"",
			"node":"MHTM42AA101BA-",
			"tag":"MHTM42AA101BA-",
			"type":0
		},
		{
			"gid":"",
			"node":"MHTM42AA101BA",
			"tag":"MHTM42AA101BA",
			"type":0
		},
		{
			"gid":"",
			"node":"M0HTZ43AA001A-",
			"tag":"M0HTZ43AA001A-",
			"type":0
		},
		{
			"gid":"",
			"node":"M0HTZ43AA001A",
			"tag":"M0HTZ43AA001A",
			"type":0
		},
		{
			"gid":"",
			"node":"M0HTK41CL101NL",
			"tag":"M0HTK41CL101NL",
			"type":0
		},
		{
			"gid":"",
			"node":"M0HTK41AP1R-O",
			"tag":"M0HTK41AP1R-O",
			"type":0
		},
		{
			"gid":"",
			"node":"M0HTK41AP1R-P",
			"tag":"M0HTK41AP1R-P",
			"type":0
		},
		{
			"gid":"",
			"node":"M0HTK41AP1R-J",
			"tag":"M0HTK41AP1R-J",
			"type":0
		},
		{
			"gid":"",
			"node":"M0HTK41AP1R-N",
			"tag":"M0HTK41AP1R-N",
			"type":0
		},
		{
			"gid":"",
			"node":"M0HTK41AP1R-T",
			"tag":"M0HTK41AP1R-T",
			"type":0
		},
		{
			"gid":"",
			"node":"M0HTK41AP1R-M",
			"tag":"M0HTK41AP1R-M",
			"type":0
		},
		{
			"gid":"",
			"node":"M0HTK41AP1P-O",
			"tag":"M0HTK41AP1P-O",
			"type":0
		},
		{
			"gid":"",
			"node":"M0HTK41AP1P-P",
			"tag":"M0HTK41AP1P-P",
			"type":0
		},
		{
			"gid":"",
			"node":"M0HTK41AP1P-J",
			"tag":"M0HTK41AP1P-J",
			"type":0
		},
		{
			"gid":"",
			"node":"M0HTK41AP1P-N",
			"tag":"M0HTK41AP1P-N",
			"type":0
		},
		{
			"gid":"",
			"node":"M0HTK41AP1P-T",
			"tag":"M0HTK41AP1P-T",
			"type":0
		},
		{
			"gid":"",
			"node":"M0HTK41AP1P-M",
			"tag":"M0HTK41AP1P-M",
			"type":0
		},
		{
			"gid":"",
			"node":"M0HTK41AP001CK",
			"tag":"M0HTK41AP001CK",
			"type":0
		},
		{
			"gid":"",
			"node":"M0HTK41AP001AT",
			"tag":"M0HTK41AP001AT",
			"type":0
		},
		{
			"gid":"",
			"node":"M0HTK41AP001",
			"tag":"M0HTK41AP001",
			"type":0
		},
		{
			"gid":"",
			"node":"MHTK41AA201ACK",
			"tag":"MHTK41AA201ACK",
			"type":0
		},
		{
			"gid":"",
			"node":"MHTK41AA201A",
			"tag":"MHTK41AA201A",
			"type":0
		},
		{
			"gid":"",
			"node":"MHTK41AA202ACK",
			"tag":"MHTK41AA202ACK",
			"type":0
		},
		{
			"gid":"",
			"node":"MHTK41AA202A",
			"tag":"MHTK41AA202A",
			"type":0
		},
		{
			"gid":"",
			"node":"MHTK41AA203ACK",
			"tag":"MHTK41AA203ACK",
			"type":0
		},
		{
			"gid":"",
			"node":"MHTK41AA203A",
			"tag":"MHTK41AA203A",
			"type":0
		},
		{
			"gid":"",
			"node":"MHTQ22AA204ACK",
			"tag":"MHTQ22AA204ACK",
			"type":0
		},
		{
			"gid":"",
			"node":"MHTQ22AA204A",
			"tag":"MHTQ22AA204A",
			"type":0
		},
		{
			"gid":"",
			"node":"MHTK41AA204ACK",
			"tag":"MHTK41AA204ACK",
			"type":0
		},
		{
			"gid":"",
			"node":"MHTK41AA204A",
			"tag":"MHTK41AA204A",
			"type":0
		},
		{
			"gid":"",
			"node":"M0HTK41AP1AO",
			"tag":"M0HTK41AP1AO",
			"type":0
		},
		{
			"gid":"",
			"node":"M0HTK41AP1AO-A",
			"tag":"M0HTK41AP1AO-A",
			"type":0
		},
		{
			"gid":"",
			"node":"M0HTK41AP2R-O",
			"tag":"M0HTK41AP2R-O",
			"type":0
		},
		{
			"gid":"",
			"node":"M0HTK41AP2R-P",
			"tag":"M0HTK41AP2R-P",
			"type":0
		},
		{
			"gid":"",
			"node":"M0HTK41AP2R-J",
			"tag":"M0HTK41AP2R-J",
			"type":0
		},
		{
			"gid":"",
			"node":"M0HTK41AP2R-N",
			"tag":"M0HTK41AP2R-N",
			"type":0
		},
		{
			"gid":"",
			"node":"M0HTK41AP2R-T",
			"tag":"M0HTK41AP2R-T",
			"type":0
		},
		{
			"gid":"",
			"node":"M0HTK41AP2R-M",
			"tag":"M0HTK41AP2R-M",
			"type":0
		},
		{
			"gid":"",
			"node":"M0HTK41AP2P-O",
			"tag":"M0HTK41AP2P-O",
			"type":0
		},
		{
			"gid":"",
			"node":"M0HTK41AP2P-P",
			"tag":"M0HTK41AP2P-P",
			"type":0
		},
		{
			"gid":"",
			"node":"M0HTK41AP2P-J",
			"tag":"M0HTK41AP2P-J",
			"type":0
		}
	],
	"name":"yc4_realtime_043",
	"table":"rdcs_yc4.yc4_realtime"
}